ply
format ascii 1.0
element vertex 1089
property float x
property float y
property float z
property uchar blue
property uchar green
property uchar red
end_header
-8.44368 -32.7446 -147.362 0 255 0
-12.0659 -26.1457 -144.931 0 255 0
-7.97181 -33.6049 -147.907 0 255 0
-10.9933 -31.9071 -146.497 0 255 0
-9.26921 -33.0653 -147.002 0 255 0
-10.9957 -28.5564 -145.009 0 255 0
-9.75895 -25.6652 -143.997 0 255 0
-9.90753 -33.3395 -147.641 0 255 0
-6.6927 -32.2748 -147.045 0 255 0
-8.78875 -27.6299 -144.261 0 255 0
-10.3661 -32.979 -148.137 0 255 0
-6.32287 -33.8332 -146.268 0 255 0
-7.47239 -32.3693 -145.763 0 255 0
-9.35275 -29.2729 -146.201 0 255 0
-7.34747 -30.9088 -148.58 0 255 0
-9.57699 -29.932 -147.135 0 255 0
-8.42173 -27.6296 -145.176 0 255 0
-10.4911 -32.8604 -148.202 0 255 0
-7.05566 -34.3417 -147.231 0 255 0
-6.87851 -31.4856 -145.367 0 255 0
-10.3712 -28.2382 -145.153 0 255 0
-7.175 -31.819 -147.503 0 255 0
-8.03605 -30.7493 -148.475 0 255 0
-6.48866 -34.0123 -145.989 0 255 0
-5.92403 -32.7655 -145.885 0 255 0
-6.36198 -33.5656 -146.047 0 255 0
-10.1708 -27.2155 -145.681 0 255 0
-11.6625 -28.5284 -144.595 0 255 0
-7.25199 -29.2495 -144.812 0 255 0
-10.6282 -28.7306 -145.179 0 255 0
-11.7842 -34.2527 -147.911 0 255 0
-8.67045 -28.6298 -145.669 0 255 0
-11.8327 -26.4597 -145.147 0 255 0
-10.8679 -31.1459 -146.789 0 255 0
-9.6696 -33.2498 -147.429 0 255 0
-9.3199 -29.3437 -147.227 0 255 0
-7.1133 -28.8323 -144.828 0 255 0
-11.1635 -28.4818 -145.149 0 255 0
-8.05103 -30.6951 -147.896 0 255 0
-9.56946 -33.0324 -147.521 0 255 0
-10.5739 -29.1409 -145.395 0 255 0
-11.1073 -26.8154 -145.367 0 255 0
-9.36993 -29.8762 -147.691 0 255 0
-9.44014 -29.9887 -146.532 0 255 0
-10.1562 -33.2329 -148.303 0 255 0
-9.38135 -30.3562 -149.406 0 255 0
-8.21974 -33.9468 -148.191 0 255 0
-8.88739 -30.1711 -147.484 0 255 0
-8.4815 -28.499 -145.431 0 255 0
-6.54977 -33.3601 -145.978 0 255 0
-6.67433 -32.8647 -146.761 0 255 0
-9.66993 -28.6256 -145.021 0 255 0
-10.6114 -32.8178 -147.076 0 255 0
-9.56033 -26.4748 -144.893 0 255 0
-11.5531 -31.4233 -146.541 0 255 0
-11.6426 -27.6363 -144.158 0 255 0
-8.91996 -30.046 -145.784 0 255 0
-6.5555 -29.9615 -144.625 0 255 0
-11.539 -28.287 -144.114 0 255 0
-8.88119 -27.4133 -145.353 0 255 0
-11.8046 -26.3485 -145.469 0 255 0
-6.16573 -30.2585 -145.17 0 255 0
-6.29765 -31.0963 -145.703 0 255 0
-11.5686 -32.4372 -148.052 0 255 0
-7.81177 -34.1615 -148.446 0 255 0
-9.60554 -28.8552 -147.716 0 255 0
-10.16 -29.1926 -145.201 0 255 0
-10.6441 -31.7913 -147.236 0 255 0
-9.95614 -28.3501 -145.71 0 255 0
-10.3959 -26.7081 -145.927 0 255 0
-10.6251 -27.2522 -146.636 0 255 0
-8.13741 -28.4444 -145.623 0 255 0
-10.2229 -29.5386 -145.947 0 255 0
-7.52357 -32.2922 -148.119 0 255 0
-8.64955 -27.7081 -145.393 0 255 0
-10.6774 -27.0784 -145.509 0 255 0
-11.8341 -33.9112 -148.317 0 255 0
-6.88074 -31.9714 -147.459 0 255 0
-6.19495 -31.7252 -146.684 0 255 0
-7.80339 -29.0182 -148.228 0 255 0
-9.08859 -27.6685 -146.89 0 255 0
-9.40717 -32.1135 -147.682 0 255 0
-8.46498 -27.7679 -145.511 0 255 0
-9.51268 -32.7835 -147.962 0 255 0
-7.55139 -29.9463 -148.535 0 255 0
-11.7231 -27.2875 -144.039 0 255 0
-11.4101 -28.0936 -144.999 0 255 0
-10.8496 -28.4546 -145.345 0 255 0
-11.0274 -32.8732 -147.728 0 255 0
-9.6585 -26.334 -143.929 0 255 0
-8.05413 -31.9224 -146.869 0 255 0
-11.3363 -24.9992 -145.312 0 255 0
-7.96051 -31.2744 -146.322 0 255 0
-11.8753 -26.5647 -145.546 0 255 0
-10.1283 -28.276 -147.088 0 255 0
-10.6373 -28.1853 -146.978 0 255 0
-10.2935 -31.5618 -147.367 0 255 0
-10.2289 -33.0124 -147.499 0 255 0
-7.19915 -33.6475 -148.128 0 255 0
-8.16857 -30.1941 -147.965 0 255 0
-8.48559 -29.7248 -147.926 0 255 0
-11.4842 -30.7883 -146.385 0 255 0
297.731 61.7608 528.862 39 44 45
292.254 61.3089 533.235 194 205 203
287.24 60.2654 537.195 51 58 61
275.586 58.9788 547.014 40 39 41
279.18 61.5286 542.49 30 35 34
70.0199 11.5097 376.908 61 57 52
-341.945 -355.983 948.735 101 107 112
82.5085 -8.67981 334.013 68 62 57
32.5504 5.7797 430.797 53 52 54
97.5349 -22.3242 325.384 69 62 59
91.502 -14.0993 332.63 67 62 61
57.886 7.86557 406.938 62 60 59
139.057 -92.4028 516.684 63 63 63
99.2273 -96.6176 556.774 186 192 197
-57.0987 38.452 350.033 193 196 194
76.8144 -22.8216 338.939 171 174 179
-625.87 -460.704 1178.44 227 228 219
99.0112 38.2311 321.255 91 85 80
96.5441 17.8826 338.629 71 68 64
75.143 7.12517 444.914 161 168 171
106.324 36.7358 334.253 85 76 72
110.382 4.58937 409.41 78 73 72
199.99 193.104 599.514 200 198 197
116.836 -98.5872 575.83 54 55 59
90.7603 5.84239 441.032 66 61 58
84.5488 14.641 347.352 162 163 161
201.619 -82.2141 567.711 189 192 197
131.738 -94.6867 534.111 133 140 149
178.67 -94.0067 545.39 194 197 201
61.1282 9.75641 387.586 59 60 56
-338.355 -377.656 996.702 172 180 180
106.631 23.1394 332.636 99 90 87
47.7232 2.03838 478.967 52 54 55
80.609 32.2837 350.925 211 210 206
188.91 -87.3864 569.856 197 196 200
-631.95 -458.236 1169.36 158 151 124
19.5322 34.5664 373.207 231 232 228
42.7923 -31.6106 396.219 51 54 59
54.6515 -76.2016 538.992 39 43 48
-297.55 -355.767 951.846 31 35 40
42.6581 -39.7046 418.938 38 40 41
-341.51 -425.843 1001.6 177 184 187
-340.512 -403.078 1002.68 177 185 185
85.5908 -64.9477 514.952 182 178 184
94.9654 25.0356 318.334 66 63 59
82.243 -27.5374 338.951 65 64 68
64.6983 7.019 467.79 193 198 197
93.9183 1.75704 391.668 166 161 162
-117.682 -321.084 764.281 25 43 60
53.3093 5.50814 409.312 142 146 147
-35.2822 79.4672 285.072 197 202 203
-156.032 -352.176 832.444 205 170 234
-33.4402 80.9648 259.096 186 194 194
363.24 83.6899 508.032 118 142 154
86.5224 -12.4794 424.757 144 143 152
-38.4571 67.3849 336.249 207 211 212
341.477 -153.215 624.458 55 71 83
52.1495 -16.3896 478.18 49 49 55
-88.7901 10.3146 563.481 121 137 149
56.2627 -13.2365 473.706 147 144 153
435.786 70.4892 603.798 50 55 54
225.732 -23.1937 642.129 217 210 215
204.682 -34.2191 575.806 210 203 210
247.838 86.9159 316.653 125 154 168
-53.3027 -1.3201 491.154 65 68 73
12.8535 22.2911 401.124 58 60 60
78.981 -94.8825 554.87 61 67 72
-4.67586 24.9304 404.293 117 120 118
-67.361 55.862 350.119 71 70 66
-38.2874 72.1335 335.746 173 178 177
42.2891 -224.384 615.75 45 51 56
72.5352 5.97249 462.738 56 52 57
252.815 102.287 325.7 43 46 44
26.5017 18.5893 421.905 108 107 109
-157.207 -338.451 821.187 199 133 244
-33.2564 74.6818 253.719 195 200 201
-16.5968 9.58308 442.925 55 57 58
-16.2085 28.5339 413.323 191 190 186
258.612 101.586 323.8 135 163 174
-118.581 15.1298 805.501 94 104 114
-42.5105 67.5481 337.11 198 203 206
445.879 75.474 606.093 123 143 154
205.078 149.528 599.608 201 202 200
106.94 -127.182 548.709 64 102 126
106.498 30.6553 332.975 71 64 61
291.944 48.3098 378.048 36 36 36
249.431 91.6946 318.278 136 164 175
-120.597 5.27371 830.437 44 52 59
-657.845 -436.008 1287.31 250 255 255
257.208 99.2956 327.522 135 163 174
237.149 -9.43963 623.321 158 162 163
-34.6099 71.9187 278.618 193 201 200
75.0431 -80.1525 541.916 64 70 77
263.416 -18.8233 652.314 97 103 108
-48.7322 22.4372 450.452 106 118 128
-161.701 -357.286 815.979 171 144 208
-553.227 81.2332 1216.09 158 157 143
-235.202 -385.246 934.599 61 78 105
-691.221 -548.546 1378.83 179 148 95
256.903 106.387 323.734 33 33 33
-332.379 -118.722 1036.66 110 112 120
-343.499 -287.006 1001.89 32 35 39
48.503 24.1547 402.922 136 139 137
258.371 101.862 318.078 136 164 171
-349.961 -404.55 1006.27 68 72 77
-41.2312 101.451 334.436 187 195 195
-72.9394 58.2929 352.091 178 179 177
255.92 103.031 333.751 47 47 47
-61.9048 -39.1128 491.188 26 28 29
-332.556 -139.142 1034.28 94 107 121
12.5194 12.8997 422.741 198 203 201
-336.093 -251.172 1029.7 113 115 116
134.869 -93.089 522.941 61 58 60
-335.451 -185.024 1037.75 120 123 127
-336.092 -228.266 1031.86 101 110 120
299.588 72.9734 416.982 35 35 35
-70.5789 5.54622 482.161 46 49 53
-335.48 -207.619 1032.99 160 156 155
-318.075 274.672 959.744 35 40 43
-351.852 -302.896 1027.44 18 23 22
234.196 145.449 594.695 87 88 84
-333.901 -162.13 1035.88 108 122 134
-551.02 31.6518 1190.95 200 200 194
-38.0895 79.4413 336.697 198 202 203
-41.9427 88.965 338.814 193 198 199
-859.827 275.236 1543.17 132 137 140
63.9227 -13.0639 467.981 120 119 128
-58.3066 -0.035828 491.589 73 80 89
-200.248 188.587 616.033 44 47 51
-333.71 -53.3283 1050.91 101 109 116
-318.18 36.5888 1029.49 118 123 122
417.299 20.8042 569.364 53 51 51
-64.9948 -33.4456 495.4 28 30 31
-158.759 -323.264 793.065 198 112 254
85.6002 -54.6259 520.119 186 184 190
-322.871 288.251 962.652 32 39 42
-332.138 -96.2047 1039.8 96 105 114
2.40942 26.4379 397.689 115 117 117
259.129 106.917 318.634 39 39 39
28.7829 -27.6387 380 89 92 96
-304.399 280.971 885.888 32 35 39
-568.808 98.0325 1260.35 149 151 152
256.288 98.4812 291.927 95 109 115
-603.131 -467.891 1172.02 186 164 112
-338.058 -364.282 976.287 87 96 100
-34.4974 67.3101 277.093 200 205 206
-247.496 -390.21 949.496 72 109 147
-56.0329 -32.9845 476.413 43 47 52
36.052 8.48877 416.276 46 43 45
-334.223 -270.747 1018.31 63 73 80
-327.401 -360.455 968.586 101 107 112
88.312 -31.7397 341.11 161 161 167
102.898 21.9964 333.011 71 66 63
-130.766 40.7649 341.661 131 144 152
52.8231 25.0217 401.209 192 192 186
-638.585 136.032 1441.66 123 126 130
-153.913 16.4181 1036 60 65 66
-809.717 255.928 1415.81 114 122 122
-42.1611 72.514 336.957 199 203 204
257.055 95.4738 287.347 104 123 131
-68.9451 -25.2953 504.921 23 25 26
-333.313 -75.5132 1045.76 100 106 113
-252.591 383.918 746.292 23 27 28
19.7732 27.1729 375.464 67 65 65
314.947 85.0907 450.045 24 25 23
-333.118 -32.0233 1051.59 117 119 119
-332.938 -10.8808 1054.68 120 126 133
-53.1132 -43.1044 482.573 73 79 84
253.185 99.9888 292.963 104 116 122
-42.9748 82.4422 337.607 192 200 200
-286.107 424.719 904.253 29 28 30
-309.683 301.883 900.35 24 29 28
-186.963 -326.203 811.943 41 35 88
-44.5254 8.72491 498.631 91 99 116
211.975 143.866 608.332 195 197 197
257.616 105.949 310.523 41 40 42
360.53 88.039 500.307 41 40 42
-658.501 -423.277 1294.94 251 255 255
-64.9299 2.54466 479.629 118 127 136
-52.8702 5.66989 502.051 128 136 143
73.9761 33.0335 327.238 114 115 113
144.735 -137.397 558.423 66 83 109
-848.819 279.862 1664.37 113 117 118
-894.388 292.985 1702.67 122 126 127
-24.0796 -334.665 704.079 36 50 49
-992.777 317.178 1722.46 124 131 134
-352.745 -353.119 941.2 64 69 72
354.147 -136.58 544.306 58 67 76
258.631 93.6201 350.835 50 50 50
16.3543 -8.71587 392.673 131 135 136
-269.058 416.449 798.788 30 33 38
228.49 -71.9521 643.483 209 202 209
59.1838 -31.4319 353.073 128 131 136
-127.168 35.7359 853.458 102 112 122
417.075 72.4131 567.2 129 154 164
29.123 30.6921 374.764 83 83 83
-332.487 11.0924 1056.75 105 112 115
-21.0645 26.6114 415.318 171 176 175
-311.457 -364.509 970.621 50 55 56
259.906 101.323 314.132 82 98 104
-70.6111 -14.6578 494.251 37 39 40
-56.2199 14.6159 471.768 52 56 61
-54.5056 -38.8492 491.139 43 49 56
-321.699 342.711 945.729 22 25 29
-350.33 -228.494 1034.66 57 60 64
-860.296 173.242 1562.1 67 71 149
-62.3759 -5.7242 490.984 108 117 120
-0.0532027 -331.801 684.634 26 38 38
-602.988 -272.794 1221.36 251 255 254
-149.931 -358.359 834.802 199 170 220
-52.8536 -47.7567 473.891 85 91 98
77.2061 -12.328 457.351 150 149 159
121.203 219.649 515.625 218 214 203
83.6612 26.133 344.397 82 77 74
-607.629 -524.114 1319.32 152 113 74
18.3777 -14.6806 380.292 101 103 103
-56.9983 -26.1677 457.74 53 57 62
-1172.06 391.389 2230.13 116 121 122
69.8831 -31.2645 344.831 57 56 60
-160.955 26.5504 1029.62 60 63 67
-346.239 -249.35 1017.21 54 57 61
-1.28854 29.049 401.687 136 139 137
341.676 -135.684 541.15 45 48 52
-655.692 -402.941 1297.38 251 255 255
-17.6178 13.574 419.537 108 118 125
290.653 50.4139 368.266 121 144 159
10.2635 18.0095 393.207 63 63 63
-368.55 458.245 1146.78 22 26 27
32.8686 -32.6007 376.312 34 35 39
22.0321 20.2804 423.374 132 131 133
-348.652 -206.094 1033.93 58 61 65
-1318.84 335.361 2368.05 87 99 111
-348.257 -185.388 1034 57 61 62
42.2464 35.1965 373.082 95 94 90
359.829 -136.021 541.639 52 65 67
-937.085 732.934 1648.97 38 44 43
-351.89 -273.825 1033.3 48 50 51
-607.741 135.602 1385.94 52 57 56
-568.581 107.022 1279.86 56 61 62
82.6729 -256.433 1031.23 43 49 54
-846.402 276.412 1632.16 134 139 140
-1126.1 372.635 2113.16 130 136 135
-570.044 138.609 1278.41 113 115 116
-44.8155 -48.3435 466.809 84 86 96
-560.834 14.5228 1217.42 139 147 146
132.057 -99.5847 577.081 157 163 170
-61.4192 -17.9067 480.035 45 51 56
-111.925 45.8701 539.223 120 126 131
62.4388 -29.7416 348.014 142 143 153
138.014 -123.258 521.725 54 84 111
-855.904 203.802 1562.17 136 149 163
-620.428 -521.257 1305.54 185 142 91
-206.321 27.3281 1095.74 45 45 45
362.59 -132.926 530.789 54 57 61
-58.2115 -46.0801 477.886 30 32 33
-347.324 -52.1077 1049.09 48 50 51
-4.58328 -304.775 661.552 40 87 49
50.9071 -33.2084 354.53 60 60 66
-335.703 -285.895 1023.27 74 78 79
-295.674 -368.619 978.398 58 71 79
-624.066 189.062 1430.21 98 97 99
15.6542 25.4651 380.884 66 62 61
25.3075 29.9162 376.416 65 66 64
-63.8393 10.7906 467.669 45 50 51
74.7411 28.8633 361.204 212 209 204
-730.159 168.931 1472.34 115 133 140
-24.0411 10.8596 463.46 46 49 53
163.328 -97.4379 562.234 147 153 164
-634.944 -424.397 1317.62 150 162 168
48.1951 -11.6171 454.435 49 48 52
-963.174 235.109 1818.59 122 137 146
-662.093 -441.87 1346.58 144 150 179
-347.778 -97.5243 1045.32 41 46 47
-44.8644 18.4488 471.985 87 91 96
87.4148 -58.5568 512.998 74 72 78
-110.616 -315.829 758.776 55 132 224
-944.088 228.446 1625.58 99 111 123
-75.5129 -19.3539 541.212 23 25 26
-547.122 -26.7057 1138.15 101 109 116
-50.0852 17.1482 467.475 54 58 59
-56.8384 -14.262 471.556 84 89 92
-572.971 34.5627 1211.61 84 92 92
-352.059 418.793 1074.56 24 28 29
-23.6503 -307.358 680.63 42 99 54
-352.53 -20.7492 1061.25 47 51 52
-346.088 -141.096 1034.15 59 62 66
24.6221 -24.5091 377.068 79 81 82
-28.6823 17.5435 522.189 84 105 113
-391.664 -315.635 992.28 55 60 63
371.367 -189.185 691.624 60 78 89
-650.065 -52.4884 1360.13 80 90 100
446.195 40.3235 622.175 46 47 45
225.659 14.5816 595.308 217 218 216
-132.817 -361.223 819.097 60 63 101
-749.671 -564.865 1412.69 190 153 103
-568.377 -521.53 1270.26 48 43 44
-626.675 -418.468 1322.76 132 141 150
20.3768 -17.3416 382.583 128 130 130
-71.9438 -314.095 722.951 42 119 215
-23.9166 -324.585 690.875 43 96 52
-628.707 -376.389 1241.6 251 255 254
-387.332 -359.809 970.397 52 57 60
-52.2805 -18.339 459.276 52 57 60
-30.2715 23.7722 422.741 168 174 173
99.9407 -126.924 549.608 61 69 76
-24.1629 24.5646 417.502 156 161 160
-617.558 174.908 1427.01 47 48 52
46.7247 -52.0574 475.285 38 40 41
-861.15 205.724 1538.25 138 151 159
-329.045 -259.702 1018.55 129 130 126
78.0253 -28.262 338.166 58 57 59
-43.3422 -311.531 702.646 48 104 61
-331.339 -396.005 1012.03 164 173 176
-11.0531 23.1229 405.707 95 100 103
-323.791 65.8826 975.256 38 41 45
-769.196 539.949 1602 68 80 80
-635.412 -451.381 1149.24 117 110 107
-345.342 -118.372 1033.63 52 56 57
35.7695 -30.8051 370.088 129 133 138
62.6563 -236.839 786.436 39 48 52
-35.1674 17.3756 440.27 90 93 101
-351.489 -133.912 1029.28 51 54 58
-59.9682 -348.046 749.512 32 70 128
-728.955 239.942 1483.15 98 102 103
-176.532 -323.159 802.937 148 62 228
-883.894 596.101 1570.08 53 61 68
395.144 49.2465 548.305 35 35 35
87.7135 14.7828 320.736 66 63 59
44.6348 -27.364 405.657 52 51 60
334.751 -137.055 543.016 63 78 87
-91.1213 -305.719 718.223 46 132 228
231.561 -3.07469 601.712 215 216 214
298.144 84.6304 422.059 45 46 44
-233.745 -343.052 886.683 81 116 150
-539.665 -504.072 1228.5 118 86 63
-348.517 60.9143 1065.29 46 49 53
-324.333 -45.9175 1036.04 152 155 153
-335.198 33.2555 1049.88 121 126 125
-815.668 514.621 1601.93 45 52 55
-24.5618 -44.5475 441.322 42 41 51
61.3939 -229.204 772.689 43 49 54
257.16 97.5337 346.582 45 47 47
-56.8258 -26.2591 494.785 45 49 54
-77.6129 65.33 367.407 204 205 203
17.1919 16.5193 425.903 108 113 116
-200.842 36.6892 1033.69 70 74 75
-827.769 521.52 1649.51 23 31 30
-558.486 -498.102 1237.8 188 141 89
-104.662 55.1334 703.881 96 98 132
-695.894 162.96 1311.73 124 139 148
-75.6942 -4.39104 501.486 44 47 52
85.7998 -12.0403 450.172 121 118 127
392.236 -216.93 736.258 59 77 88
27.0908 37.427 373.237 132 131 127
10.8365 30.9085 385.509 143 145 145
6.62059 28.0621 392.185 102 106 107
99.6002 -112.118 553.805 61 67 74
-704.315 -80.6726 1476.67 84 95 103
-501.074 -316.443 1314.46 51 56 59
262.578 99.6646 311.274 23 22 24
-341.492 33.3894 1041.56 54 59 62
-52.4851 -33.5725 493.596 56 60 65
-622.823 -376.809 1278.57 97 98 172
-341.47 -245.85 1072.29 143 144 140
387.079 -204.171 726.992 58 76 87
-195.003 -358.243 841.853 73 70 120
-67.0923 45.3993 348.066 138 143 146
-676.588 -450.238 1353.24 145 155 165
-337.673 -410.598 1032.91 110 122 124
54.8994 -230.782 680.319 46 55 59
-338.772 -31.8388 1012.04 49 53 54
50.8687 -1.11371 477.884 47 46 48
-235.102 -367.621 926.65 104 118 140
-348.824 -74.0088 1052.6 55 56 60
-351.048 -163.592 1048.54 60 63 67
-625.297 134.235 1265.9 118 134 141
222.496 94.0279 619.503 183 182 184
42.9378 39.8582 373.572 138 134 129
-757.238 -473.066 1330.89 130 138 168
-338.705 -10.8748 1010.09 46 50 51
-346.721 -88.9296 1023.35 44 51 54
385.333 22.5105 522.512 42 40 40
124.987 -87.9987 510.343 196 198 206
-864.421 573.607 1478.68 62 81 94
-355.396 51.6066 1083.86 49 54 55
-740.271 173.391 1442.37 126 142 154
281.214 87.4703 379.945 126 153 167
-82.4652 82.4583 406.421 197 198 194
-307.622 -65.4834 969.68 139 139 139
-568.597 81.9267 1219.7 73 84 81
-826.26 195.232 1657.07 119 136 145
223.761 66.1216 618.256 207 208 206
-376.622 -282.188 944.295 53 58 61
-643.948 -69.8098 1336.02 85 100 109
-908.972 726.03 1555.96 87 100 102
-673.265 -349.855 1362.76 251 255 255
-323.712 -87.4184 1029.29 143 141 140
-323.234 -215.309 1010.02 156 157 153
37.4634 34.2196 372.973 77 74 70
208.701 78.7232 574.392 191 191 191
-286.83 -363.774 972.68 60 76 83
-1486.89 1372.05 2782.01 45 59 81
-566.581 14.3674 1189.89 78 87 97
70.8328 -268.398 875.976 42 51 55
47.2348 -33.5089 378.67 114 116 127
-178.076 14.1739 1013.84 56 56 56
-252.665 -419.502 967.321 74 112 147
54.4424 -62.4436 564.867 38 40 41
14.3917 31.784 378.807 165 167 167
-634.817 -528.418 1318.45 203 155 97
-543.991 38.8614 1239.53 116 109 84
-333.603 -17.5455 1074.42 128 130 131
-25.9633 18.3182 428.952 59 61 62
-354.32 -282.755 1030.2 42 45 49
-329.297 -177.987 1034.09 155 156 154
199.97 -86.8896 578.31 76 78 79
-623.643 5.65167 1320.14 84 93 102
-1134.66 1106.87 2247.18 63 74 82
-215.687 35.6848 1053.01 64 68 69
-8.29409 -1.87783 423.463 36 37 35
-770.398 504.829 1539.13 66 75 78
44.4896 22.6128 405.717 133 131 130
-749.858 201.508 1469.67 53 55 85
41.7587 21.1755 414.402 97 99 99
68.6845 -79.7825 540.838 65 68 76
231.064 84.2902 645.707 192 192 192
-53.1174 19.0965 458.697 98 108 115
-133.484 -359.703 836.08 33 51 68
87.3899 -71.8966 508.837 181 180 190
-1138.04 1039.06 2167 72 80 87
-371.431 -111.68 1103.17 49 52 56
-36.6317 -50.3141 463.062 31 34 39
-312.053 292.915 901.937 28 28 28
-649.916 -158.206 1313.89 97 102 103
-337.454 42.1894 1146.84 46 50 51
445.845 52.1315 625.025 52 50 49
-653.11 -132.174 1332.89 97 105 112
-49.4689 -353.451 744.506 45 105 65
-394.474 -345.532 990.698 54 57 61
189.977 -82.2664 565.357 152 150 156
-61.8818 -1.98537 476.523 97 107 117
-616.893 163.235 1385.97 79 84 93
50.643 -21.3321 470.217 50 53 58
-143.114 -324.015 787.98 57 55 75
-362.302 26.7662 1093.27 49 54 55
-391.545 -283.4 991.714 53 57 58
-603.608 -170.181 1198.29 101 105 106
-634.79 -411.281 1315.62 120 129 142
-47.794 -42.7835 477.792 59 62 70
-531.648 -505.447 1233.44 44 39 36
401.078 -232.127 752.293 61 79 90
-289.632 35.103 1091.24 49 54 55
31.5503 20.137 426.824 108 107 111
-646.265 -34.8683 1358.89 85 95 105
100.448 21.4473 336.532 74 69 68
90.0181 15.1906 357.614 199 202 200
94.7103 -27.2786 329.496 61 54 51
213.234 99.6132 596.58 188 188 188
-129.197 -321.617 778.166 35 61 68
-13.3633 -12.6077 458.909 32 31 33
75.7247 -246.061 941.151 41 47 52
-246.349 35.4683 1114.65 46 48 49
88.6571 -8.21211 338.333 65 62 58
-403.123 -339.401 1017.14 55 60 63
251.446 -19.5859 658.368 85 88 92
54.16 -33.0586 353.044 67 66 70
-898.313 183.365 1582.78 123 135 175
-627.34 -405.714 1316.83 111 121 131
-132.393 -363.724 798.07 65 65 101
-46.5896 -342.177 745.631 25 56 49
-189.767 -332.74 812.654 45 39 86
-729.32 -462.608 1292 69 67 126
4.54623 12.4914 385.846 49 49 49
-247.394 230.637 775.517 39 44 45
-4.49117 -323.494 671.988 42 85 52
-730.895 548.814 1472.38 50 59 73
-341.307 -143.731 993.221 52 55 59
-252.228 74.0462 728.41 38 42 43
-892.303 45.2309 1507.62 134 140 151
-626.777 -5.05516 1324.93 81 90 99
83.6908 -8.50213 457.845 142 141 151
70.6186 14.6235 366.403 62 58 53
232.78 4.50755 610.142 215 216 214
-75.414 77.8288 355.538 189 190 186
-324.266 -106.323 1011.23 155 153 152
-340.61 -235.389 977.898 51 56 59
-190.297 42.376 1014.04 110 119 122
-57.8716 4.84597 486.945 106 111 120
79.2838 29.5988 356.708 196 193 188
-539.425 59.7408 1247.41 126 111 72
-796.869 -495.477 1371.95 76 71 156
2.96442 31.276 401.635 159 161 161
37.0983 19.8532 419.205 98 98 98
-639.328 -379.92 1287.39 169 174 183
210.165 -7.15928 592.517 217 206 209
64.4757 37.4908 342.533 91 85 80
46.9363 37.3445 365.882 90 85 84
212.472 91.4405 591.231 195 193 193
214.392 -63.3013 596.542 204 202 208
-350.14 11.6114 1059.95 41 46 49
300.268 -146.506 596.811 41 53 63
-35.5179 -6.45772 603.725 42 46 51
-768.545 -450.055 1286.07 74 79 148
-899.573 881.424 1788.16 63 69 80
-24.3568 -55.8676 494.467 26 28 29
-878.445 675.953 1508.54 24 29 30
-348.271 279.173 1093.36 35 37 38
274.035 81.8065 379.883 44 44 44
32.4056 32.2839 371.442 78 74 73
-608.924 -15.2999 1343.34 226 221 218
-365.865 -285.385 911.952 48 54 59
235.288 77.3102 655.307 191 192 190
-854.967 156.717 1551.09 65 73 140
66.3077 -29.2179 345.681 142 143 153
-594.989 -426.417 1137.55 252 254 255
83.5788 22.1712 343.82 71 66 63
-756.456 527.855 1596.48 63 77 76
-505.499 153.94 1115.08 73 78 87
-853.587 222.748 1497.23 74 82 99
172.482 -98.5943 564.394 58 63 72
78.2403 16.256 351.491 69 65 60
-1814.45 1723.56 3557.75 41 52 72
-299.457 271.616 939.518 36 39 43
254.956 -13.6109 639.051 99 106 109
-754.325 246.526 1557.17 104 110 115
-639.086 113.22 1274.06 60 106 100
223.07 -16.4832 633.884 218 208 214
-616.381 -0.96846 1339.02 213 212 208
108.657 -113.01 550.599 58 88 107
-585.891 41.4206 1208.7 76 89 97
-266.412 35.3954 1083.75 69 73 74
201.115 -44.4405 554.135 202 196 201
-877.662 825.616 1689.9 49 61 79
-343.956 -186.784 992.035 51 54 58
-83.9479 118.288 423.323 181 182 180
-886.426 63.1096 1499.56 126 134 147
-316.344 -152.412 994.448 159 160 156
129.296 -102.42 608.521 166 170 175
-544.93 65.963 1234.47 138 129 86
62.7752 -174.634 801.665 36 44 51
-581.192 121.065 1185.62 111 127 134
-166.976 18.5102 1023.14 83 90 93
-706.974 -219.252 1421.18 107 112 115
-150.933 -348.62 839.745 46 65 80
-11.4985 -18.6832 468.072 28 30 31
-300.566 211.586 918.734 35 37 38
-930.052 815.41 1637.2 87 95 102
-638.263 -412.877 1280.3 141 149 162
-1050.15 279.662 1813.35 80 87 102
226.368 -80.7615 634.91 206 206 212
50.1453 38.1616 362.313 91 82 78
-834.797 107.758 1509.19 59 65 140
-624.62 -3.93723 1388.2 226 217 208
-399.027 -244.624 1017.58 53 58 61
16.9413 19.9601 406.779 122 129 132
-774.684 -258.665 1564.23 110 115 116
-286.126 206.122 865.756 36 38 39
12.8419 2.89166 390.559 100 99 101
-189.098 -360.174 822.3 73 68 119
73.7689 -11.7783 344.387 148 148 154
99.5084 -26.6066 333.445 85 79 80
86.5061 6.62135 311.777 68 64 63
-32.9711 -341.184 710.247 43 95 55
239.602 -22.7994 654.406 59 57 57
-798.061 220.087 1608.08 40 43 58
-252.007 31.7833 1064.5 43 47 48
92.7981 -95.5271 565.183 155 157 167
-870.51 682.512 1489.83 76 88 90
-564.146 -395.247 1074.52 250 255 254
-415.049 -433.697 1042.11 56 60 61
65.9617 25.4787 379.361 97 92 89
230.806 -57.6105 651.674 202 201 203
-340.443 -429.203 1044.58 171 180 183
-540.905 -490.478 1219.57 169 127 80
-871.824 90.0899 1530.3 128 135 150
-586.513 111.259 1218.08 86 103 112
-309.038 -416.486 1039.5 45 56 64
14.886 -5.01578 383.95 69 71 71
-705.418 -457.05 1286.89 62 59 109
-820.585 579.418 1529.37 64 78 96
-509.5 -320.737 1259.66 57 71 83
289.183 68.0968 532.393 29 28 30
71.2397 36.4353 336.359 85 78 75
-261.78 32.691 1028.19 64 68 69
179.415 268.935 519.417 194 187 184
104.98 5.55996 402.664 73 68 65
337.261 -143.36 591.286 35 38 42
423.476 55.1342 584.195 52 58 63
20.9402 14.4984 420.953 70 69 71
54.8344 37.3348 347.792 89 83 78
-231.586 134.692 659.137 34 33 35
-598.117 -422.416 1082.52 98 92 111
179.885 -89.6744 535.651 190 191 195
-335.267 -174.425 965.557 53 56 60
-820.437 42.3809 1478.28 66 72 137
-162.501 35.1983 1012.69 54 59 62
-745.546 -424.534 1295.67 73 73 143
-578.334 75.623 1207.35 43 64 65
-646.905 -455.107 1153.95 81 72 123
-73.3331 -10.2123 486.899 45 49 50
-337.771 -79.6467 994.395 47 52 53
-124.814 -327.709 769.891 32 53 68
-679.917 -342.015 1383.63 253 255 254
-152.802 -380.316 831.009 199 170 219
76.5702 -88.2583 547.365 59 63 68
-20.3309 -41.9336 440.276 41 40 49
-241.748 -343.171 897.178 43 100 132
-591.122 -387.519 1375.32 83 94 102
-533.252 -340.487 1283.07 65 74 87
-184.324 -368.705 814.686 74 70 122
-183.884 54.549 1010.82 126 133 136
20.4648 -304.86 648.495 48 60 66
-44.8123 16.3864 576.744 85 98 114
-94.7952 134.005 498.54 189 190 188
106.351 -97.6544 564.385 48 51 55
-316.498 -0.928046 1000.9 132 134 134
-192.709 -348.453 837.856 45 34 90
-672.784 -105.583 1388.02 87 102 111
330.663 81.8561 454.649 122 143 151
61.6861 23.9154 378.871 92 89 84
-852.004 69.7199 1493.11 125 128 156
-9.68352 -8.98403 432.838 47 51 52
225.324 146.674 590.052 65 63 62
255.991 87.7105 336.205 133 160 174
-545.23 -274.764 1464.97 53 59 64
-817.354 566.144 1455.27 54 60 67
259.294 86.3272 354.291 50 50 50
49.3352 -297.281 653.077 46 54 61
302.609 58.3817 531.739 31 31 31
-315.378 -444.319 1068.3 47 62 65
-894.368 173.311 1549.63 114 127 149
-167.809 70.9062 1040.99 60 64 65
-308.76 256.478 956.003 36 41 44
57.6539 -149.989 726.978 36 42 47
-337.64 -407.919 935.725 66 72 79
178.991 -99.2072 563.518 70 73 78
-509.405 543.243 1257.75 75 84 71
-932.115 163.863 1586.71 125 141 154
-1450.94 1436.63 2949.75 53 62 72
-37.6518 23.3009 435.905 169 174 173
-33.9817 18.2946 568.809 62 72 79
-647.876 -249.011 1272.29 107 118 122
-82.9269 -317.97 750.086 42 126 221
-55.3654 10.9171 481.655 101 108 117
-616.996 -287.827 1271.18 101 102 153
-909.39 769.681 1573.04 65 81 88
-298.477 -387.676 1014.38 47 54 63
-376.696 -340.978 939.408 55 60 63
-331.095 -193.785 1046.13 155 153 152
-905.046 528.81 1562.75 18 21 25
40.1926 42.8089 373.489 189 188 184
-796.781 529.901 1561.4 60 72 84
352.721 4.08215 518.353 26 27 25
-614.629 126.293 1303.34 67 79 91
-149.317 -365.886 822.731 197 168 217
-344.647 -63.592 1019.73 47 50 54
-646.847 -143.701 1310.23 101 106 109
-792.082 488.576 1508.4 21 29 28
-31.6087 19.5985 442.388 55 57 58
-1093.58 424.501 2059.02 38 39 53
-700.376 513.803 1505.17 38 48 48
-28.4556 -47.0058 447.769 41 40 49
-47.0321 -52.2658 472.562 25 26 30
-8.83051 1.03385 382.916 37 36 38
-609.61 -372.537 1128.63 119 125 138
255.42 -22.8266 652.172 42 42 42
-813.375 477.978 1648.86 15 20 18
-900.863 112.355 1527.89 120 129 143
-229.537 32.8237 1070.93 39 41 42
-582.457 124.523 1269.43 61 67 74
22.588 -333.635 697.316 37 49 55
-629.477 -419.105 1156.57 97 98 126
59.9973 37.1538 341.347 92 84 77
-781.434 -432.178 1322.89 102 99 184
-845.311 116.695 1473.04 61 64 139
90.5599 2.00204 442.579 62 59 55
-553.592 93.6423 1191.96 65 71 78
-615.684 -414.567 1339.59 82 86 114
428.974 66.2545 603.85 54 54 54
-239.088 -412.33 932.203 71 100 144
131.29 -108.562 525.781 61 67 74
73.7255 -30.2612 344.475 67 64 66
416.539 -385.551 773.862 68 85 98
48.6166 7.25479 397.776 50 48 48
-878.868 144.705 1536.31 62 67 142
-598.951 228.659 1385.34 74 77 81
-837.982 737.588 1548.55 60 70 77
-916.52 870.293 1890.09 69 73 78
315.671 -147.443 615.051 38 47 56
-635.151 -470.721 1218.66 255 255 254
-422.641 -335.785 1063.3 52 57 60
-648.572 -96.1227 1348.51 93 103 110
-54.1887 -22.7977 501.748 54 59 62
221.608 140.662 605.405 65 61 60
408.869 13.5495 561.076 43 41 41
-807.148 -489.576 1344.14 77 71 172
-4.39049 -323.455 691.008 39 87 51
-774.084 794.017 1586.14 41 47 60
-855.683 583.281 1579.55 42 62 63
-711.689 -476.375 1312.4 71 63 116
-728.287 153.93 1469.19 118 138 149
-35.5067 69.1849 335.034 196 202 201
-339.931 -128.581 1082.92 138 139 137
75.4695 15.9491 359.692 65 62 57
-622.415 364.616 1579.12 31 32 36
73.1933 -4.30183 362.565 60 58 64
366.095 -1.03095 504.41 37 37 37
38.2902 38.1395 372.679 110 106 101
-474.46 -477.561 1139.41 31 29 29
53.8228 -69.9829 530.362 39 42 47
-654.428 -301.988 1263.51 115 122 137
-327.814 -41.0309 975.335 46 49 53
-893.999 558.898 1523.03 32 44 56
-371.468 -228.603 1080.56 49 52 56
74.6324 -25.129 346.798 144 145 155
-789.575 -433.25 1310.51 138 145 160
-1093.37 426.262 1992.14 57 58 68
-744.601 137.275 1476.79 115 131 138
82.8376 -100.233 562.479 57 65 72
-740.203 204.511 1516.95 45 51 64
-838.299 527.659 1507.46 48 61 77
-638.803 -281.663 1233.55 106 108 132
-601.764 -424.642 1340.65 88 92 97
-833.321 499.965 1809.77 35 63 43
70.6488 26.6008 370.781 106 101 98
105.106 7.72251 494.317 212 206 207
-574.954 54.7518 1338.25 137 121 78
-795.629 516.007 1610.93 82 94 96
-40.789 -51.3556 461.364 21 22 26
-575.263 2.14832 1268.12 220 215 206
-452.994 -239.68 1181.78 52 58 63
6.8854 31.7022 386.366 169 174 175
-535.332 229.044 1215.32 50 53 61
-883.969 808.574 1696.4 84 90 95
-696.63 555.597 1555.16 52 61 65
346.358 65.93 507.075 31 29 29
-13.9479 20.393 411.261 61 61 61
38.8082 6.84069 551.536 47 44 46
340.695 -146.747 614.906 24 29 32
-886.3 100.767 1519.61 125 133 146
-565.473 193.063 1273.6 64 69 78
120.731 -105.289 593.199 61 66 69
212.499 161.685 623.075 193 194 192
-816.105 161.681 1448.72 56 62 139
82.5859 -73.3954 515.976 186 186 198
-660.224 -334.813 1366.05 108 109 165
-392.006 -370.366 980.601 49 54 57
-942.461 572.805 1644.02 59 74 90
-27.3371 -311.839 679.651 46 103 58
-805.287 38.2179 1397.39 89 95 148
273.597 77.955 362.387 127 148 156
194.114 206.518 563.219 205 200 197
347.641 -146.917 580.65 108 128 145
-15.6453 -22.3387 459.528 36 38 39
-751.208 -443.694 1304.25 81 83 141
-913.837 594.613 1586.76 66 85 100
-637.039 495.032 1460.74 49 58 61
377.668 13.1985 514.419 40 40 40
-319.498 16.1924 1032.75 130 130 130
-633.226 488.606 1344.71 50 59 62
-592.926 -250.734 1137.47 114 124 131
-565.286 -36.9734 1201.13 225 222 218
60.3489 16.4767 383.458 62 59 55
-660.153 523.03 1500.9 50 59 62
-510.949 -325.397 1236.76 60 74 86
-369.486 6.16734 1116.59 48 53 56
368.292 3.14821 498.403 32 27 29
-631.785 -298.947 1283.12 251 255 255
-24.0843 -33.722 468.278 36 34 40
-547.755 -431.279 1175.71 61 64 85
-403.303 -333.558 1034.22 55 60 63
248.422 153.846 559.317 42 40 40
-619.632 -393.608 1324.44 136 145 154
162.369 -103.506 584.117 63 66 70
-180.084 62.7839 983.664 128 135 138
-197.022 191.778 602.257 50 52 53
-744.786 -440.378 1270.62 109 119 153
46.568 -219.94 617.262 39 48 52
267.225 150.535 564.589 26 26 26
-810.775 817.169 1627.41 61 67 78
-1087.55 439.547 2020.15 40 40 56
-40.0407 -351.862 756.3 18 35 32
-560.168 24.7685 1200.6 135 139 144
-356.372 -165.035 1038.26 48 52 53
-190.348 23.8706 1066.66 37 39 39
-15.2636 -4.70284 458.238 28 27 29
-18.2932 -37.7833 439.379 37 40 45
-1086.06 432.022 1909.91 32 31 63
91.7627 -28.9727 332.977 56 51 50
-765.228 454.276 1613.27 29 46 32
-654.438 -280.108 1239.13 96 103 120
-771.419 758.188 1557.16 52 61 70
371.37 -3.88294 503.602 36 34 34
-994.589 839.234 1769.89 55 66 64
-572.263 -16.0231 1429.55 31 30 69
-623.82 -346.189 1171.45 98 104 127
-588.245 -60.9302 1246.83 228 220 220
-1134.12 441.281 2026.47 58 60 70
-28.3528 -9.29102 577.361 45 55 62
357.436 6.98796 500.401 38 35 37
83.0706 220.625 456.099 201 195 188
-575.974 381.349 1472.24 31 36 39
-877.166 133.848 1519.79 64 66 144
-730.003 -361.475 1414.72 111 116 125
-865.111 194.399 1526.76 121 135 147
-773.909 559.113 1507.31 38 45 62
-598.126 -391.138 1364.32 90 94 99
-525.727 534.69 1252.83 34 39 40
-16.3062 42.6154 334.584 214 219 218
245.055 86.971 317.113 141 167 174
-698.524 537.08 1450.79 31 38 47
-675.528 -304.354 1276.68 97 103 114
-85.1997 81.0994 418.627 213 214 212
284.578 55.1793 547.189 29 29 29
-594.562 241.342 1378.79 67 73 78
348.56 32.8746 502.631 36 34 34
-953.088 593.877 1746.62 45 56 70
-612.38 129.315 1519.79 22 23 37
-83.6901 41.2546 338.625 207 212 215
-601.146 -504.215 1300.52 95 95 101
-725.118 -561.593 1402.95 216 174 121
-345.455 -247.867 987.177 49 50 54
-575.767 63.2544 1189.64 47 74 71
-643.836 -223.338 1344.12 251 255 255
-727.276 461.68 1628.68 31 41 41
268.528 85.5045 371.247 42 43 41
-700.19 -554.291 1377.44 222 175 114
-305.476 -421.608 1030.02 44 54 61
-1147.85 432.812 2069.69 44 44 60
-23.0712 27.2439 386.322 227 229 229
-696.903 226.536 1460.07 81 87 92
42.545 8.42884 407.597 56 56 56
87.75 16.2891 462.883 188 186 185
-797.454 -490.635 1350.59 73 70 156
-607.742 -415.376 1174.27 255 255 255
139.362 -106.51 520.019 40 41 45
-1154.67 1087.45 2240.92 35 49 67
375.407 -26.3504 514.718 34 34 34
-363.638 -401.88 1027.36 67 73 80
82.0114 17.4071 348.422 77 74 70
415.84 95.7732 554.701 41 48 51
-660.335 -404.036 1335.74 115 117 175
-99.7119 -277.612 735.472 39 48 58
-733.247 544.173 1551.14 31 40 43
79.1777 -7.64982 345.132 62 59 55
56.4306 23.0666 396.957 97 94 89
-5.53876 30.7235 397.728 169 174 173
-639.112 175.944 1382.06 29 30 50
-589.729 118.079 1282.18 64 68 79
-1006.13 412.338 1774.4 28 29 55
439.051 46.6755 619.847 40 40 40
-838.051 776.452 1677.32 58 64 69
92.2789 27.4737 315.278 60 55 52
-568.259 -413.608 1252.41 89 90 100
333.008 -148.704 621.216 41 51 58
-68.0065 82.8177 356.528 65 62 57
-609.575 -223.703 1188.97 109 115 120
357.141 -84.3118 565.547 34 34 34
94.363 8.80371 441.725 187 187 187
-566.659 -29.691 1234.05 236 228 221
-256.303 -348.933 921.366 43 91 115
-738.966 -112.754 1625.99 255 251 246
-596.626 113.982 1214.03 108 127 135
-574.883 -15.0491 1234.81 216 211 208
-1003.54 422.308 1889.96 34 34 50
48.7655 16.4596 377.777 64 61 57
317.003 65.3267 502.802 22 20 20
-537.408 -497.228 1247.99 121 90 65
10.686 25.3003 394.586 63 61 60
193.788 185.702 560.039 192 188 187
-665.353 69.9354 1399.07 71 80 89
92.6325 12.9581 466.526 171 175 176
83.9161 -11.9974 341.64 57 55 54
-725.374 -460.486 1301.47 104 112 141
122.579 -73.0257 499.684 194 197 205
207.797 215.063 609.345 181 177 176
-612.655 -501.711 1295.9 54 47 84
361.094 -1.64462 512.496 29 27 26
-179.231 76.5668 984.031 112 121 124
86.959 38.9191 324.76 82 78 73
356.764 -23.9629 523.084 31 29 29
-610.501 471.411 1422.93 47 58 62
-775.037 -431.565 1331.17 84 86 164
-957.021 118.241 1773.7 61 64 139
361.506 52.5728 497.34 37 37 37
339.444 45.1184 502.169 31 30 32
-71.8559 -353.856 770.343 48 126 219
-971.169 617.318 1689.71 30 38 55
-474.804 -109.432 973.922 252 255 251
-334.116 27.4154 1076.92 123 128 127
-2.52226 -130.613 1168.43 24 27 31
79.9648 38.7051 325.065 85 76 72
-622.758 152.879 1379.77 54 59 68
361.569 32.2733 510.815 31 31 31
259.8 72.1913 345.336 55 63 63
70.9178 -74.2151 523.447 187 189 199
365.868 -20.6055 507.062 34 32 31
-1051.36 998.531 2073.2 34 46 64
49.0161 -285.061 649.285 51 57 62
-597.8 -376.243 1354.33 91 96 105
85.8925 17.4647 335.791 114 113 109
4.92239 9.47989 398.198 41 41 41
455.057 37.6723 628.9 66 82 89
-1057.28 898.182 1927.38 66 80 79
-666.106 451.485 1531.46 30 39 42
363.544 -125.326 530.166 38 37 39
-366.537 -216.255 1064.76 52 57 60
-565.568 564.569 1358.28 31 36 39
-841.298 60.8571 1449.36 60 66 139
-56.8929 -50.568 480.26 14 16 17
-474.888 -371.383 1155.05 31 30 50
287.473 55.0103 531.929 30 29 31
-850.322 577.414 1540.09 44 58 70
66.151 -342.927 754.278 178 182 187
326.946 66.1162 492.879 30 30 30
67.2408 -15.9281 464.408 148 147 157
-203.074 -286.206 815.656 40 46 53
-976.387 848.631 1738.72 99 102 110
-546.279 173.802 1250.17 41 45 46
-785.775 473.409 1614.23 26 38 32
-51.1452 -339.059 726.699 24 45 47
-496.468 333.12 1244.96 19 24 27
-1046.16 450.756 2056.72 43 42 51
-57.4177 -8.4681 500.149 88 93 96
351.384 39.6925 500.823 34 34 34
361.403 -102.384 533.525 36 34 34
-776.366 540.316 1562.86 65 76 84
-244.571 -379.81 946.186 95 131 169
-54.2913 23.6172 461.782 100 114 126
-374.512 -339.999 914.893 53 58 61
-812.559 530.395 1695.82 32 40 40
339.015 33.0349 508.666 35 33 33
-398.41 -459.883 1138.02 66 74 81
-604.325 -399.36 1361.57 89 95 102
18.4933 23.9397 407.359 124 131 134
-498.122 520.854 1201.08 76 84 73
-679.224 532.967 1477.97 56 63 66
-653.263 465.337 1479.58 56 67 71
-333.061 -311.49 960.644 52 55 59
335.812 -138.381 558.81 36 41 42
-561.916 -99.0164 1274.28 92 97 106
-400.708 -159.004 1039.49 49 54 57
-883.69 539.815 1651.47 46 55 65
-19.3079 21.8229 418.178 60 58 58
341.98 20.3481 507.393 32 32 32
331.805 69.0011 487.85 34 32 32
-632.788 -394.12 1173.49 114 123 133
-953.926 135.049 1624.63 120 129 143
-667.118 -425.976 1240.12 118 126 139
8.74218 -334.18 689.888 18 30 34
111.321 -108.231 561.47 39 41 41
328.806 89.0161 489.898 29 30 28
-1150.76 428.689 2143.47 40 42 52
84.882 5.71772 461.252 76 73 75
-170.839 66.6731 1000.68 60 63 67
-520.663 -505.711 1231.2 31 29 28
347.219 40.7196 506.611 29 29 29
403.749 102.767 541.426 33 38 37
-793.131 55.8827 1428.52 62 64 142
336.094 28.7194 514.095 29 29 29
-127.633 39.8822 350.937 198 210 212
-298.336 -400.833 1013.01 43 53 60
82.6764 -92.1414 528.056 178 180 190
89.6413 -13.4448 345.486 56 53 49
-609.541 -396.138 1329.55 60 68 85
370.206 -16.144 498.681 39 37 37
-204.56 225.554 634.695 37 39 39
-361.138 -271.754 1039.14 48 51 55
-633.924 -430.131 1420.69 65 68 83
340.074 -8.19319 505.85 28 28 28
-901.455 703.329 1607.09 27 31 32
102.313 0.255206 391.141 70 64 65
-51.6126 -27.262 497.495 44 48 53
364.459 18.2095 501.313 41 39 39
344.522 -105.566 536.373 31 32 30
345.47 -15.0448 503.3 31 32 30
-270.408 -300.609 889.809 47 55 62
338.732 -115.964 512.833 33 33 33
-607.011 -322.843 1382.28 82 88 95
362.331 11.5259 503.914 30 31 29
-562.366 -414.18 1232.28 93 95 103
-629.994 -439.378 1384.54 49 48 88
36.123 41.5908 377.015 179 179 173
-786.693 457.953 1618.75 12 14 14
90.1501 -18.9273 321.303 51 46 43
-848.868 111.635 1510.01 55 59 137
-625.478 -423.693 1144.32 85 80 119
