ply
format ascii 1.0
element vertex 580
property float x
property float y
property float z
property float nx
property float ny
property float nz
property uchar red
property uchar green
property uchar blue
end_header
-287.973 145.239 788.313 -0.879406195806 -0.466390337248 0.0955237985911 122 190 67
-353.316 184.648 824.599 -0.879406195806 -0.466390337248 0.0955237985911 122 190 67
-308.192 179.393 797.085 -0.879406195806 -0.466390337248 0.0955237985911 122 190 67
-354.254 139.868 810.142 -0.879406195806 -0.466390337248 0.0955237985911 122 190 67
-355.534 182.256 816.412 -0.879406195806 -0.466390337248 0.0955237985911 122 190 67
-368.466 210.079 637.473 -0.879406195806 -0.466390337248 0.0955237985911 122 190 67
-317.132 186.897 799.018 -0.879406195806 -0.466390337248 0.0955237985911 122 190 67
-317.314 182.106 800.122 -0.879406195806 -0.466390337248 0.0955237985911 122 190 67
-327.976 205.908 647.317 -0.879406195806 -0.466390337248 0.0955237985911 122 190 67
-383.308 204.911 682.976 -0.879406195806 -0.466390337248 0.0955237985911 122 190 67
-289.399 161.219 793.968 -0.879406195806 -0.466390337248 0.0955237985911 122 190 67
-385.926 204.945 696.855 -0.879406195806 -0.466390337248 0.0955237985911 122 190 67
-312.755 199.365 714.715 -0.879406195806 -0.466390337248 0.0955237985911 122 190 67
-342.992 187.552 803.098 -0.879406195806 -0.466390337248 0.0955237985911 122 190 67
-327.555 205.403 655.163 -0.879406195806 -0.466390337248 0.0955237985911 122 190 67
-368.149 188.431 820.019 -0.879406195806 -0.466390337248 0.0955237985911 122 190 67
-327.694 181.112 809.495 -0.879406195806 -0.466390337248 0.0955237985911 122 190 67
-331.259 196.555 740.854 -0.879406195806 -0.466390337248 0.0955237985911 122 190 67
-346.491 197.643 749.19 -0.879406195806 -0.466390337248 0.0955237985911 122 190 67
-374.681 201.353 713.775 -0.879406195806 -0.466390337248 0.0955237985911 122 190 67
-332.575 145.053 810.455 -0.879406195806 -0.466390337248 0.0955237985911 122 190 67
-278.675 186.344 782.75 -0.879406195806 -0.466390337248 0.0955237985911 122 190 67
-363.665 205.873 676.719 -0.879406195806 -0.466390337248 0.0955237985911 122 190 67
-424.157 203.806 724.789 -0.879406195806 -0.466390337248 0.0955237985911 122 190 67
-364.693 198.499 745.488 -0.879406195806 -0.466390337248 0.0955237985911 122 190 67
-304.383 201.813 674.439 -0.879406195806 -0.466390337248 0.0955237985911 122 190 67
-304.463 198.896 707.459 -0.879406195806 -0.466390337248 0.0955237985911 122 190 67
-407.432 208.866 679.471 -0.879406195806 -0.466390337248 0.0955237985911 122 190 67
-363.832 208.531 650.525 -0.879406195806 -0.466390337248 0.0955237985911 122 190 67
-402.783 205.102 703.759 -0.879406195806 -0.466390337248 0.0955237985911 122 190 67
-285.845 175.465 784.969 -0.879406195806 -0.466390337248 0.0955237985911 122 190 67
-403.954 208.705 681.471 -0.879406195806 -0.466390337248 0.0955237985911 122 190 67
-392.203 203.691 712.639 -0.879406195806 -0.466390337248 0.0955237985911 122 190 67
-338.329 197.724 731.337 -0.879406195806 -0.466390337248 0.0955237985911 122 190 67
-406.318 207.119 690.373 -0.879406195806 -0.466390337248 0.0955237985911 122 190 67
-288.056 192.151 769.739 -0.879406195806 -0.466390337248 0.0955237985911 122 190 67
-337.752 206.9 661.116 -0.879406195806 -0.466390337248 0.0955237985911 122 190 67
-403.755 205.612 694.1 -0.879406195806 -0.466390337248 0.0955237985911 122 190 67
-332.227 198.692 717.235 -0.879406195806 -0.466390337248 0.0955237985911 122 190 67
-384.188 203.554 710.332 -0.879406195806 -0.466390337248 0.0955237985911 122 190 67
-315.262 195.97 751.703 -0.879406195806 -0.466390337248 0.0955237985911 122 190 67
-415.344 198.629 764.434 -0.879406195806 -0.466390337248 0.0955237985911 122 190 67
-400.627 198.186 756.283 -0.879406195806 -0.466390337248 0.0955237985911 122 190 67
-293.096 193.431 749.802 -0.879406195806 -0.466390337248 0.0955237985911 122 190 67
-410.419 198.904 765.588 -0.879406195806 -0.466390337248 0.0955237985911 122 190 67
-287.937 200.763 673.633 -0.879406195806 -0.466390337248 0.0955237985911 122 190 67
-273.265 196.618 713.119 -0.879406195806 -0.466390337248 0.0955237985911 122 190 67
-333.856 171.525 798.644 -0.879406195806 -0.466390337248 0.0955237985911 122 190 67
-278.347 200.322 675.956 -0.879406195806 -0.466390337248 0.0955237985911 122 190 67
-305.028 191.337 764.709 -0.879406195806 -0.466390337248 0.0955237985911 122 190 67
-379.411 207.697 674.307 -0.879406195806 -0.466390337248 0.0955237985911 122 190 67
-271.779 194.042 748.796 -0.879406195806 -0.466390337248 0.0955237985911 122 190 67
-286.462 194.782 743.281 -0.879406195806 -0.466390337248 0.0955237985911 122 190 67
-352.841 195.246 767.081 -0.879406195806 -0.466390337248 0.0955237985911 122 190 67
-422.884 199.174 762.573 -0.879406195806 -0.466390337248 0.0955237985911 122 190 67
-377.383 205.348 697.054 -0.879406195806 -0.466390337248 0.0955237985911 122 190 67
-332.533 198.54 730.902 -0.879406195806 -0.466390337248 0.0955237985911 122 190 67
-396.392 207.762 678.08 -0.879406195806 -0.466390337248 0.0955237985911 122 190 67
-361.784 203.314 693.743 -0.879406195806 -0.466390337248 0.0955237985911 122 190 67
-298.1 188.346 783.146 -0.879406195806 -0.466390337248 0.0955237985911 122 190 67
-399.06 205.168 706.819 -0.879406195806 -0.466390337248 0.0955237985911 122 190 67
-420.501 207.156 697.463 -0.879406195806 -0.466390337248 0.0955237985911 122 190 67
-298.701 200.539 692.108 -0.879406195806 -0.466390337248 0.0955237985911 122 190 67
-346.044 204.359 677.706 -0.879406195806 -0.466390337248 0.0955237985911 122 190 67
-399.661 194.64 791.017 -0.879406195806 -0.466390337248 0.0955237985911 122 190 67
-295.057 161.537 794.286 -0.879406195806 -0.466390337248 0.0955237985911 122 190 67
-394.014 192.195 799.189 -0.879406195806 -0.466390337248 0.0955237985911 122 190 67
-348.856 201.619 715.282 -0.879406195806 -0.466390337248 0.0955237985911 122 190 67
-331.296 204.537 674.123 -0.879406195806 -0.466390337248 0.0955237985911 122 190 67
-267.532 190.387 748.63 -0.879406195806 -0.466390337248 0.0955237985911 122 190 67
-325.18 204.75 669.934 -0.879406195806 -0.466390337248 0.0955237985911 122 190 67
-360.061 191.743 796.113 -0.879406195806 -0.466390337248 0.0955237985911 122 190 67
-336.429 204.903 673.738 -0.879406195806 -0.466390337248 0.0955237985911 122 190 67
-282.908 197.064 706.452 -0.879406195806 -0.466390337248 0.0955237985911 122 190 67
-409.071 203.431 706.106 -0.879406195806 -0.466390337248 0.0955237985911 122 190 67
-312.64 202.293 684.629 -0.879406195806 -0.466390337248 0.0955237985911 122 190 67
-421.28 197.429 781.078 -0.879406195806 -0.466390337248 0.0955237985911 122 190 67
-295.265 197.998 700.974 -0.879406195806 -0.466390337248 0.0955237985911 122 190 67
-338.329 197.724 731.337 -0.879406195806 -0.466390337248 0.0955237985911 122 190 67
-303.392 69.189 791.291 -0.101312251966 0.243553334475 0.964581567761 252 107 244
-387.63 62.9146 843.098 -0.101312251966 0.243553334475 0.964581567761 252 107 244
-357.844 60.9486 817.493 -0.101312251966 0.243553334475 0.964581567761 252 107 244
-317.887 105.669 801.075 -0.101312251966 0.243553334475 0.964581567761 252 107 244
-362.691 102.097 817.791 -0.101312251966 0.243553334475 0.964581567761 252 107 244
-323.821 104.342 799.143 -0.101312251966 0.243553334475 0.964581567761 252 107 244
-387.037 156.895 841.078 -0.101312251966 0.243553334475 0.964581567761 252 107 244
-319.249 67.6055 797.916 -0.101312251966 0.243553334475 0.964581567761 252 107 244
-370.856 131.348 818.448 -0.101312251966 0.243553334475 0.964581567761 252 107 244
-314.286 74.8643 800.862 -0.101312251966 0.243553334475 0.964581567761 252 107 244
-387.63 62.9146 843.098 -0.101312251966 0.243553334475 0.964581567761 252 107 244
166.296 52.0904 1468.32 0.988947869357 -0.147509049674 0.0149396103929 43 241 20
201.359 53.081 1496.42 0.988947869357 -0.147509049674 0.0149396103929 43 241 20
140.405 97.326 1497.33 0.988947869357 -0.147509049674 0.0149396103929 43 241 20
191.446 53.1861 1485.99 0.988947869357 -0.147509049674 0.0149396103929 43 241 20
220.848 103.545 1482.5 0.988947869357 -0.147509049674 0.0149396103929 43 241 20
179.391 43.6193 1534.32 0.988947869357 -0.147509049674 0.0149396103929 43 241 20
210.693 98.2613 1473.65 0.988947869357 -0.147509049674 0.0149396103929 43 241 20
207.569 55.1042 1474.66 0.988947869357 -0.147509049674 0.0149396103929 43 241 20
218.109 111.428 1461.95 0.988947869357 -0.147509049674 0.0149396103929 43 241 20
205.171 106.984 1471.46 0.988947869357 -0.147509049674 0.0149396103929 43 241 20
153.862 96.8753 1488.04 0.988947869357 -0.147509049674 0.0149396103929 43 241 20
192.629 45.0733 1548.24 0.988947869357 -0.147509049674 0.0149396103929 43 241 20
220.991 60.7841 1468.16 0.988947869357 -0.147509049674 0.0149396103929 43 241 20
203.839 100.663 1499.18 0.988947869357 -0.147509049674 0.0149396103929 43 241 20
226.321 67.3304 1467.72 0.988947869357 -0.147509049674 0.0149396103929 43 241 20
220.168 52.201 1502.61 0.988947869357 -0.147509049674 0.0149396103929 43 241 20
169.041 99.3055 1487.29 0.988947869357 -0.147509049674 0.0149396103929 43 241 20
195.338 107.094 1496.4 0.988947869357 -0.147509049674 0.0149396103929 43 241 20
243.072 91.9848 1484.17 0.988947869357 -0.147509049674 0.0149396103929 43 241 20
274.532 98.9283 1519.95 0.988947869357 -0.147509049674 0.0149396103929 43 241 20
247.459 99.3378 1482.67 0.988947869357 -0.147509049674 0.0149396103929 43 241 20
144.602 73.4285 1478.9 0.988947869357 -0.147509049674 0.0149396103929 43 241 20
277.437 111.577 1517.04 0.988947869357 -0.147509049674 0.0149396103929 43 241 20
204.789 77.181 1469.78 0.988947869357 -0.147509049674 0.0149396103929 43 241 20
231.396 76.5204 1485.41 0.988947869357 -0.147509049674 0.0149396103929 43 241 20
264.548 98.1177 1512.27 0.988947869357 -0.147509049674 0.0149396103929 43 241 20
210.693 98.2613 1473.65 0.988947869357 -0.147509049674 0.0149396103929 43 241 20
-265.895 -91.7581 747.668 -0.93795828846 0.346628176349 0.00911901697361 189 253 214
-289.846 -53.5898 783.566 -0.93795828846 0.346628176349 0.00911901697361 189 253 214
-261.915 -97.8888 732.652 -0.93795828846 0.346628176349 0.00911901697361 189 253 214
-210.534 -87.0096 723.493 -0.93795828846 0.346628176349 0.00911901697361 189 253 214
-296.647 -55.5046 787.836 -0.93795828846 0.346628176349 0.00911901697361 189 253 214
-248.507 -80.6774 714.17 -0.93795828846 0.346628176349 0.00911901697361 189 253 214
-283.453 -53.1714 780.461 -0.93795828846 0.346628176349 0.00911901697361 189 253 214
-309.719 -90.8536 791.637 -0.93795828846 0.346628176349 0.00911901697361 189 253 214
-296.353 -94.9395 788.294 -0.93795828846 0.346628176349 0.00911901697361 189 253 214
-214.956 -58.454 807.328 -0.93795828846 0.346628176349 0.00911901697361 189 253 214
-336.895 -137.646 801.263 -0.93795828846 0.346628176349 0.00911901697361 189 253 214
-332.1 -173.355 796.649 -0.93795828846 0.346628176349 0.00911901697361 189 253 214
-277.104 -99.6423 769.388 -0.93795828846 0.346628176349 0.00911901697361 189 253 214
-257.624 -103.457 716.888 -0.93795828846 0.346628176349 0.00911901697361 189 253 214
-311.937 -11.5834 795.654 -0.93795828846 0.346628176349 0.00911901697361 189 253 214
-208.146 -143.65 803.759 -0.93795828846 0.346628176349 0.00911901697361 189 253 214
-323.759 -55.1898 800.364 -0.93795828846 0.346628176349 0.00911901697361 189 253 214
-237.142 -142.46 797.561 -0.93795828846 0.346628176349 0.00911901697361 189 253 214
-299.193 -131.26 780.225 -0.93795828846 0.346628176349 0.00911901697361 189 253 214
-330.257 -96.1678 802.802 -0.93795828846 0.346628176349 0.00911901697361 189 253 214
-277.329 -137.85 782.896 -0.93795828846 0.346628176349 0.00911901697361 189 253 214
-199.677 -101.273 809.788 -0.93795828846 0.346628176349 0.00911901697361 189 253 214
-312.729 -54.7654 788.644 -0.93795828846 0.346628176349 0.00911901697361 189 253 214
-319.322 -180.764 794.903 -0.93795828846 0.346628176349 0.00911901697361 189 253 214
-284.985 -138.685 786.675 -0.93795828846 0.346628176349 0.00911901697361 189 253 214
-302.693 -55.6082 786.508 -0.93795828846 0.346628176349 0.00911901697361 189 253 214
-270.927 -139.465 790.71 -0.93795828846 0.346628176349 0.00911901697361 189 253 214
-305.139 -137.482 784.314 -0.93795828846 0.346628176349 0.00911901697361 189 253 214
-188.412 -101.792 813.869 -0.93795828846 0.346628176349 0.00911901697361 189 253 214
-248.94 -105.191 701.774 -0.93795828846 0.346628176349 0.00911901697361 189 253 214
-315.346 -95.5213 796.052 -0.93795828846 0.346628176349 0.00911901697361 189 253 214
-302.595 -60.7561 783.7 -0.93795828846 0.346628176349 0.00911901697361 189 253 214
-297.824 -69.9072 781.224 -0.93795828846 0.346628176349 0.00911901697361 189 253 214
-321.041 -60.6243 798.917 -0.93795828846 0.346628176349 0.00911901697361 189 253 214
-298.847 -81.9337 785.711 -0.93795828846 0.346628176349 0.00911901697361 189 253 214
-216.558 -100.428 711.203 -0.93795828846 0.346628176349 0.00911901697361 189 253 214
-210.467 -99.0392 795.611 -0.93795828846 0.346628176349 0.00911901697361 189 253 214
-213.613 -62.7368 714.991 -0.93795828846 0.346628176349 0.00911901697361 189 253 214
-324.116 -74.89 799.945 -0.93795828846 0.346628176349 0.00911901697361 189 253 214
-285.309 -101.996 771.823 -0.93795828846 0.346628176349 0.00911901697361 189 253 214
-212.66 -47.3938 716.479 -0.93795828846 0.346628176349 0.00911901697361 189 253 214
-256.102 -115.461 717.076 -0.93795828846 0.346628176349 0.00911901697361 189 253 214
-265.748 -126.184 749.365 -0.93795828846 0.346628176349 0.00911901697361 189 253 214
-204.004 -57.5865 801.94 -0.93795828846 0.346628176349 0.00911901697361 189 253 214
-230.004 -75.3888 714.943 -0.93795828846 0.346628176349 0.00911901697361 189 253 214
-193.158 -77.7465 814.746 -0.93795828846 0.346628176349 0.00911901697361 189 253 214
-243.587 -99.0348 702.766 -0.93795828846 0.346628176349 0.00911901697361 189 253 214
-226.305 -75.8331 718.124 -0.93795828846 0.346628176349 0.00911901697361 189 253 214
-297.263 -115.949 782.706 -0.93795828846 0.346628176349 0.00911901697361 189 253 214
-214.271 -107.402 707.481 -0.93795828846 0.346628176349 0.00911901697361 189 253 214
-213.403 -53.7114 718.504 -0.93795828846 0.346628176349 0.00911901697361 189 253 214
-331.982 -159.558 795.431 -0.93795828846 0.346628176349 0.00911901697361 189 253 214
-219.012 -75.0346 720.031 -0.93795828846 0.346628176349 0.00911901697361 189 253 214
-277.104 -99.6423 769.388 -0.93795828846 0.346628176349 0.00911901697361 189 253 214
-289.846 -53.5898 783.566 0.0222953105803 -0.0230053254858 -0.999486705327 221 72 212
-317.872 -7.41916 798.954 0.0222953105803 -0.0230053254858 -0.999486705327 221 72 212
-389.396 -15.7915 833.084 0.0222953105803 -0.0230053254858 -0.999486705327 221 72 212
-374.959 25.2781 824.529 0.0222953105803 -0.0230053254858 -0.999486705327 221 72 212
-390.268 -51.1344 829.713 0.0222953105803 -0.0230053254858 -0.999486705327 221 72 212
-381.456 24.5858 827.309 0.0222953105803 -0.0230053254858 -0.999486705327 221 72 212
-285.998 -94.1397 774.124 0.0222953105803 -0.0230053254858 -0.999486705327 221 72 212
-299.974 -11.5582 791.192 0.0222953105803 -0.0230053254858 -0.999486705327 221 72 212
-364.153 -17.649 820.936 0.0222953105803 -0.0230053254858 -0.999486705327 221 72 212
-317.898 -0.440098 797.157 0.0222953105803 -0.0230053254858 -0.999486705327 221 72 212
-357.966 28.2658 813.435 0.0222953105803 -0.0230053254858 -0.999486705327 221 72 212
-354.382 -13.9797 817.248 0.0222953105803 -0.0230053254858 -0.999486705327 221 72 212
-343.116 -12.6716 803.661 0.0222953105803 -0.0230053254858 -0.999486705327 221 72 212
-366.036 -50.125 820.113 0.0222953105803 -0.0230053254858 -0.999486705327 221 72 212
-303.392 69.189 791.291 0.0222953105803 -0.0230053254858 -0.999486705327 221 72 212
-311.937 -11.5834 795.654 0.0222953105803 -0.0230053254858 -0.999486705327 221 72 212
-323.759 -55.1898 800.364 0.0222953105803 -0.0230053254858 -0.999486705327 221 72 212
-318.588 22.4534 801.152 0.0222953105803 -0.0230053254858 -0.999486705327 221 72 212
-357.475 -50.2528 816.405 0.0222953105803 -0.0230053254858 -0.999486705327 221 72 212
-369.237 -14.3935 822.317 0.0222953105803 -0.0230053254858 -0.999486705327 221 72 212
-330.257 -96.1678 802.802 0.0222953105803 -0.0230053254858 -0.999486705327 221 72 212
-351.278 63.752 811.268 0.0222953105803 -0.0230053254858 -0.999486705327 221 72 212
-370.961 62.8303 820.403 0.0222953105803 -0.0230053254858 -0.999486705327 221 72 212
-305.343 27.0421 795.385 0.0222953105803 -0.0230053254858 -0.999486705327 221 72 212
-357.844 60.9486 817.493 0.0222953105803 -0.0230053254858 -0.999486705327 221 72 212
-312.729 -54.7654 788.644 0.0222953105803 -0.0230053254858 -0.999486705327 221 72 212
-379.403 -15.1603 829.284 0.0222953105803 -0.0230053254858 -0.999486705327 221 72 212
-348.741 -55.0634 814.64 0.0222953105803 -0.0230053254858 -0.999486705327 221 72 212
-357.462 -55.2772 815.987 0.0222953105803 -0.0230053254858 -0.999486705327 221 72 212
-335.887 26.4093 805.885 0.0222953105803 -0.0230053254858 -0.999486705327 221 72 212
-330.707 -54.5199 802.835 0.0222953105803 -0.0230053254858 -0.999486705327 221 72 212
-340.905 -54.4995 808.75 0.0222953105803 -0.0230053254858 -0.999486705327 221 72 212
-302.595 -60.7561 783.7 0.0222953105803 -0.0230053254858 -0.999486705327 221 72 212
-335.827 -95.9533 803.058 0.0222953105803 -0.0230053254858 -0.999486705327 221 72 212
-374.76 -55.2218 825.804 0.0222953105803 -0.0230053254858 -0.999486705327 221 72 212
-388.309 -23.3479 829.45 0.0222953105803 -0.0230053254858 -0.999486705327 221 72 212
-308.182 23.1573 789.56 0.0222953105803 -0.0230053254858 -0.999486705327 221 72 212
-297.824 -69.9072 781.224 0.0222953105803 -0.0230053254858 -0.999486705327 221 72 212
-321.041 -60.6243 798.917 0.0222953105803 -0.0230053254858 -0.999486705327 221 72 212
-329.676 26.5302 802.891 0.0222953105803 -0.0230053254858 -0.999486705327 221 72 212
-326.954 -11.9906 802.581 0.0222953105803 -0.0230053254858 -0.999486705327 221 72 212
-298.847 -81.9337 785.711 0.0222953105803 -0.0230053254858 -0.999486705327 221 72 212
-344.567 -96.2926 808.86 0.0222953105803 -0.0230053254858 -0.999486705327 221 72 212
-380.656 -55.5227 826.658 0.0222953105803 -0.0230053254858 -0.999486705327 221 72 212
-316.953 6.44226 801.331 0.0222953105803 -0.0230053254858 -0.999486705327 221 72 212
-337.959 -12.1747 811.669 0.0222953105803 -0.0230053254858 -0.999486705327 221 72 212
-354.216 31.5673 814.877 0.0222953105803 -0.0230053254858 -0.999486705327 221 72 212
-315.093 11.8217 798.158 0.0222953105803 -0.0230053254858 -0.999486705327 221 72 212
-392.161 -64.8613 828.997 0.0222953105803 -0.0230053254858 -0.999486705327 221 72 212
-324.116 -74.89 799.945 0.0222953105803 -0.0230053254858 -0.999486705327 221 72 212
-315.963 15.6386 792.332 0.0222953105803 -0.0230053254858 -0.999486705327 221 72 212
-360.52 -32.1062 810.794 0.0222953105803 -0.0230053254858 -0.999486705327 221 72 212
-314.286 74.8643 800.862 0.0222953105803 -0.0230053254858 -0.999486705327 221 72 212
-362.685 -24.7267 815.829 0.0222953105803 -0.0230053254858 -0.999486705327 221 72 212
-326.954 -11.9906 802.581 0.0222953105803 -0.0230053254858 -0.999486705327 221 72 212
-327.976 205.908 647.317 -0.876045789682 -0.448616627243 0.176881022561 132 119 243
-359.214 197.574 747.212 -0.876045789682 -0.448616627243 0.176881022561 132 119 243
-312.755 199.365 714.715 -0.876045789682 -0.448616627243 0.176881022561 132 119 243
-302.681 203.037 681.617 -0.876045789682 -0.448616627243 0.176881022561 132 119 243
-339.857 208.97 631.07 -0.876045789682 -0.448616627243 0.176881022561 132 119 243
-356.239 200.62 732.425 -0.876045789682 -0.448616627243 0.176881022561 132 119 243
-353.87 197.776 751.879 -0.876045789682 -0.448616627243 0.176881022561 132 119 243
-264.959 202.118 646.136 -0.876045789682 -0.448616627243 0.176881022561 132 119 243
-356.618 205.293 674.644 -0.876045789682 -0.448616627243 0.176881022561 132 119 243
-403.954 208.705 681.471 -0.876045789682 -0.448616627243 0.176881022561 132 119 243
-322.494 193.291 766.067 -0.876045789682 -0.448616627243 0.176881022561 132 119 243
-338.329 197.724 731.337 -0.876045789682 -0.448616627243 0.176881022561 132 119 243
-332.227 198.692 717.235 -0.876045789682 -0.448616627243 0.176881022561 132 119 243
-273.265 196.618 713.119 -0.876045789682 -0.448616627243 0.176881022561 132 119 243
-305.028 191.337 764.709 -0.876045789682 -0.448616627243 0.176881022561 132 119 243
-296.024 202.677 680.284 -0.876045789682 -0.448616627243 0.176881022561 132 119 243
-264.618 200.839 658.558 -0.876045789682 -0.448616627243 0.176881022561 132 119 243
-360.853 209.054 653.231 -0.876045789682 -0.448616627243 0.176881022561 132 119 243
-376.549 202.874 707.679 -0.876045789682 -0.448616627243 0.176881022561 132 119 243
-317.939 196.451 744.75 -0.876045789682 -0.448616627243 0.176881022561 132 119 243
-396.392 207.762 678.08 -0.876045789682 -0.448616627243 0.176881022561 132 119 243
-299.338 192.798 747.053 -0.876045789682 -0.448616627243 0.176881022561 132 119 243
-352.629 207.765 647.511 -0.876045789682 -0.448616627243 0.176881022561 132 119 243
-398.888 211.001 641.977 -0.876045789682 -0.448616627243 0.176881022561 132 119 243
-298.701 200.539 692.108 -0.876045789682 -0.448616627243 0.176881022561 132 119 243
-372.763 205.341 698.725 -0.876045789682 -0.448616627243 0.176881022561 132 119 243
-254.052 195.699 698.13 -0.876045789682 -0.448616627243 0.176881022561 132 119 243
-268.691 200.637 656.758 -0.876045789682 -0.448616627243 0.176881022561 132 119 243
-350.569 201.967 698.759 -0.876045789682 -0.448616627243 0.176881022561 132 119 243
-267.532 190.387 748.63 -0.876045789682 -0.448616627243 0.176881022561 132 119 243
-325.18 204.75 669.934 -0.876045789682 -0.448616627243 0.176881022561 132 119 243
-348.693 200.102 728.037 -0.876045789682 -0.448616627243 0.176881022561 132 119 243
-295.265 197.998 700.974 -0.876045789682 -0.448616627243 0.176881022561 132 119 243
-325.18 204.75 669.934 -0.876045789682 -0.448616627243 0.176881022561 132 119 243
-389.876 184.369 846.087 -0.890697928571 -0.442756277715 -0.103073171014 235 44 133
-377.651 173.904 823.823 -0.890697928571 -0.442756277715 -0.103073171014 235 44 133
-349.818 139.465 816.264 -0.890697928571 -0.442756277715 -0.103073171014 235 44 133
-378.059 147.384 830.633 -0.890697928571 -0.442756277715 -0.103073171014 235 44 133
-403.008 183.332 865.016 -0.890697928571 -0.442756277715 -0.103073171014 235 44 133
-353.316 184.648 824.599 -0.890697928571 -0.442756277715 -0.103073171014 235 44 133
-382.809 162.685 822.693 -0.890697928571 -0.442756277715 -0.103073171014 235 44 133
-317.132 186.897 799.018 -0.890697928571 -0.442756277715 -0.103073171014 235 44 133
-390.992 189.233 832.268 -0.890697928571 -0.442756277715 -0.103073171014 235 44 133
-364.675 141.419 823.887 -0.890697928571 -0.442756277715 -0.103073171014 235 44 133
-362.691 102.097 817.791 -0.890697928571 -0.442756277715 -0.103073171014 235 44 133
-344.305 104.954 817.6 -0.890697928571 -0.442756277715 -0.103073171014 235 44 133
-356.454 103.951 820.482 -0.890697928571 -0.442756277715 -0.103073171014 235 44 133
-342.992 187.552 803.098 -0.890697928571 -0.442756277715 -0.103073171014 235 44 133
-368.149 188.431 820.019 -0.890697928571 -0.442756277715 -0.103073171014 235 44 133
-394.134 154.07 849.86 -0.890697928571 -0.442756277715 -0.103073171014 235 44 133
-322.392 146.909 799.991 -0.890697928571 -0.442756277715 -0.103073171014 235 44 133
-396.446 198.224 762.144 -0.890697928571 -0.442756277715 -0.103073171014 235 44 133
-387.037 156.895 841.078 -0.890697928571 -0.442756277715 -0.103073171014 235 44 133
-433.687 191.914 811.969 -0.890697928571 -0.442756277715 -0.103073171014 235 44 133
-398.733 189.116 834.284 -0.890697928571 -0.442756277715 -0.103073171014 235 44 133
-333.856 171.525 798.644 -0.890697928571 -0.442756277715 -0.103073171014 235 44 133
-421.637 171.448 827.364 -0.890697928571 -0.442756277715 -0.103073171014 235 44 133
-417.612 190.364 824.905 -0.890697928571 -0.442756277715 -0.103073171014 235 44 133
-465.455 194.174 814.732 -0.890697928571 -0.442756277715 -0.103073171014 235 44 133
-454.083 195.59 802.764 -0.890697928571 -0.442756277715 -0.103073171014 235 44 133
-399.661 194.64 791.017 -0.890697928571 -0.442756277715 -0.103073171014 235 44 133
-424.353 186.379 850.807 -0.890697928571 -0.442756277715 -0.103073171014 235 44 133
-360.061 191.743 796.113 -0.890697928571 -0.442756277715 -0.103073171014 235 44 133
-389.66 165.851 855.231 -0.890697928571 -0.442756277715 -0.103073171014 235 44 133
-373.799 168.036 825.207 -0.890697928571 -0.442756277715 -0.103073171014 235 44 133
-428.371 192.493 814.222 -0.890697928571 -0.442756277715 -0.103073171014 235 44 133
-389.66 165.851 855.231 -0.890697928571 -0.442756277715 -0.103073171014 235 44 133
-331.259 196.555 740.854 -0.861236313603 -0.49061229835 0.132557854687 16 154 248
-360.956 200.557 732.463 -0.861236313603 -0.49061229835 0.132557854687 16 154 248
-363.665 205.873 676.719 -0.861236313603 -0.49061229835 0.132557854687 16 154 248
-364.693 198.499 745.488 -0.861236313603 -0.49061229835 0.132557854687 16 154 248
-407.432 208.866 679.471 -0.861236313603 -0.49061229835 0.132557854687 16 154 248
-356.239 200.62 732.425 -0.861236313603 -0.49061229835 0.132557854687 16 154 248
-338.329 197.724 731.337 -0.861236313603 -0.49061229835 0.132557854687 16 154 248
-379.411 207.697 674.307 -0.861236313603 -0.49061229835 0.132557854687 16 154 248
-310.092 202.975 672.477 -0.861236313603 -0.49061229835 0.132557854687 16 154 248
-398.888 211.001 641.977 -0.861236313603 -0.49061229835 0.132557854687 16 154 248
-403.633 208.331 662.936 -0.861236313603 -0.49061229835 0.132557854687 16 154 248
-348.856 201.619 715.282 -0.861236313603 -0.49061229835 0.132557854687 16 154 248
-366.978 200.12 730.939 -0.861236313603 -0.49061229835 0.132557854687 16 154 248
-394.105 195.486 772.89 -0.861236313603 -0.49061229835 0.132557854687 16 154 248
-348.693 200.102 728.037 -0.861236313603 -0.49061229835 0.132557854687 16 154 248
-312.64 202.293 684.629 -0.861236313603 -0.49061229835 0.132557854687 16 154 248
-407.432 208.866 679.471 -0.861236313603 -0.49061229835 0.132557854687 16 154 248
-269.639 -52.8034 766.647 0.128985675025 0.704969593887 -0.697409899209 45 153 52
-265.895 -91.7581 747.668 0.128985675025 0.704969593887 -0.697409899209 45 153 52
-213.298 -96.8543 767.449 0.128985675025 0.704969593887 -0.697409899209 45 153 52
-210.534 -87.0096 723.493 0.128985675025 0.704969593887 -0.697409899209 45 153 52
-199.907 -187.126 804.39 0.128985675025 0.704969593887 -0.697409899209 45 153 52
-296.353 -94.9395 788.294 0.128985675025 0.704969593887 -0.697409899209 45 153 52
-280.044 -95.6039 779.93 0.128985675025 0.704969593887 -0.697409899209 45 153 52
-212.189 -83.0104 734.004 0.128985675025 0.704969593887 -0.697409899209 45 153 52
-249.906 -139.854 788.004 0.128985675025 0.704969593887 -0.697409899209 45 153 52
-258.318 -140.106 788.703 0.128985675025 0.704969593887 -0.697409899209 45 153 52
-165.0 -191.187 815.225 0.128985675025 0.704969593887 -0.697409899209 45 153 52
-162.652 -61.6556 823.961 0.128985675025 0.704969593887 -0.697409899209 45 153 52
-242.503 -141.187 793.907 0.128985675025 0.704969593887 -0.697409899209 45 153 52
-208.146 -143.65 803.759 0.128985675025 0.704969593887 -0.697409899209 45 153 52
-237.142 -142.46 797.561 0.128985675025 0.704969593887 -0.697409899209 45 153 52
-220.295 -142.432 793.549 0.128985675025 0.704969593887 -0.697409899209 45 153 52
-204.041 -185.409 797.495 0.128985675025 0.704969593887 -0.697409899209 45 153 52
-165.079 -104.884 827.517 0.128985675025 0.704969593887 -0.697409899209 45 153 52
-193.72 -150.618 803.811 0.128985675025 0.704969593887 -0.697409899209 45 153 52
-151.792 -104.856 822.248 0.128985675025 0.704969593887 -0.697409899209 45 153 52
-199.677 -101.273 809.788 0.128985675025 0.704969593887 -0.697409899209 45 153 52
-284.985 -138.685 786.675 0.128985675025 0.704969593887 -0.697409899209 45 153 52
-192.799 -100.903 808.444 0.128985675025 0.704969593887 -0.697409899209 45 153 52
-181.469 -102.941 817.136 0.128985675025 0.704969593887 -0.697409899209 45 153 52
-155.433 -63.3519 829.667 0.128985675025 0.704969593887 -0.697409899209 45 153 52
-141.019 -150.7 832.275 0.128985675025 0.704969593887 -0.697409899209 45 153 52
-204.957 -101.632 806.528 0.128985675025 0.704969593887 -0.697409899209 45 153 52
-199.718 -174.648 810.557 0.128985675025 0.704969593887 -0.697409899209 45 153 52
-131.199 -110.296 852.043 0.128985675025 0.704969593887 -0.697409899209 45 153 52
-198.641 -179.083 803.479 0.128985675025 0.704969593887 -0.697409899209 45 153 52
-131.984 -116.703 862.148 0.128985675025 0.704969593887 -0.697409899209 45 153 52
-140.726 -64.0816 837.08 0.128985675025 0.704969593887 -0.697409899209 45 153 52
-205.698 -17.204 801.131 0.128985675025 0.704969593887 -0.697409899209 45 153 52
-209.801 -102.397 726.522 0.128985675025 0.704969593887 -0.697409899209 45 153 52
-185.389 -17.4391 809.114 0.128985675025 0.704969593887 -0.697409899209 45 153 52
-137.653 -152.649 846.103 0.128985675025 0.704969593887 -0.697409899209 45 153 52
-210.781 -16.7716 760.399 0.128985675025 0.704969593887 -0.697409899209 45 153 52
-173.039 -18.928 821.46 0.128985675025 0.704969593887 -0.697409899209 45 153 52
-197.882 -166.768 802.922 0.128985675025 0.704969593887 -0.697409899209 45 153 52
-298.847 -81.9337 785.711 0.128985675025 0.704969593887 -0.697409899209 45 153 52
-199.835 -18.2569 811.374 0.128985675025 0.704969593887 -0.697409899209 45 153 52
-238.492 -129.367 756.461 0.128985675025 0.704969593887 -0.697409899209 45 153 52
-145.085 -106.258 831.937 0.128985675025 0.704969593887 -0.697409899209 45 153 52
-209.54 -74.4693 724.013 0.128985675025 0.704969593887 -0.697409899209 45 153 52
-171.214 -188.45 803.907 0.128985675025 0.704969593887 -0.697409899209 45 153 52
-135.059 -65.4688 845.238 0.128985675025 0.704969593887 -0.697409899209 45 153 52
-198.419 -161.228 804.921 0.128985675025 0.704969593887 -0.697409899209 45 153 52
-198.338 -156.232 805.632 0.128985675025 0.704969593887 -0.697409899209 45 153 52
-190.2 -10.9559 815.947 0.128985675025 0.704969593887 -0.697409899209 45 153 52
-238.041 -132.981 775.15 0.128985675025 0.704969593887 -0.697409899209 45 153 52
-166.231 -19.4446 827.236 0.128985675025 0.704969593887 -0.697409899209 45 153 52
-193.158 -77.7465 814.746 0.128985675025 0.704969593887 -0.697409899209 45 153 52
-226.305 -75.8331 718.124 0.128985675025 0.704969593887 -0.697409899209 45 153 52
-297.263 -115.949 782.706 0.128985675025 0.704969593887 -0.697409899209 45 153 52
-214.271 -107.402 707.481 0.128985675025 0.704969593887 -0.697409899209 45 153 52
-257.897 -125.584 741.258 0.128985675025 0.704969593887 -0.697409899209 45 153 52
-204.957 -101.632 806.528 0.128985675025 0.704969593887 -0.697409899209 45 153 52
-461.38 -114.734 869.588 -0.893044563766 0.225495092657 0.389388456835 124 16 252
-391.693 -92.7451 830.715 -0.893044563766 0.225495092657 0.389388456835 124 16 252
-473.313 -131.539 887.688 -0.893044563766 0.225495092657 0.389388456835 124 16 252
-399.409 -132.69 831.992 -0.893044563766 0.225495092657 0.389388456835 124 16 252
-329.388 -137.964 798.397 -0.893044563766 0.225495092657 0.389388456835 124 16 252
-402.554 -183.466 837.284 -0.893044563766 0.225495092657 0.389388456835 124 16 252
-404.044 -139.893 842.646 -0.893044563766 0.225495092657 0.389388456835 124 16 252
-406.81 -183.214 834.556 -0.893044563766 0.225495092657 0.389388456835 124 16 252
-394.774 -183.195 832.502 -0.893044563766 0.225495092657 0.389388456835 124 16 252
-330.257 -96.1678 802.802 -0.893044563766 0.225495092657 0.389388456835 124 16 252
-329.133 -180.441 797.205 -0.893044563766 0.225495092657 0.389388456835 124 16 252
-348.042 -137.724 807.131 -0.893044563766 0.225495092657 0.389388456835 124 16 252
-463.337 -121.83 870.796 -0.893044563766 0.225495092657 0.389388456835 124 16 252
-395.956 -104.273 829.706 -0.893044563766 0.225495092657 0.389388456835 124 16 252
-344.078 -183.159 816.599 -0.893044563766 0.225495092657 0.389388456835 124 16 252
-483.378 -86.7249 825.751 -0.893044563766 0.225495092657 0.389388456835 124 16 252
-374.886 -125.585 822.536 -0.893044563766 0.225495092657 0.389388456835 124 16 252
-483.688 -85.1807 839.969 -0.893044563766 0.225495092657 0.389388456835 124 16 252
-392.161 -64.8613 828.997 -0.893044563766 0.225495092657 0.389388456835 124 16 252
-333.06 -155.171 799.209 -0.893044563766 0.225495092657 0.389388456835 124 16 252
-481.782 -81.7029 822.794 -0.893044563766 0.225495092657 0.389388456835 124 16 252
-358.811 -136.735 806.913 -0.893044563766 0.225495092657 0.389388456835 124 16 252
-350.235 -181.218 808.691 -0.893044563766 0.225495092657 0.389388456835 124 16 252
-331.982 -159.558 795.431 -0.893044563766 0.225495092657 0.389388456835 124 16 252
-404.044 -139.893 842.646 -0.893044563766 0.225495092657 0.389388456835 124 16 252
-389.876 184.369 846.087 -0.15742546928 0.0109000663529 0.987470713578 130 225 202
-287.973 145.239 788.313 -0.15742546928 0.0109000663529 0.987470713578 130 225 202
-289.3 114.073 790.601 -0.15742546928 0.0109000663529 0.987470713578 130 225 202
-289.757 137.366 794.173 -0.15742546928 0.0109000663529 0.987470713578 130 225 202
-288.708 130.798 789.813 -0.15742546928 0.0109000663529 0.987470713578 130 225 202
-349.818 139.465 816.264 -0.15742546928 0.0109000663529 0.987470713578 130 225 202
-382.112 142.191 840.289 -0.15742546928 0.0109000663529 0.987470713578 130 225 202
-291.524 148.334 787.325 -0.15742546928 0.0109000663529 0.987470713578 130 225 202
-310.531 69.0268 797.688 -0.15742546928 0.0109000663529 0.987470713578 130 225 202
-309.797 102.217 796.273 -0.15742546928 0.0109000663529 0.987470713578 130 225 202
-354.254 139.868 810.142 -0.15742546928 0.0109000663529 0.987470713578 130 225 202
-370.961 62.8303 820.403 -0.15742546928 0.0109000663529 0.987470713578 130 225 202
-357.844 60.9486 817.493 -0.15742546928 0.0109000663529 0.987470713578 130 225 202
-337.816 188.682 802.892 -0.15742546928 0.0109000663529 0.987470713578 130 225 202
-333.588 191.127 791.784 -0.15742546928 0.0109000663529 0.987470713578 130 225 202
-355.534 182.256 816.412 -0.15742546928 0.0109000663529 0.987470713578 130 225 202
-317.887 105.669 801.075 -0.15742546928 0.0109000663529 0.987470713578 130 225 202
-290.977 119.764 795.329 -0.15742546928 0.0109000663529 0.987470713578 130 225 202
-308.525 161.446 802.913 -0.15742546928 0.0109000663529 0.987470713578 130 225 202
-382.809 162.685 822.693 -0.15742546928 0.0109000663529 0.987470713578 130 225 202
-349.553 107.193 816.511 -0.15742546928 0.0109000663529 0.987470713578 130 225 202
-317.132 186.897 799.018 -0.15742546928 0.0109000663529 0.987470713578 130 225 202
-341.082 139.986 813.575 -0.15742546928 0.0109000663529 0.987470713578 130 225 202
-364.675 141.419 823.887 -0.15742546928 0.0109000663529 0.987470713578 130 225 202
-362.691 102.097 817.791 -0.15742546928 0.0109000663529 0.987470713578 130 225 202
-344.305 104.954 817.6 -0.15742546928 0.0109000663529 0.987470713578 130 225 202
-333.868 180.702 805.03 -0.15742546928 0.0109000663529 0.987470713578 130 225 202
-289.399 161.219 793.968 -0.15742546928 0.0109000663529 0.987470713578 130 225 202
-356.454 103.951 820.482 -0.15742546928 0.0109000663529 0.987470713578 130 225 202
-368.149 188.431 820.019 -0.15742546928 0.0109000663529 0.987470713578 130 225 202
-327.694 181.112 809.495 -0.15742546928 0.0109000663529 0.987470713578 130 225 202
-290.529 168.543 798.787 -0.15742546928 0.0109000663529 0.987470713578 130 225 202
-323.821 104.342 799.143 -0.15742546928 0.0109000663529 0.987470713578 130 225 202
-332.575 145.053 810.455 -0.15742546928 0.0109000663529 0.987470713578 130 225 202
-304.509 174.706 800.495 -0.15742546928 0.0109000663529 0.987470713578 130 225 202
-324.8 65.631 800.777 -0.15742546928 0.0109000663529 0.987470713578 130 225 202
-370.856 131.348 818.448 -0.15742546928 0.0109000663529 0.987470713578 130 225 202
-333.856 171.525 798.644 -0.15742546928 0.0109000663529 0.987470713578 130 225 202
-421.637 171.448 827.364 -0.15742546928 0.0109000663529 0.987470713578 130 225 202
-300.434 168.075 798.268 -0.15742546928 0.0109000663529 0.987470713578 130 225 202
-314.286 74.8643 800.862 -0.15742546928 0.0109000663529 0.987470713578 130 225 202
-360.061 191.743 796.113 -0.15742546928 0.0109000663529 0.987470713578 130 225 202
-389.66 165.851 855.231 -0.15742546928 0.0109000663529 0.987470713578 130 225 202
-373.799 168.036 825.207 -0.15742546928 0.0109000663529 0.987470713578 130 225 202
-356.454 103.951 820.482 -0.15742546928 0.0109000663529 0.987470713578 130 225 202
-287.973 145.239 788.313 -0.163507168668 -0.217334911245 0.962305015133 120 11 17
-303.349 148.112 797.267 -0.163507168668 -0.217334911245 0.962305015133 120 11 17
-289.757 137.366 794.173 -0.163507168668 -0.217334911245 0.962305015133 120 11 17
-291.524 148.334 787.325 -0.163507168668 -0.217334911245 0.962305015133 120 11 17
-310.531 69.0268 797.688 -0.163507168668 -0.217334911245 0.962305015133 120 11 17
-387.63 62.9146 843.098 -0.163507168668 -0.217334911245 0.962305015133 120 11 17
-354.254 139.868 810.142 -0.163507168668 -0.217334911245 0.962305015133 120 11 17
-370.961 62.8303 820.403 -0.163507168668 -0.217334911245 0.962305015133 120 11 17
-344.133 183.257 817.745 -0.163507168668 -0.217334911245 0.962305015133 120 11 17
-333.588 191.127 791.784 -0.163507168668 -0.217334911245 0.962305015133 120 11 17
-317.887 105.669 801.075 -0.163507168668 -0.217334911245 0.962305015133 120 11 17
-306.301 184.058 790.887 -0.163507168668 -0.217334911245 0.962305015133 120 11 17
-308.525 161.446 802.913 -0.163507168668 -0.217334911245 0.962305015133 120 11 17
-349.553 107.193 816.511 -0.163507168668 -0.217334911245 0.962305015133 120 11 17
-317.132 186.897 799.018 -0.163507168668 -0.217334911245 0.962305015133 120 11 17
-272.705 189.192 770.189 -0.163507168668 -0.217334911245 0.962305015133 120 11 17
-362.691 102.097 817.791 -0.163507168668 -0.217334911245 0.962305015133 120 11 17
-344.305 104.954 817.6 -0.163507168668 -0.217334911245 0.962305015133 120 11 17
-335.158 104.46 808.129 -0.163507168668 -0.217334911245 0.962305015133 120 11 17
-333.868 180.702 805.03 -0.163507168668 -0.217334911245 0.962305015133 120 11 17
-356.454 103.951 820.482 -0.163507168668 -0.217334911245 0.962305015133 120 11 17
-296.755 185.16 792.211 -0.163507168668 -0.217334911245 0.962305015133 120 11 17
-304.509 174.706 800.495 -0.163507168668 -0.217334911245 0.962305015133 120 11 17
-322.392 146.909 799.991 -0.163507168668 -0.217334911245 0.962305015133 120 11 17
-328.869 186.334 802.18 -0.163507168668 -0.217334911245 0.962305015133 120 11 17
-387.037 156.895 841.078 -0.163507168668 -0.217334911245 0.962305015133 120 11 17
-324.8 65.631 800.777 -0.163507168668 -0.217334911245 0.962305015133 120 11 17
-322.494 193.291 766.067 -0.163507168668 -0.217334911245 0.962305015133 120 11 17
-288.056 192.151 769.739 -0.163507168668 -0.217334911245 0.962305015133 120 11 17
-280.526 190.949 769.041 -0.163507168668 -0.217334911245 0.962305015133 120 11 17
-305.028 191.337 764.709 -0.163507168668 -0.217334911245 0.962305015133 120 11 17
-314.286 74.8643 800.862 -0.163507168668 -0.217334911245 0.962305015133 120 11 17
-360.061 191.743 796.113 -0.163507168668 -0.217334911245 0.962305015133 120 11 17
-317.887 105.669 801.075 -0.163507168668 -0.217334911245 0.962305015133 120 11 17
166.296 52.0904 1468.32 0.989584831873 -0.143339655064 0.0132515588843 204 239 91
201.359 53.081 1496.42 0.989584831873 -0.143339655064 0.0132515588843 204 239 91
140.405 97.326 1497.33 0.989584831873 -0.143339655064 0.0132515588843 204 239 91
191.446 53.1861 1485.99 0.989584831873 -0.143339655064 0.0132515588843 204 239 91
220.848 103.545 1482.5 0.989584831873 -0.143339655064 0.0132515588843 204 239 91
179.391 43.6193 1534.32 0.989584831873 -0.143339655064 0.0132515588843 204 239 91
210.693 98.2613 1473.65 0.989584831873 -0.143339655064 0.0132515588843 204 239 91
207.569 55.1042 1474.66 0.989584831873 -0.143339655064 0.0132515588843 204 239 91
218.109 111.428 1461.95 0.989584831873 -0.143339655064 0.0132515588843 204 239 91
205.171 106.984 1471.46 0.989584831873 -0.143339655064 0.0132515588843 204 239 91
153.862 96.8753 1488.04 0.989584831873 -0.143339655064 0.0132515588843 204 239 91
192.629 45.0733 1548.24 0.989584831873 -0.143339655064 0.0132515588843 204 239 91
220.991 60.7841 1468.16 0.989584831873 -0.143339655064 0.0132515588843 204 239 91
203.839 100.663 1499.18 0.989584831873 -0.143339655064 0.0132515588843 204 239 91
226.321 67.3304 1467.72 0.989584831873 -0.143339655064 0.0132515588843 204 239 91
220.168 52.201 1502.61 0.989584831873 -0.143339655064 0.0132515588843 204 239 91
169.041 99.3055 1487.29 0.989584831873 -0.143339655064 0.0132515588843 204 239 91
195.338 107.094 1496.4 0.989584831873 -0.143339655064 0.0132515588843 204 239 91
243.072 91.9848 1484.17 0.989584831873 -0.143339655064 0.0132515588843 204 239 91
247.459 99.3378 1482.67 0.989584831873 -0.143339655064 0.0132515588843 204 239 91
144.602 73.4285 1478.9 0.989584831873 -0.143339655064 0.0132515588843 204 239 91
204.789 77.181 1469.78 0.989584831873 -0.143339655064 0.0132515588843 204 239 91
231.396 76.5204 1485.41 0.989584831873 -0.143339655064 0.0132515588843 204 239 91
264.548 98.1177 1512.27 0.989584831873 -0.143339655064 0.0132515588843 204 239 91
191.446 53.1861 1485.99 0.989584831873 -0.143339655064 0.0132515588843 204 239 91
-368.466 210.079 637.473 -0.855320071628 -0.488590351279 0.172357314065 173 67 101
-327.976 205.908 647.317 -0.855320071628 -0.488590351279 0.172357314065 173 67 101
-383.308 204.911 682.976 -0.855320071628 -0.488590351279 0.172357314065 173 67 101
-359.214 197.574 747.212 -0.855320071628 -0.488590351279 0.172357314065 173 67 101
-385.926 204.945 696.855 -0.855320071628 -0.488590351279 0.172357314065 173 67 101
-369.219 202.826 710.134 -0.855320071628 -0.488590351279 0.172357314065 173 67 101
-327.555 205.403 655.163 -0.855320071628 -0.488590351279 0.172357314065 173 67 101
-346.491 197.643 749.19 -0.855320071628 -0.488590351279 0.172357314065 173 67 101
-374.681 201.353 713.775 -0.855320071628 -0.488590351279 0.172357314065 173 67 101
-424.157 203.806 724.789 -0.855320071628 -0.488590351279 0.172357314065 173 67 101
-396.446 198.224 762.144 -0.855320071628 -0.488590351279 0.172357314065 173 67 101
-356.239 200.62 732.425 -0.855320071628 -0.488590351279 0.172357314065 173 67 101
-353.87 197.776 751.879 -0.855320071628 -0.488590351279 0.172357314065 173 67 101
-402.783 205.102 703.759 -0.855320071628 -0.488590351279 0.172357314065 173 67 101
-356.618 205.293 674.644 -0.855320071628 -0.488590351279 0.172357314065 173 67 101
-322.494 193.291 766.067 -0.855320071628 -0.488590351279 0.172357314065 173 67 101
-392.203 203.691 712.639 -0.855320071628 -0.488590351279 0.172357314065 173 67 101
-338.329 197.724 731.337 -0.855320071628 -0.488590351279 0.172357314065 173 67 101
-406.318 207.119 690.373 -0.855320071628 -0.488590351279 0.172357314065 173 67 101
-403.755 205.612 694.1 -0.855320071628 -0.488590351279 0.172357314065 173 67 101
-384.188 203.554 710.332 -0.855320071628 -0.488590351279 0.172357314065 173 67 101
-315.262 195.97 751.703 -0.855320071628 -0.488590351279 0.172357314065 173 67 101
-377.122 197.059 772.043 -0.855320071628 -0.488590351279 0.172357314065 173 67 101
-415.344 198.629 764.434 -0.855320071628 -0.488590351279 0.172357314065 173 67 101
-400.627 198.186 756.283 -0.855320071628 -0.488590351279 0.172357314065 173 67 101
-410.419 198.904 765.588 -0.855320071628 -0.488590351279 0.172357314065 173 67 101
-459.977 203.547 744.098 -0.855320071628 -0.488590351279 0.172357314065 173 67 101
-379.411 207.697 674.307 -0.855320071628 -0.488590351279 0.172357314065 173 67 101
-376.549 202.874 707.679 -0.855320071628 -0.488590351279 0.172357314065 173 67 101
-363.576 206.914 668.963 -0.855320071628 -0.488590351279 0.172357314065 173 67 101
-344.595 206.094 664.59 -0.855320071628 -0.488590351279 0.172357314065 173 67 101
-422.884 199.174 762.573 -0.855320071628 -0.488590351279 0.172357314065 173 67 101
-377.383 205.348 697.054 -0.855320071628 -0.488590351279 0.172357314065 173 67 101
-433.458 208.492 673.847 -0.855320071628 -0.488590351279 0.172357314065 173 67 101
-352.629 207.765 647.511 -0.855320071628 -0.488590351279 0.172357314065 173 67 101
-310.092 202.975 672.477 -0.855320071628 -0.488590351279 0.172357314065 173 67 101
-399.06 205.168 706.819 -0.855320071628 -0.488590351279 0.172357314065 173 67 101
-420.501 207.156 697.463 -0.855320071628 -0.488590351279 0.172357314065 173 67 101
-346.044 204.359 677.706 -0.855320071628 -0.488590351279 0.172357314065 173 67 101
-372.763 205.341 698.725 -0.855320071628 -0.488590351279 0.172357314065 173 67 101
-403.633 208.331 662.936 -0.855320071628 -0.488590351279 0.172357314065 173 67 101
-447.576 203.749 729.342 -0.855320071628 -0.488590351279 0.172357314065 173 67 101
-399.661 194.64 791.017 -0.855320071628 -0.488590351279 0.172357314065 173 67 101
-350.569 201.967 698.759 -0.855320071628 -0.488590351279 0.172357314065 173 67 101
-348.856 201.619 715.282 -0.855320071628 -0.488590351279 0.172357314065 173 67 101
-366.978 200.12 730.939 -0.855320071628 -0.488590351279 0.172357314065 173 67 101
-391.523 193.237 804.828 -0.855320071628 -0.488590351279 0.172357314065 173 67 101
-394.105 195.486 772.89 -0.855320071628 -0.488590351279 0.172357314065 173 67 101
-360.061 191.743 796.113 -0.855320071628 -0.488590351279 0.172357314065 173 67 101
-409.071 203.431 706.106 -0.855320071628 -0.488590351279 0.172357314065 173 67 101
-348.693 200.102 728.037 -0.855320071628 -0.488590351279 0.172357314065 173 67 101
-456.791 198.136 771.963 -0.855320071628 -0.488590351279 0.172357314065 173 67 101
-390.444 212.79 629.629 -0.855320071628 -0.488590351279 0.172357314065 173 67 101
-421.28 197.429 781.078 -0.855320071628 -0.488590351279 0.172357314065 173 67 101
-431.113 205.356 707.537 -0.855320071628 -0.488590351279 0.172357314065 173 67 101
-483.524 204.031 747.348 -0.855320071628 -0.488590351279 0.172357314065 173 67 101
-469.529 201.904 753.098 -0.855320071628 -0.488590351279 0.172357314065 173 67 101
-399.06 205.168 706.819 -0.855320071628 -0.488590351279 0.172357314065 173 67 101
-144.713 189.936 724.937 -0.937688929269 -0.289740577246 0.191806855516 78 27 135
-234.46 192.341 718.53 -0.937688929269 -0.289740577246 0.191806855516 78 27 135
-99.8212 206.246 694.896 -0.937688929269 -0.289740577246 0.191806855516 78 27 135
-214.449 186.969 698.026 -0.937688929269 -0.289740577246 0.191806855516 78 27 135
-244.563 195.238 672.575 -0.937688929269 -0.289740577246 0.191806855516 78 27 135
-199.853 144.139 800.197 -0.937688929269 -0.289740577246 0.191806855516 78 27 135
-187.581 180.055 792.91 -0.937688929269 -0.289740577246 0.191806855516 78 27 135
-255.873 197.51 686.875 -0.937688929269 -0.289740577246 0.191806855516 78 27 135
-187.395 143.681 805.836 -0.937688929269 -0.289740577246 0.191806855516 78 27 135
-167.221 180.48 775.913 -0.937688929269 -0.289740577246 0.191806855516 78 27 135
-254.052 195.699 698.13 -0.937688929269 -0.289740577246 0.191806855516 78 27 135
-173.672 190.877 708.642 -0.937688929269 -0.289740577246 0.191806855516 78 27 135
-172.821 189.9 719.953 -0.937688929269 -0.289740577246 0.191806855516 78 27 135
-157.58 202.997 667.432 -0.937688929269 -0.289740577246 0.191806855516 78 27 135
-166.739 190.63 719.209 -0.937688929269 -0.289740577246 0.191806855516 78 27 135
-267.532 190.387 748.63 -0.937688929269 -0.289740577246 0.191806855516 78 27 135
-164.386 178.578 803.935 -0.937688929269 -0.289740577246 0.191806855516 78 27 135
-161.95 191.769 708.268 -0.937688929269 -0.289740577246 0.191806855516 78 27 135
-257.097 198.211 668.983 -0.937688929269 -0.289740577246 0.191806855516 78 27 135
-172.821 189.9 719.953 -0.937688929269 -0.289740577246 0.191806855516 78 27 135
-677.415 153.444 1059.54 -0.8426561153 -0.461664937279 0.277121195569 188 197 26
-665.859 154.365 1055.92 -0.8426561153 -0.461664937279 0.277121195569 188 197 26
-656.686 156.76 1059.16 -0.8426561153 -0.461664937279 0.277121195569 188 197 26
-597.92 162.39 1027.16 -0.8426561153 -0.461664937279 0.277121195569 188 197 26
-641.457 160.169 1050.76 -0.8426561153 -0.461664937279 0.277121195569 188 197 26
-677.415 153.444 1059.54 -0.8426561153 -0.461664937279 0.277121195569 188 197 26
