ply
format ascii 1.0
element vertex 320
property float x
property float y
property float z
property uchar red
property uchar green
property uchar blue
end_header
-2099.51 4086.46 -1721.86 0 255 0
-2034.2 3872.47 -1074.74 0 255 0
-2040.01 3891.89 -1133.98 0 255 0
-2041.92 3898.74 -1155.26 0 255 0
-2032.53 3868.12 -1062.83 0 255 0
-2072.14 3998.83 -1458.59 0 255 0
-2440.81 5239.06 -5214.93 0 255 0
-2404.19 5118.11 -4849.27 0 255 0
-2351.94 4943.81 -4322.1 0 255 0
-2347.52 4928.71 -4276.35 0 255 0
-2688.3 6038.05 -7633.32 0 255 0
-2690.63 6048.74 -7665.84 0 255 0
-3002.95 7081.05 -10789.7 0 255 0
-3288.72 8041.05 -13720.5 0 255 0
-3213.42 7778.8 -12926.4 0 255 0
-3185.09 7682.34 -12632.9 0 255 0
-1909.85 3539.14 -111.853 0 255 0
-1873.58 3420.61 244.199 0 255 0
-1549.07 2346.7 3489.36 0 255 0
-1595.82 2500.83 3021.28 0 255 0
-1620.28 2581.45 2777.13 0 255 0
-1542.74 2320.66 3564.69 0 255 0
-1845.64 3342.4 482.144 0 255 0
-1900.6 3529.31 -84.6214 0 255 0
-1952.87 3703.93 -609.073 0 255 0
-1993.52 3841.05 -1026.22 0 255 0
-2009.57 3894.14 -1185.31 0 255 0
-2945.68 7034.43 -10683.2 0 255 0
-2952.24 7057.35 -10752.4 0 255 0
-2968.42 7119.57 -10941 0 255 0
680.386 -6398.48 30158.3 255 255 255
683.861 -6415.83 30212.1 255 255 255
785.508 -6801.46 31412.1 255 255 255
672.34 -6372.12 30076.1 255 255 255
680.072 -6400.66 30164.8 255 255 255
659.416 -6334.74 29963.5 255 255 255
684.402 -6415.59 30212.3 255 255 255
727.098 -6577.11 30714 255 255 255
749.745 -6664.61 30985.9 255 255 255
687.561 -6427.33 30248.7 255 255 255
661.599 -6332.97 29965.4 255 255 255
647.343 -6288.53 29819.4 255 255 255
690.344 -6456.52 30343 255 255 255
686.012 -6420.99 30263.6 255 255 255
817.435 -6923.52 31789.8 255 255 255
687.95 -6443.39 30316.2 255 255 255
688.874 -6444.8 30320.1 255 255 255
687.08 -6429.63 30266 255 255 255
705.803 -6482.01 30424.1 255 255 255
678.264 -6436.04 30278.4 255 255 255
685.337 -6422.43 30247 255 255 255
682.814 -6448.41 30340.5 255 255 255
687.14 -6438.44 30298.8 255 255 255
686.259 -6402.02 30200.8 255 255 255
728.483 -6592.01 30767.5 255 255 255
691.026 -6436.44 30312.5 255 255 255
693.359 -6467.52 30390.9 255 255 255
696.864 -6444.16 30332.9 255 255 255
729.909 -6594.36 30779.2 255 255 255
729.8 -6593.63 30770.5 255 255 255
680.137 -6412.54 30220.1 255 255 255
688.606 -6410.44 30209.7 255 255 255
771.074 -6738.9 31254.1 255 255 255
679.23 -6391.34 30171.4 255 255 255
689.403 -6449.96 30322.2 255 255 255
671.777 -6397.68 30154.5 255 255 255
659.356 -6331.57 29952.5 255 255 255
670.115 -6365.13 30065.4 255 255 255
645.588 -6280.9 29795.5 255 255 255
680.53 -6414.65 30225.5 255 255 255
696.53 -6442.74 30328.8 255 255 255
667.013 -6369.28 30075.5 255 255 255
716.987 -6560.25 30666.4 255 255 255
708.608 -6556.69 30654.3 255 255 255
682.685 -6412.71 30213.5 255 255 255
682.624 -6412.14 30205.4 255 255 255
707.033 -6482.34 30451.4 255 255 255
686.283 -6452.14 30324 255 255 255
672.755 -6388.54 30146.3 255 255 255
673.275 -6414.3 30208.4 255 255 255
688.142 -6444.66 30319.1 255 255 255
675.351 -6406.87 30191.3 255 255 255
638.65 -6254.95 29714.7 255 255 255
686.215 -6436.97 30296.8 255 255 255
741.013 -6652.6 30970.2 255 255 255
669.145 -6382.21 30114.2 255 255 255
672.828 -6385.15 30133.2 255 255 255
742.576 -6632.03 30920.6 255 255 255
657.952 -6340.16 29983.4 255 255 255
684.475 -6444.53 30309.5 255 255 255
690.881 -6424.23 30261.8 255 255 255
686.819 -6469.05 30380.6 255 255 255
671.306 -6398.66 30167.9 255 255 255
650.591 -6300.06 29855.2 255 255 255
652.757 -6308.11 29880.1 255 255 255
681.897 -6386.01 30151.7 255 255 255
674.061 -6389.06 30131.6 255 255 255
699.582 -6453.24 30361 255 255 255
655.854 -6317.94 29910.1 255 255 255
716.168 -6571.53 30706.2 255 255 255
742.569 -6627.51 30905.9 255 255 255
682.802 -6460.82 30355.7 255 255 255
621.877 -6208.47 29566.5 255 255 255
681.925 -6437.34 30280 255 255 255
633.595 -6261.35 29731.3 255 255 255
639.506 -6230.3 29663.9 255 255 255
669.649 -6345.77 30025.4 255 255 255
679.158 -6418.85 30240.7 255 255 255
681.082 -6447.43 30314.1 255 255 255
745.948 -6649.67 30957.8 255 255 255
716.983 -6574.7 30736.4 255 255 255
692.903 -6457.07 30337.9 255 255 255
715.485 -6557.22 30658.1 255 255 255
673.639 -6405.82 30189.7 255 255 255
681.902 -6437.04 30286.5 255 255 255
702.204 -6461.57 30382.4 255 255 255
669.022 -6380.44 30108.3 255 255 255
746.998 -6703.63 31111 255 255 255
686.79 -6439.79 30290.4 255 255 255
669.342 -6376.96 30096.1 255 255 255
699.313 -6494.78 30478.5 255 255 255
687.89 -6413.19 30209.8 255 255 255
677.623 -6409.52 30197.6 255 255 255
681.477 -6407.11 30189.6 255 255 255
662.069 -6344.52 29985.9 255 255 255
671.491 -6398.92 30168.6 255 255 255
683.657 -6400.33 30160.6 255 255 255
658.836 -6329.52 29946.4 255 255 255
699.758 -6507.85 30499.1 255 255 255
642.793 -6269.55 29760.1 255 255 255
678.539 -6428.2 30250.1 255 255 255
685.302 -6398.03 30188.3 255 255 255
688.887 -6477.47 30406.2 255 255 255
702.656 -6507.28 30502.4 255 255 255
686.337 -6426.38 30249.9 255 255 255
690.654 -6484.05 30426.9 255 255 255
607.365 -6148.17 29386.6 255 255 255
692.472 -6441.51 30329.6 255 255 255
666.232 -6370.95 30079 255 255 255
683.934 -6432.47 30268.6 255 255 255
674.313 -6368.17 30098.9 255 255 255
631.164 -6250.33 29699.1 255 255 255
675.095 -6412.78 30211.5 255 255 255
684.029 -6456.31 30362.8 255 255 255
666.086 -6370.06 30076.1 255 255 255
646.638 -6297.66 29851.2 255 255 255
653.557 -6291.98 29861.3 255 255 255
679.166 -6406.34 30185 255 255 255
706.208 -6483.71 30429.6 255 255 255
683.585 -6420.53 30277.8 255 255 255
626.245 -6221.29 29614.2 255 255 255
698.949 -6461.67 30388.1 255 255 255
680.63 -6384.22 30120.2 255 255 255
687.103 -6422.03 30231.5 255 255 255
685.921 -6405.57 30210 255 255 255
687.138 -6413.2 30237.3 255 255 255
665.265 -6325.52 29937.3 255 255 255
702.459 -6505.24 30495.4 255 255 255
669.958 -6414.98 30216.1 255 255 255
770.579 -6739.22 31252.9 255 255 255
688.355 -6409.79 30225.3 255 255 255
698.206 -6502.39 30490.6 255 255 255
678.522 -6445.46 30312.4 255 255 255
642.362 -6248.61 29726.4 255 255 255
684.532 -6410.58 30232.9 255 255 255
665.187 -6361.53 30048.2 255 255 255
683.447 -6414.08 30206.5 255 255 255
678.174 -6407.62 30190.5 255 255 255
729.27 -6576.49 30744.9 255 255 255
685.079 -6397.99 30188.5 255 255 255
484.762 -5645.95 27847 255 255 255
676.641 -6361.69 30070.1 255 255 255
726.765 -6610.53 30826.6 255 255 255
687.287 -6463.98 30361.8 255 255 255
694.828 -6435.63 30306.3 255 255 255
649.387 -6303.78 29869.3 255 255 255
711.148 -6546.72 30627.3 255 255 255
710.64 -6504.85 30523.3 255 255 255
731.592 -6615.62 30853.4 255 255 255
652.643 -6282.96 29829.4 255 255 255
698.079 -6497.54 30489.5 255 255 255
669.792 -6348.99 30038.4 255 255 255
744.175 -6674.18 31024 255 255 255
675.179 -6375.78 30122.6 255 255 255
670.79 -6393.47 30165.4 255 255 255
690.67 -6422.93 30239.7 255 255 255
672.742 -6365.87 30091.6 255 255 255
686.454 -6453 30327.2 255 255 255
684.044 -6399.57 30166.9 255 255 255
689.563 -6420.63 30256.2 255 255 255
617.564 -6181.11 29487.3 255 255 255
698.924 -6458.22 30375.6 255 255 255
662.58 -6320.59 29947.7 255 255 255
616.63 -6186.56 29506.8 255 255 255
734.373 -6595.8 30803.5 255 255 255
691.234 -6418.74 30248.3 255 255 255
645.399 -6268.07 29752.1 255 255 255
670.42 -6415.6 30218.9 255 255 255
683.117 -6398.61 30190.7 255 255 255
688.292 -6447.36 30314.4 255 255 255
700.968 -6467.63 30407.4 255 255 255
697.446 -6450.96 30326.9 255 255 255
687.189 -6448.4 30335.2 255 255 255
681.501 -6392.34 30172.7 255 255 255
697.908 -6510.26 30531.5 255 255 255
702.574 -6461.53 30381.3 255 255 255
685.883 -6408.31 30220.2 255 255 255
639.362 -6231.99 29670.5 255 255 255
691.316 -6476.79 30431.8 255 255 255
741.451 -6640.02 30931 255 255 255
688.835 -6415.42 30228.1 255 255 255
676.65 -6413.66 30228.8 255 255 255
696.03 -6450.92 30353.4 255 255 255
669.644 -6385.76 30125.7 255 255 255
686.237 -6411.7 30230.3 255 255 255
668.463 -6410.5 30202.1 255 255 255
686.404 -6408.21 30217.3 255 255 255
690.877 -6453.06 30343.7 255 255 255
623.504 -6175.69 29500.5 255 255 255
670.505 -6351.75 30043.9 255 255 255
698.067 -6483.03 30438.3 255 255 255
715.841 -6525.48 30585 255 255 255
683.021 -6421.81 30247.2 255 255 255
609.31 -6155.77 29410.1 255 255 255
695.049 -6450.1 30355.8 255 255 255
678.298 -6402.73 30173.7 255 255 255
687.444 -6415.95 30245.1 255 255 255
705.658 -6485.08 30461.7 255 255 255
670.488 -6380.34 30109.1 255 255 255
728.467 -6569.91 30722.8 255 255 255
689.603 -6419.84 30230.9 255 255 255
698.32 -6500.64 30498.3 255 255 255
767.589 -6754.39 31284 255 255 255
703.206 -6502.23 30498.2 255 255 255
741.353 -6668.96 31009.3 255 255 255
684.849 -6438.14 30289.7 255 255 255
689.561 -6457.96 30351.9 255 255 255
655.935 -6295.5 29868.6 255 255 255
764.547 -6742.58 31248.6 255 255 255
713.715 -6580.6 30728 255 255 255
748.223 -6651.11 30977.3 255 255 255
705.259 -6483.55 30456.7 255 255 255
655.633 -6292.87 29859.2 255 255 255
671.83 -6418.58 30229.4 255 255 255
619.311 -6189.53 29513.9 255 255 255
728.359 -6569.03 30695.2 255 255 255
724.835 -6599.8 30792.6 255 255 255
689.197 -6429.04 30288.6 255 255 255
717.484 -6580 30750 255 255 255
687.29 -6435.28 30280.1 255 255 255
688.404 -6416.77 30219.8 255 255 255
716.17 -6533.76 30599.4 255 255 255
688.802 -6410.6 30221.6 255 255 255
698.704 -6491.49 30452.8 255 255 255
683.301 -6406.52 30218.6 255 255 255
671.324 -6405.24 30204.9 255 255 255
692.057 -6466.72 30379.3 255 255 255
700.338 -6467.93 30408.5 255 255 255
706.947 -6492.95 30485.9 255 255 255
689.907 -6440.94 30290.3 255 255 255
611.829 -6130.27 29358.6 255 255 255
671.223 -6385.64 30126.3 255 255 255
687.769 -6465.02 30394 255 255 255
699.744 -6468.32 30412.6 255 255 255
685.584 -6423.91 30242.3 255 255 255
679.434 -6431.05 30256.1 255 255 255
722.979 -6553.22 30674.7 255 255 255
680.501 -6402.3 30169.7 255 255 255
682.044 -6386.01 30151.4 255 255 255
708.744 -6500.31 30507.6 255 255 255
684.937 -6420.62 30227 255 255 255
706.789 -6495.06 30492.5 255 255 255
687.702 -6458.84 30368.7 255 255 255
694.097 -6433.86 30301.4 255 255 255
684.669 -6404.12 30208.9 255 255 255
682.545 -6412.34 30212.5 255 255 255
686.364 -6407.15 30215.3 255 255 255
696.995 -6444.9 30306.5 255 255 255
723.681 -6609.69 30840.9 255 255 255
710.075 -6498.38 30474.8 255 255 255
698.78 -6448.48 30341.5 255 255 255
671.205 -6401.21 30193.6 255 255 255
695.598 -6479.23 30414.8 255 255 255
709.7 -6497.93 30498.4 255 255 255
679.802 -6421.7 30236.5 255 255 255
632.935 -6211.22 29609.6 255 255 255
694.975 -6450.09 30355.6 255 255 255
701.13 -6521.45 30567.5 255 255 255
679.497 -6412.94 30207 255 255 255
676.572 -6409.06 30224.4 255 255 255
666.151 -6401.85 30174.7 255 255 255
689.762 -6424.54 30271.5 255 255 255
682.308 -6453.28 30330.7 255 255 255
730.673 -6614.32 30835.1 255 255 255
626.271 -6184.7 29527.7 255 255 255
714.674 -6526.24 30592.5 255 255 255
676.576 -6414.95 30223.2 255 255 255
684.151 -6445.96 30318.9 255 255 255
694.162 -6483.01 30444.7 255 255 255
678.321 -6402.98 30174.3 255 255 255
695.442 -6449.44 30350.5 255 255 255
684.497 -6410.47 30232.7 255 255 255
676.624 -6416.63 30237.2 255 255 255
552.6 -5905.54 28656.7 255 255 255
676.879 -6397.72 30172.5 255 255 255
685.821 -6398.61 30184 255 255 255
686.393 -6412.2 30233.1 255 255 255
641.806 -6234.34 29663.8 255 255 255
650.191 -6270.87 29790.4 255 255 255
688.876 -6435.77 30278.9 255 255 255
690.311 -6432.87 30302.4 255 255 255
665.781 -6333.86 29988.4 255 255 255
705.018 -6480.17 30418.1 255 255 255
668.741 -6366.74 30061.7 255 255 255
659.724 -6360.95 30043.6 255 255 255
681.142 -6391.22 30144.2 255 255 255
632.467 -6218.92 29598.7 255 255 255
683.595 -6400.4 30194.8 255 255 255
687.249 -6443.17 30301.3 255 255 255
691.408 -6495 30466.5 255 255 255
