ply
format ascii 1.0
element vertex 353
property float x
property float y
property float z
property uchar red
property uchar green
property uchar blue
end_header
91.792 -22.4237 -238.395 0 255 0
92.6194 -23.9436 -238.976 0 255 0
93.4812 -24.2053 -238.834 0 255 0
93.3713 -23.9577 -238.899 0 255 0
92.4867 -23.2635 -238.99 0 255 0
91.8981 -22.103 -238.883 0 255 0
91.7201 -21.5642 -238.849 0 255 0
91.6543 -20.8601 -238.538 0 255 0
91.4209 -21.1429 -238.67 0 255 0
91.6839 -20.9812 -238.698 0 255 0
91.7644 -21.0605 -238.763 0 255 0
91.6277 -21.4899 -239.026 0 255 0
93.4969 -21.8891 -238.553 0 255 0
94.3949 -20.7359 -238.118 0 255 0
97.0027 -19.3193 -236.62 0 255 0
98.2458 -19.3463 -236.52 0 255 0
98.1352 -17.7208 -236.31 0 255 0
95.3256 -16.8338 -236.896 0 255 0
96.8019 -17.6986 -236.816 0 255 0
100.395 -16.631 -235.574 0 255 0
108.259 -16.6223 -233.465 0 255 0
108.204 -17.242 -233.508 0 255 0
108.772 -17.6687 -233.281 0 255 0
109.393 -18.2174 -233.595 0 255 0
109.028 -18.1479 -233.702 0 255 0
110.296 -18.6344 -233.215 0 255 0
111.522 -19.1857 -232.944 0 255 0
112.09 -18.6807 -232.759 0 255 0
111.42 -17.613 -233.049 0 255 0
112.124 -17.7143 -229.269 0 255 0
113.022 -18.7415 -228.86 0 255 0
112.69 -21.0839 -229.591 0 255 0
108.119 -23.4708 -231.742 0 255 0
106.552 -25.6356 -232.717 0 255 0
105.163 -26.2094 -233.61 0 255 0
98.6649 -24.5494 -233.41 0 255 0
96.2878 -23.9717 -234.329 0 255 0
93.0972 -22.3967 -235.483 0 255 0
92.9306 -21.945 -235.407 0 255 0
95.5405 -23.1533 -234.745 0 255 0
99.4648 -23.3647 -233.159 0 255 0
109.085 -29.1732 -229.831 0 255 0
110.789 -29.1345 -229.212 0 255 0
114.743 -29.538 -229.069 0 255 0
118.344 -30.4663 -227.686 0 255 0
120.129 -31.219 -227.175 0 255 0
124.264 -30.9396 -225.341 0 255 0
123.615 -30.5257 -225.407 0 255 0
124.7 -30.2923 -225.062 0 255 0
129.022 -27.7638 -222.463 0 255 0
140.005 -29.5596 -215.713 0 255 0
140.245 -27.9615 -215.19 0 255 0
136.765 -25.3267 -216.393 0 255 0
132.253 -21.0359 -214.817 0 255 0
131.154 -18.901 -215.212 0 255 0
128.231 -12.8151 -214.576 0 255 0
127.124 -11.1366 -214.78 0 255 0
124.957 -10.0049 -215.722 0 255 0
121.463 -8.73563 -217.263 0 255 0
115.908 -11.1108 -217.947 0 255 0
117.45 -13.9006 -217.796 0 255 0
118.522 -15.8375 -217.477 0 255 0
124.943 -24.1799 -216.873 0 255 0
125.596 -25.3999 -217.035 0 255 0
127.333 -26.3998 -216.379 0 255 0
129.503 -28.0481 -218.935 0 255 0
132.147 -27.9279 -217.836 0 255 0
133.517 -26.6652 -216.668 0 255 0
134.813 -25.7352 -216.047 0 255 0
136.006 -23.769 -215.444 0 255 0
135.788 -22.2908 -215.832 0 255 0
134.087 -16.8604 -216.91 0 255 0
134.399 -18.9697 -217.613 0 255 0
133.218 -14.9031 -217.95 0 255 0
130.996 -15.901 -218.509 0 255 0
126.235 -21.9267 -221.407 0 255 0
118.01 -24.243 -223.574 0 255 0
117.262 -26.656 -223.903 0 255 0
121.181 -34.6836 -224.895 0 255 0
126.665 -36.3313 -223.078 0 255 0
131.879 -37.115 -221.79 0 255 0
136.508 -36.23 -219.818 0 255 0
141.198 -35.3356 -217.594 0 255 0
139.874 -32.594 -215.888 0 255 0
138.25 -32.8603 -216.472 0 255 0
136.413 -32.3306 -217.648 0 255 0
134.407 -30.4505 -218.281 0 255 0
133.03 -30.5207 -219.03 0 255 0
130.292 -30.1839 -220.333 0 255 0
129.339 -29.1811 -220.864 0 255 0
126.242 -26.7008 -221.813 0 255 0
123.698 -25.5056 -223.506 0 255 0
125.56 -23.3264 -215.791 0 255 0
124.906 -22.3841 -215.96 0 255 0
120.063 -16.7677 -215.039 0 255 0
119.811 -14.44 -214.719 0 255 0
116.604 -9.80645 -214.937 0 255 0
115.772 -7.91322 -214.782 0 255 0
115.921 -10.2154 -215.319 0 255 0
117.285 -11.5488 -216.123 0 255 0
120.07 -10.9649 -215.71 0 255 0
127.811 -20.8339 -214.98 0 255 0
130.843 -22.4749 -214.417 0 255 0
134.328 -22.6777 -213.693 0 255 0
134.85 -23.6031 -214.825 0 255 0
132.526 -22.746 -216.031 0 255 0
128.925 -22.3555 -218.095 0 255 0
127.588 -23.3221 -219.199 0 255 0
125.945 -25.0142 -221.263 0 255 0
124.423 -25.2764 -223.154 0 255 0
122.923 -26.0593 -224.524 0 255 0
123.627 -25.9379 -225.934 0 255 0
124.575 -23.3059 -225.578 0 255 0
125.538 -18.7065 -223.954 0 255 0
125.385 -19.8688 -224.391 0 255 0
123.754 -20.8774 -225.498 0 255 0
124.65 -22.0836 -225.366 0 255 0
124.815 -22.5916 -225.217 0 255 0
125.708 -23.0355 -224.779 0 255 0
126.218 -20.5807 -223.7 0 255 0
-384.721 -418.402 849.038 255 255 255
-243.801 -268.612 773.797 255 255 255
-249.62 -271.355 777.262 255 255 255
-197.705 -303.505 877.166 255 255 255
-381.734 -385.427 812.82 255 255 255
-12.6902 -429.756 965.449 255 255 255
-195.485 -297.197 866.839 255 255 255
-266.936 -293.234 830.322 255 255 255
-467.592 -339.335 744.14 255 255 255
-139.345 -450.931 924.57 255 255 255
-163.886 -300.172 901.302 255 255 255
-605.247 -253.675 775.446 255 255 255
-153.77 -237.979 855.334 255 255 255
-680.64 -309.623 810.821 255 255 255
-622.73 -265.686 800.472 255 255 255
-123.168 -351.516 992.687 255 255 255
-278.508 -486.512 1064.14 255 255 255
-165.44 -295.613 883.398 255 255 255
-141.082 -376.826 747.033 255 255 255
-158.235 -274.711 834.633 255 255 255
-254.185 -507.425 877.379 255 255 255
-339.544 -397.803 812.309 255 255 255
-696.643 -280.058 657.282 255 255 255
-127.127 -410.527 837.431 255 255 255
-205.744 -303.466 912.318 255 255 255
-138.01 -277.071 849.579 255 255 255
80.1501 248.627 861.922 255 255 255
-169.675 -397.935 767.642 255 255 255
-646.981 -267.981 596.443 255 255 255
132.209 -257.111 930.343 255 255 255
-540.739 -278.09 648.542 255 255 255
-472.153 -342.333 779.427 255 255 255
-513.669 -370.292 847.156 255 255 255
-512.087 -203.696 750.02 255 255 255
-151.515 -155.921 606.955 255 255 255
-674.461 -339.845 733.957 255 255 255
-363.996 364.966 870.737 255 255 255
-719.327 -339.238 816.691 255 255 255
153.446 57.5311 999.222 255 255 255
-643.282 -254.325 616.706 255 255 255
106.114 273.315 910.269 255 255 255
-382.83 -423.45 865.518 255 255 255
209.089 -99.2609 993.661 255 255 255
-380.239 -311.515 717.329 255 255 255
-542.244 -532.266 813.99 255 255 255
-698.729 -332.658 772.021 255 255 255
69.9841 -256.491 793.578 255 255 255
-686.388 -338.425 697.831 255 255 255
207.561 -85.2129 1065.09 255 255 255
247.419 376.83 1120.93 255 255 255
-483.123 -455.004 829.232 255 255 255
-659.737 -304.35 751.885 255 255 255
-462.844 -337.409 774.076 255 255 255
-204.411 -257.769 801.165 255 255 255
118.821 -285.033 1039.13 255 255 255
-789.999 -577.972 818.504 255 255 255
-401.79 277.465 787.851 255 255 255
-201.972 -273.207 832.911 255 255 255
-140.455 -20.216 720.655 255 255 255
129.596 -52.3942 1002.84 255 255 255
-672.664 -328.658 781.231 255 255 255
-677.974 -316.848 667.02 255 255 255
-718.84 -310.701 846.407 255 255 255
-456.35 -335.404 776.329 255 255 255
-423.313 297.145 825.661 255 255 255
145.065 -48.5932 1075.66 255 255 255
179.847 -57.9655 1046.37 255 255 255
-160.059 -233.278 851.802 255 255 255
-702.166 -276.142 667.781 255 255 255
26.3357 -210.226 937.94 255 255 255
-348.246 -338.791 833.433 255 255 255
-423.699 299.633 831.053 255 255 255
204.117 -356.775 993.57 255 255 255
-158.425 -40.8307 817.319 255 255 255
-53.6531 -254.16 843.642 255 255 255
119.123 -213.257 879.941 255 255 255
-691.51 -271.635 841.734 255 255 255
100.142 8.1883 914.083 255 255 255
-382.636 -435.117 868.242 255 255 255
-703.911 -303.84 796.326 255 255 255
-138.333 36.3035 900.526 255 255 255
-548.252 -438.751 803.995 255 255 255
118.42 -32.8245 1064.04 255 255 255
-595.138 -228.668 853.479 255 255 255
-184.948 -286.65 833.488 255 255 255
2.73169 100.149 818.851 255 255 255
-722.671 -334.729 687.657 255 255 255
171.873 -119.232 1223.48 255 255 255
166.028 48.3972 977.532 255 255 255
-137.014 -82.4985 492.11 255 255 255
-380.507 -427.728 866.208 255 255 255
-614.162 -299.835 676.293 255 255 255
-636.965 -284.426 789.407 255 255 255
-525.007 -431.532 800.368 255 255 255
104.997 -25.84 920.873 255 255 255
76.8695 -251.574 998.926 255 255 255
-351.057 377.269 888.55 255 255 255
123.628 -257.947 1048.95 255 255 255
-53.698 -271.248 868.002 255 255 255
-279.416 533.747 915.777 255 255 255
140.14 70.0573 973.758 255 255 255
-109.551 -408.131 856.782 255 255 255
406.103 203.628 1274.45 255 255 255
151.965 61.8424 956.345 255 255 255
-112.212 -69.4789 471.328 255 255 255
202.635 -109.338 1071.77 255 255 255
522.516 -201.874 1415.08 255 255 255
-514.5 153.039 727.098 255 255 255
-101.139 0.926943 749.529 255 255 255
112.091 7.86609 947.909 255 255 255
123.497 -312.302 1109.96 255 255 255
-406.948 276.937 790.586 255 255 255
-84.1358 -11.7842 657.715 255 255 255
94.0362 319.223 889.174 255 255 255
-190.189 -297.911 862.19 255 255 255
-102.21 3.22846 785.55 255 255 255
-427.316 298.456 843.686 255 255 255
114.064 279.847 925.572 255 255 255
-418.38 275.132 796.313 255 255 255
353.969 -47.1559 983.653 255 255 255
-571.84 -438.379 662.983 255 255 255
-131.636 -152.303 689.319 255 255 255
-449.807 245.723 781.723 255 255 255
-407.557 276.75 794.749 255 255 255
95.5533 102 1037.63 255 255 255
-410.195 275.358 795.332 255 255 255
385.151 -58.7255 1035.46 255 255 255
4.83328 110.269 877.326 255 255 255
-568.203 -591.243 885.024 255 255 255
174.746 73.1182 1126.52 255 255 255
-100.656 -2.61962 754.927 255 255 255
-533.013 -420.572 770.727 255 255 255
10.3706 117.979 942.373 255 255 255
-467.625 -416.264 764.84 255 255 255
220.398 388.75 1053.4 255 255 255
-161.24 -67.5362 842.375 255 255 255
1.30724 106.813 853.029 255 255 255
-651.563 -311.924 713.17 255 255 255
-194.835 -510.888 991.315 255 255 255
346.007 374.182 1186.93 255 255 255
-464.145 270.874 828.633 255 255 255
-662.617 -294.276 771.333 255 255 255
-460.897 266.451 823.371 255 255 255
-0.102576 96.7366 789.549 255 255 255
235.707 239.728 1070.57 255 255 255
-114.111 -22.4646 802.469 255 255 255
-374.549 255.993 723.797 255 255 255
-394.997 269.809 768.099 255 255 255
469.101 -129.903 1118.45 255 255 255
-143.095 -59.0336 832.728 255 255 255
229.502 -99.6618 1164.09 255 255 255
-159.158 -299.663 916.693 255 255 255
-436.189 317.995 886.576 255 255 255
-165.937 -67.5351 836.109 255 255 255
-420.9 291.657 820.973 255 255 255
-211.212 477.348 947.781 255 255 255
-463.098 249.577 813.213 255 255 255
-413.651 281.681 803.861 255 255 255
-254.645 -300.42 856.812 255 255 255
-326.097 347.1 876.39 255 255 255
-598.807 -474.215 820.927 255 255 255
-353.079 339.456 864.631 255 255 255
-158.292 -14.8376 828.492 255 255 255
-264.586 462.891 910.161 255 255 255
-400.729 311.08 822.639 255 255 255
110.312 305.424 912.42 255 255 255
-382.474 258.276 740.499 255 255 255
-207.786 530.269 1000.96 255 255 255
107.247 -33.9105 821.238 255 255 255
255.367 382.125 1133.61 255 255 255
-542.021 -255.422 731.779 255 255 255
-421.266 292.924 828.507 255 255 255
-596.501 -266.414 730.576 255 255 255
-101.123 -16.8076 718.137 255 255 255
-411.584 280.134 797.96 255 255 255
4.00013 111.901 888.353 255 255 255
-495.931 113.086 682.811 255 255 255
-482.94 -394.188 712.868 255 255 255
132.805 -79.3301 1049.81 255 255 255
-568.744 -465.034 762.794 255 255 255
-110.422 7.03964 789.416 255 255 255
241.531 -402.812 1053.59 255 255 255
-131.985 -132.912 678.318 255 255 255
59.7331 -252.336 986.729 255 255 255
-475.091 265.906 835.191 255 255 255
-388.414 296.149 804.827 255 255 255
-424.243 386.238 784.769 255 255 255
108.316 -292.363 997.06 255 255 255
143.26 -40.6498 1112.16 255 255 255
-139.505 34.154 930.571 255 255 255
-277.143 125.566 829.686 255 255 255
546.876 -306.646 1187.94 255 255 255
383.82 -67.2472 1030.19 255 255 255
-573.857 -262.855 801.278 255 255 255
-159.757 -49.5065 806.661 255 255 255
-127.178 -3.70629 909.095 255 255 255
-231.6 -475.225 891.309 255 255 255
402.331 -626.139 1131.28 255 255 255
108.145 284.218 888.388 255 255 255
-402.584 280.414 789.256 255 255 255
-596.344 -491.431 815.297 255 255 255
-159.566 -33.5037 788.381 255 255 255
58.4732 -236.164 950.922 255 255 255
-473.959 -388.627 702.982 255 255 255
-22.7897 -323.834 974.005 255 255 255
-423.18 319.256 884.224 255 255 255
74.1361 -54.0038 900.9 255 255 255
-545.899 -474.246 877.004 255 255 255
219.001 -98.5817 1078.46 255 255 255
-372.928 -340.718 644.653 255 255 255
-141.761 -105.684 396.95 255 255 255
-668.561 -266.403 637.689 255 255 255
-85.1309 -11.5661 709.11 255 255 255
130.939 59.1401 955.658 255 255 255
-658.023 -264.637 623.902 255 255 255
-98.8264 -14.0898 610.785 255 255 255
-344.015 -57.5885 672.545 255 255 255
-312.865 469.507 851.196 255 255 255
-98.1366 -13.2555 702.195 255 255 255
-424.175 282.423 815.241 255 255 255
-152.691 -31.4356 747.801 255 255 255
-195.737 452.097 1158.29 255 255 255
185.716 43.6205 1059.35 255 255 255
-436.618 281.597 840.683 255 255 255
463.795 -159.877 1113.46 255 255 255
-448.158 -348.542 778.652 255 255 255
-410.69 385.143 772.502 255 255 255
-543.982 321.983 689.86 255 255 255
445.847 -96.0409 1105.61 255 255 255
-268.505 -89.0657 785.807 255 255 255
-130.57 -46.1883 1032.24 255 255 255
-345.149 337.833 905.224 255 255 255
-421.425 293.248 827.486 255 255 255
