ply
format ascii 1.0
element vertex 62
property float x
property float y
property float z
property uchar red
property uchar green
property uchar blue
end_header
248.449 -238.784 -264.717 0 255 0
244.96 -238.147 -262.025 0 255 0
245.13 -237.786 -264.15 0 255 0
244.861 -233.78 -264.244 0 255 0
244.592 -233.485 -264.368 0 255 0
243.634 -237.765 -266.296 0 255 0
236.985 -236.343 -271.193 0 255 0
232.733 -233.839 -272.194 0 255 0
221.076 -236.634 -270.842 0 255 0
211.145 -239.879 -272.784 0 255 0
207.442 -244.318 -272.389 0 255 0
206.686 -245.313 -274.328 0 255 0
206.744 -247.357 -274.501 0 255 0
202.639 -245.672 -276.103 0 255 0
200.586 -246.071 -276.992 0 255 0
195.982 -249.842 -277.331 0 255 0
195.024 -248.432 -276.225 0 255 0
195.953 -248.27 -271.824 0 255 0
195.284 -249.824 -270.711 0 255 0
194.16 -252.106 -269.682 0 255 0
-169.101 -306.529 907.277 255 255 255
-162.279 -305.399 920.491 255 255 255
605.846 5.78726 1102.18 255 255 255
608.492 7.05834 1106.48 255 255 255
660.785 76.3339 1088.45 255 255 255
23.4322 -276.203 1000.22 255 255 255
615.706 17.445 1099.48 255 255 255
552.974 -70.1309 1180.55 255 255 255
649.193 55.6727 1107.36 255 255 255
545.32 -81.6953 1192.6 255 255 255
365.32 -64.2448 982.934 255 255 255
-252.114 -317.155 805.41 255 255 255
447.76 -222.684 1311.85 255 255 255
600.6 -7.55154 1136.24 255 255 255
-251.552 -317.903 827.29 255 255 255
-236.552 -316.69 870.006 255 255 255
521.719 -119.199 1241.72 255 255 255
19.0867 141.606 765.02 255 255 255
654.624 64.353 1090.05 255 255 255
116.718 -267.151 1158.4 255 255 255
474.979 -181.956 1282.59 255 255 255
-521.405 66.3585 534.609 255 255 255
544.409 -85.1035 1200.27 255 255 255
203.001 -252.271 1154.03 255 255 255
191.37 177.474 913.74 255 255 255
657.127 78.7138 1086.21 255 255 255
647.315 52.7206 1106.78 255 255 255
202.559 -98.1746 869.083 255 255 255
617.952 149.674 1131.67 255 255 255
-246.358 -318.155 868.276 255 255 255
-84.9948 -293.536 960.942 255 255 255
358.538 -231.646 1278.9 255 255 255
651.479 61.7721 1088.13 255 255 255
513.101 -128.606 1234.29 255 255 255
-527.297 -44.4902 684.452 255 255 255
587.066 -23.1576 1139.99 255 255 255
501.5 227.152 1134.43 255 255 255
606.947 171.047 1143.75 255 255 255
-667.9 -82.5908 645.702 255 255 255
-17.0271 -284.788 1033.92 255 255 255
571.549 -47.546 1171.96 255 255 255
68.4097 151.224 804.475 255 255 255
