ply
format ascii 1.0
element vertex 210
property float x
property float y
property float z
property uchar red
property uchar green
property uchar blue
end_header
-0.0020559 0.0211808 -0.257214 0 255 0
-0.00298316 0.0212861 -0.256358 0 255 0
-0.00329086 0.0215023 -0.257016 0 255 0
-0.00377951 0.021665 -0.255662 0 255 0
-0.00400436 0.0217231 -0.255908 0 255 0
-0.00422925 0.0215408 -0.254571 0 255 0
-0.00441433 0.0212725 -0.254265 0 255 0
-0.00451991 0.0214058 -0.254648 0 255 0
-0.00446443 0.0213759 -0.254763 0 255 0
-0.00443389 0.021325 -0.254006 0 255 0
-0.00428793 0.0213309 -0.254011 0 255 0
-0.00400406 0.0212472 -0.254109 0 255 0
-0.00366616 0.0211976 -0.254185 0 255 0
-0.00335871 0.0212058 -0.254575 0 255 0
-0.003038 0.0212275 -0.255469 0 255 0
-0.00277726 0.0213426 -0.255449 0 255 0
-0.00239628 0.0212491 -0.255341 0 255 0
-0.00217102 0.0213618 -0.255705 0 255 0
-0.00208256 0.0211812 -0.255786 0 255 0
-0.00203194 0.0212911 -0.256491 0 255 0
-0.0021426 0.0213152 -0.256533 0 255 0
-0.0022995 0.0214188 -0.256634 0 255 0
-0.00256604 0.0213819 -0.25567 0 255 0
-0.00270692 0.0214235 -0.255484 0 255 0
-0.00275551 0.0215188 -0.255294 0 255 0
-0.00283585 0.0215495 -0.255894 0 255 0
-0.00285862 0.0215212 -0.255851 0 255 0
-0.00286128 0.0214384 -0.256136 0 255 0
-0.00287241 0.0215913 -0.25689 0 255 0
-0.00275002 0.0215271 -0.256286 0 255 0
-0.00262586 0.0216809 -0.256622 0 255 0
-0.00245179 0.0215538 -0.255432 0 255 0
-0.00214425 0.0216 -0.25575 0 255 0
-0.0020556 0.0216714 -0.255537 0 255 0
-0.00217694 0.0217354 -0.256263 0 255 0
-0.0023941 0.0216576 -0.256078 0 255 0
-0.00262666 0.0215353 -0.255731 0 255 0
-0.00268941 0.021497 -0.255957 0 255 0
-0.00272821 0.0212822 -0.255489 0 255 0
-0.00274984 0.0213915 -0.256002 0 255 0
-0.00283295 0.02138 -0.255239 0 255 0
-0.00271374 0.0214566 -0.255644 0 255 0
-0.00266612 0.0214152 -0.255476 0 255 0
-0.00254078 0.0213721 -0.255666 0 255 0
-0.00251326 0.0213512 -0.255787 0 255 0
-0.0025019 0.0213311 -0.255765 0 255 0
-0.00230811 0.0213713 -0.256588 0 255 0
-0.00223242 0.0213453 -0.256579 0 255 0
-0.00210813 0.0213348 -0.256419 0 255 0
-0.00206696 0.0214677 -0.255973 0 255 0
-0.00190826 0.021239 -0.255562 0 255 0
-0.00200667 0.0213696 -0.255763 0 255 0
-0.00203959 0.0214753 -0.256198 0 255 0
-0.00210963 0.021468 -0.255976 0 255 0
-0.00226644 0.0215319 -0.256404 0 255 0
-0.00239764 0.0216207 -0.25616 0 255 0
-0.00242174 0.0214509 -0.25561 0 255 0
-0.00243153 0.0216359 -0.25674 0 255 0
-0.00243435 0.0216646 -0.255103 0 255 0
-0.00252831 0.0216857 -0.255675 0 255 0
-0.00274447 0.0215469 -0.255446 0 255 0
-0.0030972 0.0215805 -0.255532 0 255 0
-0.00345178 0.0216031 -0.255266 0 255 0
-0.00376242 0.0215585 -0.254886 0 255 0
-0.00406794 0.0215976 -0.255385 0 255 0
-0.00434853 0.0217126 -0.254829 0 255 0
-0.0045209 0.0214675 -0.253807 0 255 0
-0.00487974 0.0214408 -0.253631 0 255 0
-0.00513589 0.0213122 -0.253505 0 255 0
-0.00533931 0.021232 -0.253554 0 255 0
-0.00565931 0.021252 -0.25368 0 255 0
-0.00611979 0.021265 -0.253117 0 255 0
-0.00639111 0.0212268 -0.253565 0 255 0
-0.0067828 0.0212955 -0.253287 0 255 0
-0.00702196 0.0212065 -0.252556 0 255 0
-0.00721014 0.0210694 -0.251552 0 255 0
-0.00739212 0.0212248 -0.252683 0 255 0
-0.00750688 0.0210722 -0.251693 0 255 0
-0.00767661 0.0211517 -0.251466 0 255 0
-0.00772073 0.02131 -0.25144 0 255 0
-0.00786743 0.0213076 -0.251038 0 255 0
-0.00792322 0.0213907 -0.251262 0 255 0
-0.00799369 0.0213881 -0.250622 0 255 0
-0.0081196 0.0208231 -0.248932 0 255 0
-0.217183 0.184098 0.767388 255 255 255
-0.231718 0.180254 0.77866 255 255 255
-0.213451 0.186537 0.764664 255 255 255
-0.0204839 -0.142171 0.579691 255 255 255
-0.0239689 -0.139359 0.573716 255 255 255
-0.224062 0.188638 0.746596 255 255 255
-0.229281 0.179245 0.78824 255 255 255
-0.168951 0.191915 0.754098 255 255 255
-0.2319 0.17707 0.785703 255 255 255
-0.0867816 0.0300111 0.648768 255 255 255
-0.230434 0.181678 0.778317 255 255 255
0.151028 -0.206485 0.743257 255 255 255
-0.220405 0.184619 0.76997 255 255 255
0.153249 -0.209457 0.746328 255 255 255
0.0684118 -0.17072 0.653714 255 255 255
-0.0907942 0.0238228 0.646413 255 255 255
-0.0910898 0.0211665 0.645112 255 255 255
-0.216033 0.178914 0.773586 255 255 255
-0.0248978 0.236944 0.660229 255 255 255
-0.141998 0.196744 0.730568 255 255 255
-0.216664 0.17767 0.778027 255 255 255
0.146052 -0.207159 0.741952 255 255 255
-0.174694 0.191285 0.744225 255 255 255
-0.168142 0.19293 0.760635 255 255 255
-0.0818719 0.219384 0.696624 255 255 255
0.111232 -0.190615 0.70089 255 255 255
-0.0907076 0.215447 0.699436 255 255 255
-0.173279 0.191637 0.74891 255 255 255
-0.0797721 0.0124003 0.640672 255 255 255
-0.224528 0.177811 0.792968 255 255 255
0.0841236 -0.178844 0.674049 255 255 255
-0.0953061 -0.147633 0.604194 255 255 255
-0.213306 0.183263 0.770492 255 255 255
-0.0303957 0.233128 0.660043 255 255 255
-0.2324 0.178126 0.779595 255 255 255
-0.162546 -0.166925 0.646817 255 255 255
-0.161559 -0.129813 0.653908 255 255 255
-0.0222363 -0.0344722 0.580107 255 255 255
-0.217762 0.190257 0.753803 255 255 255
-0.213345 0.188301 0.759089 255 255 255
-0.0295775 0.235695 0.658356 255 255 255
-0.16428 0.0142356 0.68964 255 255 255
-0.0640424 -1.44128 4.69483 255 255 255
-0.044501 -1.45855 4.74535 255 255 255
0.0748032 -0.170015 0.65428 255 255 255
-0.116684 0.207123 0.712578 255 255 255
-0.092518 0.017908 0.64824 255 255 255
-0.130187 0.203443 0.726263 255 255 255
-0.019843 0.104073 0.620335 255 255 255
-0.013302 0.237783 0.654661 255 255 255
-0.0889531 0.0261117 0.649006 255 255 255
-0.151121 0.0653398 0.704061 255 255 255
-0.221579 0.183532 0.775165 255 255 255
-0.164 0.037997 0.710958 255 255 255
-0.0188313 0.106066 0.621593 255 255 255
-0.0875011 -0.0314211 0.631109 255 255 255
0.17463 0.151005 0.865542 255 255 255
-0.109352 0.209159 0.702606 255 255 255
-0.3652 -0.0534144 0.858658 255 255 255
0.0727219 -0.140648 0.663913 255 255 255
-0.162232 0.0147431 0.698527 255 255 255
-0.0245918 -0.127265 0.551492 255 255 255
-0.127278 0.0890566 0.695544 255 255 255
0.0692699 -0.102857 0.671353 255 255 255
0.0727625 -0.169478 0.653553 255 255 255
0.0754779 -0.148587 0.667697 255 255 255
-0.0441247 0.22654 0.653346 255 255 255
0.0860464 -0.177551 0.672491 255 255 255
-0.0395332 0.231087 0.658156 255 255 255
-0.0787733 0.147068 0.685524 255 255 255
0.0761542 -0.0850044 0.680487 255 255 255
-0.158824 -0.166951 0.652773 255 255 255
0.0731555 -0.108286 0.675303 255 255 255
-0.168594 -0.106013 0.674271 255 255 255
-0.110315 0.208398 0.707527 255 255 255
0.141756 -0.205245 0.73719 255 255 255
-0.0930752 0.214919 0.698027 255 255 255
-0.0988012 0.105436 0.679345 255 255 255
-0.134123 0.200799 0.722565 255 255 255
-0.153972 -0.158997 0.647787 255 255 255
-0.0106809 0.237285 0.6573 255 255 255
-0.0785887 0.22034 0.695264 255 255 255
-0.164554 -0.132602 0.64916 255 255 255
-0.00257337 0.233821 0.669901 255 255 255
0.0771633 -0.170603 0.658392 255 255 255
-0.0941214 0.21309 0.697393 255 255 255
0.12783 -0.0873507 0.753654 255 255 255
-0.0341754 0.231029 0.658959 255 255 255
-0.0724228 -0.142629 0.591527 255 255 255
-0.0268633 -0.129075 0.556807 255 255 255
-0.158868 0.0182435 0.691825 255 255 255
-0.215098 0.189637 0.755278 255 255 255
-0.157856 0.236734 0.702138 255 255 255
-0.0143594 0.236466 0.654483 255 255 255
-0.213767 0.181402 0.770575 255 255 255
-0.0953742 0.211714 0.698898 255 255 255
0.0732372 -0.109651 0.672676 255 255 255
-0.0360186 0.231769 0.655979 255 255 255
0.0762263 -0.0711392 0.687598 255 255 255
-0.154315 -0.0719684 0.671896 255 255 255
-0.0942774 -0.146055 0.604115 255 255 255
-0.212279 0.180931 0.7834 255 255 255
-0.0179398 0.237997 0.653259 255 255 255
0.133795 -0.138307 0.743699 255 255 255
0.138903 -0.135474 0.745651 255 255 255
-0.0944769 -0.139378 0.599247 255 255 255
0.0769437 -0.0754563 0.685345 255 255 255
0.0745392 -0.114659 0.673903 255 255 255
-0.086301 0.216662 0.69424 255 255 255
-0.194465 -0.178675 0.686409 255 255 255
-0.0217452 -0.0237301 0.57512 255 255 255
-0.331485 0.141191 0.842518 255 255 255
-0.108973 0.181424 0.711998 255 255 255
0.29078 0.102995 1.0096 255 255 255
-0.112387 0.204032 0.702614 255 255 255
0.14495 -0.198343 0.735288 255 255 255
-0.179416 -0.0114764 0.707236 255 255 255
-0.110196 0.183469 0.710951 255 255 255
0.0761812 -0.0815504 0.686912 255 255 255
-0.0976935 0.210159 0.693943 255 255 255
0.0204208 -0.151804 0.616086 255 255 255
0.102659 0.154077 0.788662 255 255 255
0.0746048 -0.084071 0.682012 255 255 255
-0.00606718 0.237607 0.663807 255 255 255
-0.174889 -0.00861956 0.702555 255 255 255
-0.0890214 -0.0303427 0.630226 255 255 255
