ply
format ascii 1.0
element vertex 155
property float x
property float y
property float z
property uchar red
property uchar green
property uchar blue
end_header
0.00622334 -0.0174983 -0.0671508 0 255 0
0.00615127 -0.016506 -0.0663942 0 255 0
0.005909 -0.0166841 -0.0666497 0 255 0
0.00595224 -0.0177077 -0.0667075 0 255 0
0.00598697 -0.0175732 -0.066396 0 255 0
0.00663715 -0.0180903 -0.0667067 0 255 0
0.00641521 -0.0183627 -0.0668332 0 255 0
0.00652304 -0.0182112 -0.0662835 0 255 0
0.00657462 -0.017708 -0.0660189 0 255 0
0.00622399 -0.0182662 -0.0657842 0 255 0
0.00626077 -0.0181476 -0.0653483 0 255 0
0.00622623 -0.0183239 -0.0655104 0 255 0
0.00611352 -0.0186841 -0.0658468 0 255 0
0.00577283 -0.0186688 -0.0655356 0 255 0
0.00478189 -0.017761 -0.0654596 0 255 0
0.00431655 -0.0178179 -0.0660641 0 255 0
0.00409768 -0.0175583 -0.0658915 0 255 0
0.00423676 -0.0176348 -0.0655099 0 255 0
0.00399276 -0.0174637 -0.0653139 0 255 0
0.00373369 -0.0178593 -0.0656374 0 255 0
0.00385045 -0.0185552 -0.0663692 0 255 0
0.00409333 -0.0188564 -0.0659632 0 255 0
0.00495731 -0.0187759 -0.0660756 0 255 0
0.00502314 -0.0192093 -0.0665206 0 255 0
0.00485408 -0.0187364 -0.0663814 0 255 0
0.00471391 -0.0185447 -0.0666448 0 255 0
0.0043188 -0.0190056 -0.067002 0 255 0
0.00430711 -0.0192584 -0.0668154 0 255 0
0.00424494 -0.018476 -0.0662998 0 255 0
0.00459795 -0.0179978 -0.0657008 0 255 0
0.00434784 -0.0183475 -0.0663147 0 255 0
0.00423496 -0.0183011 -0.0661172 0 255 0
0.00419201 -0.0182618 -0.0659 0 255 0
0.00418159 -0.0181358 -0.0657278 0 255 0
0.00524944 -0.0188388 -0.0664727 0 255 0
0.00453607 -0.0184584 -0.0661083 0 255 0
0.00399488 -0.0178882 -0.0661692 0 255 0
0.0038434 -0.0180239 -0.0663746 0 255 0
0.00378215 -0.0180208 -0.0663922 0 255 0
0.00393693 -0.0181857 -0.0660996 0 255 0
0.00439556 -0.0187162 -0.0661655 0 255 0
0.00418322 -0.0189434 -0.0662101 0 255 0
0.00409999 -0.01875 -0.0660617 0 255 0
0.00425945 -0.0192987 -0.0662433 0 255 0
0.00432522 -0.0192985 -0.0663608 0 255 0
0.00394093 -0.0187145 -0.065755 0 255 0
0.00416296 -0.018888 -0.0656104 0 255 0
0.00419047 -0.0193746 -0.0657954 0 255 0
0.00426532 -0.0197129 -0.0654996 0 255 0
0.00458761 -0.0192599 -0.0649427 0 255 0
0.00478975 -0.0194563 -0.0651029 0 255 0
0.00485731 -0.0199354 -0.0652261 0 255 0
0.0048468 -0.0199133 -0.065134 0 255 0
0.0049388 -0.0200752 -0.0647674 0 255 0
0.00495286 -0.0204418 -0.0646766 0 255 0
0.00536684 -0.0210633 -0.0644706 0 255 0
0.00541401 -0.0210778 -0.0642114 0 255 0
0.00553911 -0.0208563 -0.0638404 0 255 0
0.00605492 -0.0208852 -0.0637803 0 255 0
0.00619416 -0.0209696 -0.0639368 0 255 0
0.00638845 -0.0211849 -0.0642758 0 255 0
0.00596145 -0.021171 -0.0641049 0 255 0
0.00623389 -0.0213939 -0.0641079 0 255 0
0.0062953 -0.0215842 -0.0640101 0 255 0
0.006634 -0.0215349 -0.0640385 0 255 0
0.00651468 -0.0210315 -0.0642232 0 255 0
0.0064205 -0.0213354 -0.0646141 0 255 0
0.00621053 -0.0219385 -0.0647476 0 255 0
0.00578718 -0.0216798 -0.0641652 0 255 0
0.00647921 -0.0213005 -0.0629349 0 255 0
0.00626415 -0.0214007 -0.0632309 0 255 0
0.00624598 -0.0218162 -0.0635528 0 255 0
0.00573823 -0.0218356 -0.0633964 0 255 0
0.00581396 -0.021101 -0.0632937 0 255 0
0.00580578 -0.0214005 -0.063589 0 255 0
0.00608406 -0.0214744 -0.0636606 0 255 0
0.00592541 -0.0215375 -0.0633687 0 255 0
0.00611345 -0.0215663 -0.0634284 0 255 0
0.0056461 -0.0220247 -0.0637221 0 255 0
0.00592633 -0.0217981 -0.0630625 0 255 0
0.00554058 -0.02067 -0.0625102 0 255 0
-0.016043 -0.0392909 -0.34437 0 255 0
-0.016176 -0.0392822 -0.343964 0 255 0
-0.0164917 -0.0392227 -0.344005 0 255 0
0.0348098 -0.135577 0.498974 255 255 255
0.0536278 -0.156187 0.548535 255 255 255
0.0042605 -0.138227 0.478888 255 255 255
0.00848846 -0.086282 0.346616 255 255 255
0.0187232 -0.118073 0.446968 255 255 255
0.0228054 -0.075006 0.330042 255 255 255
0.018372 -0.126907 0.466376 255 255 255
0.0288904 -0.10422 0.425034 255 255 255
0.0174954 -0.0745261 0.318037 255 255 255
0.00509296 -0.0222943 -0.0352944 255 255 255
0.015206 -0.0863826 0.355177 255 255 255
-0.0332967 -0.146935 0.476352 255 255 255
0.00715168 -0.0572628 0.227582 255 255 255
0.0343498 -0.142846 0.511492 255 255 255
-0.00403256 -0.148368 0.493021 255 255 255
0.0390225 -0.0960723 0.419849 255 255 255
0.02667 -0.153248 0.522427 255 255 255
0.0376891 -0.120641 0.473149 255 255 255
-0.0160246 -0.134396 0.459307 255 255 255
-0.0054893 -0.170446 0.528022 255 255 255
0.0316651 -0.0915116 0.396095 255 255 255
0.0173758 -0.153526 0.516011 255 255 255
0.0107618 -0.0577604 0.236481 255 255 255
0.0218534 -0.103315 0.413621 255 255 255
0.00323566 -0.162308 0.520754 255 255 255
0.0110722 -0.137664 0.4826 255 255 255
-0.0112365 -0.149794 0.491517 255 255 255
-0.00125597 -0.122704 0.441638 255 255 255
0.0465557 -0.126362 0.494095 255 255 255
0.0404829 -0.144353 0.519542 255 255 255
0.00796401 -0.110796 0.418982 255 255 255
0.0122839 -0.0476595 0.192464 255 255 255
0.0131153 -0.165178 0.531532 255 255 255
0.0200421 -0.173672 0.547925 255 255 255
-0.0297754 -0.115316 0.411964 255 255 255
0.0080177 -0.0765542 0.311338 255 255 255
0.022028 -0.0617295 0.281355 255 255 255
0.026666 -0.0802096 0.354412 255 255 255
0.0247049 -0.125705 0.46977 255 255 255
-0.0198027 -0.158203 0.50151 255 255 255
0.0161592 -0.0959047 0.385919 255 255 255
0.0319274 -0.114611 0.453561 255 255 255
0.0203813 -0.0946106 0.387617 255 255 255
0.0366368 -0.165869 0.548441 255 255 255
0.0129324 -0.066998 0.280843 255 255 255
0.00834413 -0.163579 0.525996 255 255 255
0.0350695 -0.11121 0.449822 255 255 255
0.0152083 -0.0649017 0.276917 255 255 255
0.0274808 -0.0868694 0.376056 255 255 255
-0.0202998 -0.137194 0.463055 255 255 255
0.00583977 -0.048566 0.179981 255 255 255
-0.00643236 -0.124235 0.44225 255 255 255
-0.37764 -0.31189 0.557924 255 255 255
-0.00172638 -0.0437584 0.151386 255 255 255
0.239372 -0.387499 0.677723 255 255 255
-0.0249164 -0.0848684 0.327619 255 255 255
-0.366952 -0.334086 0.56129 255 255 255
-0.374978 -0.315741 0.558395 255 255 255
0.0309802 -0.149449 0.519575 255 255 255
0.0156094 -0.159954 0.525154 255 255 255
0.00267347 -0.117128 0.431064 255 255 255
0.00637516 -0.0951345 0.372889 255 255 255
-0.0101899 -0.0536374 0.20331 255 255 255
0.00144762 -0.131071 0.462102 255 255 255
-0.436935 -0.440728 0.677057 255 255 255
0.179309 -0.433699 0.754877 255 255 255
0.464021 -0.386098 0.707502 255 255 255
-0.370391 -0.366922 0.556429 255 255 255
-0.269665 -0.485467 0.843115 255 255 255
0.439446 -0.372851 0.627287 255 255 255
0.365451 -0.356495 0.650656 255 255 255
