ply
format ascii 1.0
element vertex 212
property float x
property float y
property float z
property uchar red
property uchar green
property uchar blue
end_header
246.442 -146.442 -218.147 0 255 0
246.078 -146.926 -218.039 0 255 0
246.112 -145.898 -217.841 0 255 0
244.181 -144.468 -217.835 0 255 0
243.485 -144.358 -218.222 0 255 0
243.463 -143.357 -218.236 0 255 0
243.522 -142.829 -218.543 0 255 0
242.491 -142.891 -218.553 0 255 0
243.615 -143.369 -218.471 0 255 0
243.072 -142.512 -218.027 0 255 0
242.884 -142.783 -217.64 0 255 0
242.865 -141.672 -217.576 0 255 0
243.015 -141.264 -217.256 0 255 0
242.214 -141.537 -217.203 0 255 0
243.102 -142.629 -217.268 0 255 0
242.717 -139.845 -217.488 0 255 0
242.696 -139.927 -217.487 0 255 0
242.589 -139.998 -216.802 0 255 0
242.496 -140.535 -216.758 0 255 0
241.962 -139.028 -216.565 0 255 0
242.25 -137.901 -216.625 0 255 0
240.728 -137.84 -216.977 0 255 0
240.574 -137.436 -217.83 0 255 0
240.02 -136.172 -218.533 0 255 0
239.277 -136.493 -219.371 0 255 0
239.654 -136.362 -219.442 0 255 0
239.911 -135.196 -218.818 0 255 0
238.924 -134.662 -219.007 0 255 0
238.984 -135.556 -218.971 0 255 0
238.804 -136.415 -218.952 0 255 0
239.854 -135.315 -218.594 0 255 0
239.837 -135.403 -218.335 0 255 0
239.498 -135.593 -218.254 0 255 0
239.463 -135.3 -218.042 0 255 0
240.363 -134.203 -218.403 0 255 0
239.862 -134.519 -218.521 0 255 0
239.439 -133.838 -218.524 0 255 0
239.442 -133.489 -218.761 0 255 0
239.724 -133.861 -218.598 0 255 0
239.172 -133.664 -218.394 0 255 0
238.779 -133.066 -218.173 0 255 0
238.467 -132.917 -218.229 0 255 0
238.184 -133.022 -218.443 0 255 0
238.365 -132.79 -217.958 0 255 0
238.271 -132.54 -218.296 0 255 0
237.857 -132.955 -218.101 0 255 0
237.863 -133.11 -218.05 0 255 0
237.894 -132.359 -217.718 0 255 0
237.234 -132.248 -217.684 0 255 0
236.976 -133.032 -218.174 0 255 0
237.568 -132.97 -217.705 0 255 0
237.361 -132.639 -217.798 0 255 0
237.236 -132.343 -217.712 0 255 0
237.146 -132.603 -217.406 0 255 0
236.343 -131.931 -216.966 0 255 0
236.052 -131.225 -216.625 0 255 0
235.981 -131.348 -216.774 0 255 0
235.208 -131.423 -216.875 0 255 0
235.476 -131.372 -216.929 0 255 0
235.169 -131.058 -217.286 0 255 0
235.876 -131.485 -217.271 0 255 0
235.113 -130.998 -216.986 0 255 0
234.723 -131.44 -217.026 0 255 0
234.304 -131.377 -216.867 0 255 0
233.905 -131.494 -217.538 0 255 0
233.859 -132.081 -218.232 0 255 0
234.375 -131.712 -217.996 0 255 0
233.802 -131.285 -217.846 0 255 0
233.3 -131.887 -217.339 0 255 0
233.679 -134.588 -216.229 0 255 0
234.31 -133.976 -216.116 0 255 0
234.356 -132.982 -215.955 0 255 0
234.148 -133.259 -215.867 0 255 0
234.714 -133.575 -216.155 0 255 0
234.656 -133.071 -216.181 0 255 0
234.649 -133.2 -216.42 0 255 0
234.487 -133.178 -215.699 0 255 0
234.654 -133.283 -215.835 0 255 0
234.935 -132.365 -215.337 0 255 0
234.295 -133.972 -215.445 0 255 0
234.662 -134.881 -215.243 0 255 0
235.658 -134.144 -214.194 0 255 0
234.593 -133.958 -214.124 0 255 0
234.048 -133.192 -214.126 0 255 0
-196.588 -137.215 612.785 255 255 255
-178.952 -198.375 647.383 255 255 255
-126.137 -188.07 634.202 255 255 255
-88.9169 -116.993 660.449 255 255 255
-88.7723 -82.8568 635.127 255 255 255
-134.735 -208.137 646.275 255 255 255
-100.178 -157.596 604.561 255 255 255
-108.215 -120.544 601.471 255 255 255
-75.4924 -194.267 637.471 255 255 255
-91.5704 -176.187 631.507 255 255 255
-82.8009 -128.224 651.009 255 255 255
-89.671 -147.088 643.577 255 255 255
-157.159 -158.817 579.069 255 255 255
-94.7531 -180.652 630.926 255 255 255
-164.832 -176.363 615.535 255 255 255
-155.304 -193.387 638.837 255 255 255
-79.8398 -197.985 641.029 255 255 255
-150.316 -198.305 654.945 255 255 255
-101.245 -98.1968 642.759 255 255 255
-140.286 -209.927 651.683 255 255 255
-100.186 -92.8486 602.363 255 255 255
-136.893 -169.711 615.628 255 255 255
-118.046 -190.01 644.118 255 255 255
-102.54 -78.6735 611.422 255 255 255
-101.755 -63.5315 619.091 255 255 255
-155.633 -176.897 616.133 255 255 255
-128.47 -152.837 577.149 255 255 255
-375.256 -571.094 1055.34 255 255 255
-109.28 -183.922 640.131 255 255 255
-190.892 -167.279 590.977 255 255 255
-76.2066 -135.902 673.228 255 255 255
-95.2045 -110.34 636.305 255 255 255
-189.461 -181.987 623.377 255 255 255
-125.365 -152.146 573.735 255 255 255
-107.264 -161.929 615.114 255 255 255
-152.581 -193.342 645.801 255 255 255
-93.5222 -165.877 645.936 255 255 255
-89.2367 -157.67 639.671 255 255 255
-105.193 -202.412 642.133 255 255 255
279.072 -608.795 1180.64 255 255 255
-177.086 -201.189 648.109 255 255 255
-78.7401 -169.082 659.089 255 255 255
-77.5668 -140.169 671.435 255 255 255
-152.188 -187.929 630.29 255 255 255
-138.07 -164.578 609.354 255 255 255
-76.5299 -197.442 638.796 255 255 255
-187.307 -183.762 623.87 255 255 255
-108.318 -129.759 595.608 255 255 255
-190.936 -107.173 615.861 255 255 255
-89.4144 -182.283 638.334 255 255 255
-77.3462 -165.688 657.958 255 255 255
-871.559 -367.568 768.466 255 255 255
-83.515 -122.26 656.964 255 255 255
-87.9354 -157.607 646.22 255 255 255
-150.773 -157.729 572.113 255 255 255
-221.828 -652.039 1157.07 255 255 255
-81.226 -99.63 663.327 255 255 255
-130.694 -172.173 627.855 255 255 255
-110.042 -142.166 582.289 255 255 255
-95.2391 -138.679 615.746 255 255 255
-334.471 -581.579 1065.36 255 255 255
-85.2916 -164.228 660.739 255 255 255
-903.164 -341.341 724.313 255 255 255
-87.2776 -123.407 651.513 255 255 255
-98.1464 -128.69 621.023 255 255 255
-98.1234 -116.427 663.18 255 255 255
288.694 30.2314 559.474 255 255 255
-102.152 -118.205 599.431 255 255 255
-578.299 -642.341 1306.5 255 255 255
-105.703 -145.1 582.902 255 255 255
-111.671 -149.97 569.388 255 255 255
-106.592 -115.225 603.957 255 255 255
-141.069 -191.875 651.473 255 255 255
-588.144 -614.945 1249.04 255 255 255
-100.554 -125.924 616.545 255 255 255
-110.891 -195.892 639.491 255 255 255
-92.9674 -149.435 642.917 255 255 255
-97.2409 -117.871 634.709 255 255 255
-74.8332 -195.71 636.249 255 255 255
-83.934 -114.048 660.998 255 255 255
-106.424 -159.537 608.447 255 255 255
-802.075 -243.253 530.612 255 255 255
-107.736 -133.601 590.421 255 255 255
-101.729 -86.7747 608.035 255 255 255
-371.405 -661.594 1262.76 255 255 255
-528.891 -617.68 1231.72 255 255 255
-145.812 -196.282 656.431 255 255 255
-905.804 -329.037 695.693 255 255 255
-77.2547 -135.089 671.729 255 255 255
319.554 -313.057 857.792 255 255 255
-148.474 -196.904 655.162 255 255 255
-406.896 -621.066 1158.72 255 255 255
-85.292 -143.381 604.138 255 255 255
-90.0541 -116.052 656.29 255 255 255
-100.077 -63.3479 618.585 255 255 255
-107.002 -143.902 584.429 255 255 255
-107.267 -147.952 594.023 255 255 255
-378.065 -545.061 997.305 255 255 255
-128.655 -185.773 637.869 255 255 255
-128.568 -181.748 645.442 255 255 255
-87.5004 -115.515 659.757 255 255 255
-812.34 -360.224 727.974 255 255 255
-152.83 -175.052 621.086 255 255 255
-99.496 -106.715 637.254 255 255 255
228.733 -627.051 984.492 255 255 255
-174.462 -197.343 643.997 255 255 255
-136.097 -168.242 613.914 255 255 255
-779.459 -414.278 846.914 255 255 255
-115.768 -150.352 570.764 255 255 255
-100.346 -163.575 616.96 255 255 255
-187.829 -79.7712 623.832 255 255 255
-94.3084 -97.1377 598.336 255 255 255
-196.577 -135.604 611.52 255 255 255
-99.6102 -134.364 616.832 255 255 255
-132.403 -156.84 578.52 255 255 255
-98.2673 -93.0679 616.28 255 255 255
-114.727 -184.957 636.57 255 255 255
-127.739 -154.185 575.38 255 255 255
-112.742 -199.122 651.681 255 255 255
-154.418 -196.852 644.99 255 255 255
-648.435 -223.005 415.852 255 255 255
-104.716 -121.233 598.359 255 255 255
-90.6212 -151.7 641.485 255 255 255
-138.572 -154.829 573.899 255 255 255
-1087.29 -367.902 822.284 255 255 255
260.352 -582.546 839.258 255 255 255
-72.3429 -128.284 637.207 255 255 255
-111.122 -132.948 590.04 255 255 255
