ply
format ascii 1.0
element vertex 153
property float x
property float y
property float z
property uchar red
property uchar green
property uchar blue
end_header
3439.57 -37361.7 -485126 0 255 0
3343.71 -37080.7 -484529 0 255 0
4397.44 -35924.8 -484890 0 255 0
9679.65 -29489 -484368 0 255 0
11577.9 -26610.3 -484334 0 255 0
12717.1 -25029.2 -482049 0 255 0
17781.5 -19380.6 -480110 0 255 0
19391.3 -15238.5 -478592 0 255 0
19443.2 -10053.5 -475824 0 255 0
18396.5 -12167.1 -473520 0 255 0
16883.4 -14125.2 -468951 0 255 0
14107.1 -16159.3 -462229 0 255 0
12819.6 -17098.9 -460953 0 255 0
2217.21 -27327.4 -451496 0 255 0
1197.34 -28127 -451454 0 255 0
130.895 -29230.2 -449661 0 255 0
4313.98 -28303.1 -457712 0 255 0
5028.95 -27883.6 -459239 0 255 0
5466.6 -27810 -459702 0 255 0
6105.9 -27222 -461438 0 255 0
8002.84 -25561.8 -461479 0 255 0
11235.8 -22643.3 -462211 0 255 0
14458.5 -19957.4 -463631 0 255 0
16558.5 -19159.4 -466087 0 255 0
16376.9 -19061.9 -463974 0 255 0
16470.5 -19131.5 -462126 0 255 0
14781.4 -21376 -458557 0 255 0
14706.4 -21608.7 -458497 0 255 0
14203 -22776.2 -457371 0 255 0
14513.8 -23178.2 -458095 0 255 0
14660.3 -22403.1 -454112 0 255 0
16647.4 -20892.2 -453933 0 255 0
17258.2 -20577.3 -453952 0 255 0
19530.8 -18652.4 -453379 0 255 0
22141.9 -17011.6 -454604 0 255 0
22972.5 -15573 -452476 0 255 0
25505.8 -11627.1 -451416 0 255 0
24194.3 -9641.31 -449539 0 255 0
20331.4 -10274.6 -441489 0 255 0
19217 -11042.6 -438998 0 255 0
11668.9 -19962.1 -439894 0 255 0
10463.9 -21183.2 -440578 0 255 0
5715.56 -25635.2 -442753 0 255 0
2397.72 -28469.4 -440583 0 255 0
2519.06 -28876.2 -440534 0 255 0
-1148.5 -34027.4 -446842 0 255 0
-1344.6 -34540.3 -449733 0 255 0
-2040.35 -36598.6 -449364 0 255 0
-775.492 -35744.5 -448919 0 255 0
3160.65 -31485.2 -449535 0 255 0
6400.88 -28033.9 -447767 0 255 0
8300.84 -26540.1 -448169 0 255 0
10043.3 -25739.7 -450190 0 255 0
10444.3 -25641.9 -449324 0 255 0
14499.5 -22642 -453997 0 255 0
17076.8 -18336.7 -452931 0 255 0
20414.9 -12580.6 -449575 0 255 0
19647.1 -11609.6 -444380 0 255 0
20076 -11437.1 -443905 0 255 0
22399.2 -9296.43 -444232 0 255 0
22378.2 -9305.18 -444981 0 255 0
22307.2 -9085.22 -440766 0 255 0
22170.5 -8860.34 -438725 0 255 0
22118.5 -9495.11 -436345 0 255 0
22360.9 -10396.9 -433794 0 255 0
22560.3 -10206.9 -434860 0 255 0
22494.3 -10000.3 -434826 0 255 0
21275 -10611.5 -431071 0 255 0
20593.3 -12077.4 -434201 0 255 0
17628 -14361 -432814 0 255 0
-82203.2 20664.2 218014 255 255 255
-59697.9 172699 210608 255 255 255
-80825.1 -122733 199108 255 255 255
-139197 -50855.8 275982 255 255 255
-25346.1 -49514.4 139841 255 255 255
67252.5 86400.3 224970 255 255 255
-83762.6 -121811 204407 255 255 255
-82548.5 18805.9 219017 255 255 255
29802.1 16345 84462.4 255 255 255
-60310.5 174864 216399 255 255 255
-139513 -51797.3 277454 255 255 255
183319 -341.391 244426 255 255 255
29015.9 18389.6 82683 255 255 255
-49913.9 131794 174342 255 255 255
-4116.48 -141341 307203 255 255 255
51771.5 -68159 254255 255 255 255
-60061.5 173485 210989 255 255 255
101315 9878.58 153549 255 255 255
-26907.5 -48304.1 139055 255 255 255
-44312.5 -137306 258207 255 255 255
97879.8 159493 371820 255 255 255
101892 7516.66 155873 255 255 255
53469.2 -68196.4 251559 255 255 255
66623.1 87587.9 227420 255 255 255
-81973.6 -122182 199591 255 255 255
-14488.6 94704.6 145528 255 255 255
-127693 98659.2 279729 255 255 255
-16870.7 110574 153849 255 255 255
99129.5 157240 373010 255 255 255
66965.9 87590.6 230203 255 255 255
-81578.6 -122966 199633 255 255 255
130557 -77583.8 329375 255 255 255
-4230.19 -142557 308711 255 255 255
-127569 97342.1 279094 255 255 255
74569.9 -157416 406304 255 255 255
131096 -79130.5 334355 255 255 255
-129349 97171.7 287322 255 255 255
39908.4 357129 1.41629e+07 255 255 255
-37493.3 111183 163061 255 255 255
-49750.4 130972 173885 255 255 255
130632 -77003.2 327359 255 255 255
79506.6 7678.58 136916 255 255 255
181854 2310.28 239294 255 255 255
46438.4 28167.2 100745 255 255 255
-54706.2 -68729.1 139060 255 255 255
-1411.33 97983.3 138363 255 255 255
-27333 -47833.3 138891 255 255 255
-14790.3 95097.4 148065 255 255 255
-29622.1 -64280.9 155657 255 255 255
-34347.4 -134500 261048 255 255 255
96746.2 -13115.8 201152 255 255 255
76928.3 -159441 407086 255 255 255
-62684.4 -132652 228100 255 255 255
-191672 24215 351208 255 255 255
65864.1 88945.5 226673 255 255 255
-83769 -100759 207307 255 255 255
-98249.3 9236.03 232452 255 255 255
22164.4 97094 174137 255 255 255
-101338 -131421 167335 255 255 255
71170.6 24938.2 127137 255 255 255
24452.7 162632 280697 255 255 255
-110259 -136711 257578 255 255 255
-32119 -135362 260879 255 255 255
82465.9 -28985.6 195034 255 255 255
-114581 -147150 196682 255 255 255
-192984 23965.1 356957 255 255 255
-6727.08 -144522 319759 255 255 255
132067 -79425.6 332835 255 255 255
-2827.32 -32800.3 134202 255 255 255
78997.7 7409 137190 255 255 255
-127878 96052.4 281472 255 255 255
51899.9 -69108.9 257872 255 255 255
-73758.1 -132971 225676 255 255 255
-28851.6 -63486.7 157532 255 255 255
-128559 97082 282533 255 255 255
66532.7 25492.6 119498 255 255 255
-6739.74 -142183 312588 255 255 255
76650 -157045 404964 255 255 255
-55185.2 56242.6 167219 255 255 255
-43992 -110486 167553 255 255 255
17473.2 -62489.2 198411 255 255 255
-3.33141 -75302.4 389977 255 255 255
35961.4 -39060.8 -2.26201e+06 255 255 255
