ply
format ascii 1.0
element vertex 123
property float x
property float y
property float z
property uchar red
property uchar green
property uchar blue
end_header
546.5 -0.431004 2852.91 0 255 0
535.738 158.507 2850.99 0 255 0
532.669 160.17 2850.94 0 255 0
527.698 168.675 2850.78 0 255 0
525.88 178.742 2850.62 0 255 0
524.946 184.148 2850.56 0 255 0
523.049 188.964 2850.48 0 255 0
513.476 198.192 2850.3 0 255 0
514.057 199.544 2850.41 0 255 0
515.615 204.323 2850.46 0 255 0
502.326 241.102 2850.11 0 255 0
500 240.178 2850.15 0 255 0
498.618 238.014 2850.32 0 255 0
494.474 244.172 2850.3 0 255 0
484.85 267.821 2850.37 0 255 0
479.571 268.598 2850.38 0 255 0
476.966 264.885 2850.83 0 255 0
474.313 262.681 2850.87 0 255 0
458.165 283.707 2850.62 0 255 0
449.05 295.132 2850.34 0 255 0
437.035 323.117 2850.57 0 255 0
451.348 307.531 2850.92 0 255 0
464.784 329.187 2851.34 0 255 0
446.107 381.253 2851.08 0 255 0
493.894 357.375 2852.14 0 255 0
451.394 365.357 2850.74 0 255 0
384.587 349.593 2849.25 0 255 0
324.689 367.523 2848.18 0 255 0
335.633 345.101 2848.27 0 255 0
376.06 302.311 2848.03 0 255 0
400.757 287.541 2847.73 0 255 0
376.539 353.983 2845.93 0 255 0
359.049 386.445 2845.16 0 255 0
-342.68 -543.521 2856.61 0 255 0
72.31 -674.925 2857.66 0 255 0
50.0559 -715.379 2858.42 0 255 0
10.6758 -684.01 2857.01 0 255 0
-434.24 -537.907 2854.61 0 255 0
-689.406 -27.5715 2847.57 0 255 0
-668.853 116.296 2846.13 0 255 0
1398.8 -4230.18 2856.09 0 255 0
4461.03 -511.891 2818.76 0 255 0
4466.29 358.628 2815.02 0 255 0
-2039.19 -3875.5 2879.44 0 255 0
-530.023 -4361.97 2870.47 0 255 0
-2212.18 -3782.9 2880.36 0 255 0
3742.36 -2404.25 2831.45 0 255 0
4099.84 1739.9 2812.09 0 255 0
-2428.74 3742.96 2851.79 0 255 0
-4342.07 1043.86 2876.57 0 255 0
-1028.55 -4390.29 2874.34 0 255 0
-2669.46 -3612.48 2883.26 0 255 0
-945.062 4359.28 2838.06 0 255 0
-4368.58 771.331 2878.19 0 255 0
-4458.82 95.9472 2881.46 0 255 0
2154.8 -4004.28 2849.57 0 255 0
-252.374 4473.38 2832.14 0 255 0
-3657.59 2615.13 2864.76 0 255 0
-4519.01 -120.441 2882.35 0 255 0
-663.297 -4514.88 2872.54 0 255 0
4371.94 1080.15 2812.9 0 255 0
-306.676 -4433.16 2868.9 0 255 0
-1592.79 4084.96 2843.98 0 255 0
3110.04 3070.31 2814.54 0 255 0
4128.37 1404.15 2813.85 0 255 0
-2275.27 -3624.67 2879.36 0 255 0
-2475.16 -3480.67 2880.2 0 255 0
-4070.59 1198.58 2873.05 0 255 0
445.042 4222.68 2829.18 0 255 0
644.253 4198.14 2827.88 0 255 0
4163.26 716.594 2816.77 0 255 0
3257.1 -2640.88 2836.4 0 255 0
1525.58 -3886.74 2853.57 0 255 0
-2245.81 -3478.59 2878.45 0 255 0
-3965.37 -1127.61 2881.2 0 255 0
-3632.65 1913.47 2866.92 0 255 0
-2218.23 3456.69 2850.9 0 255 0
-2419.83 3316.78 2852.85 0 255 0
-1683.39 3747.15 2845.96 0 255 0
-4115.94 -67.1931 2878.09 0 255 0
-4098.57 324.17 2876.45 0 255 0
-4038.91 -770.052 2880.41 0 255 0
-3942.19 -1177.77 2881.33 0 255 0
45.3424 3.43638 2849.66 255 255 255
45.3421 3.43596 2849.58 255 255 255
45.3414 3.43626 2849.59 255 255 255
45.3421 3.43602 2849.67 255 255 255
45.3411 3.43571 2849.61 255 255 255
45.3422 3.43536 2849.62 255 255 255
45.3413 3.43653 2849.59 255 255 255
45.3412 3.43525 2849.6 255 255 255
45.3416 3.43589 2849.58 255 255 255
45.3412 3.43525 2849.6 255 255 255
45.3407 3.43573 2849.6 255 255 255
45.3413 3.43654 2849.59 255 255 255
45.342 3.43586 2849.58 255 255 255
45.3417 3.43651 2849.59 255 255 255
45.3406 3.43621 2849.6 255 255 255
45.3414 3.43627 2849.59 255 255 255
45.3416 3.43573 2849.6 255 255 255
45.3411 3.43571 2849.61 255 255 255
45.3418 3.43608 2849.58 255 255 255
45.3417 3.43525 2849.59 255 255 255
45.3419 3.43603 2849.57 255 255 255
45.3407 3.43572 2849.6 255 255 255
45.3421 3.43538 2849.61 255 255 255
45.3417 3.43651 2849.59 255 255 255
45.342 3.43668 2849.61 255 255 255
45.3406 3.43625 2849.6 255 255 255
45.3408 3.43529 2849.6 255 255 255
45.3449 3.43691 2850.03 255 255 255
45.3417 3.43524 2849.59 255 255 255
45.3409 3.43646 2849.6 255 255 255
498.217 201.777 59990 255 255 255
45.3416 3.43588 2849.58 255 255 255
45.3412 3.43609 2849.59 255 255 255
45.3418 3.43651 2849.61 255 255 255
45.3419 3.43578 2849.56 255 255 255
45.341 3.43628 2849.6 255 255 255
45.3408 3.43528 2849.6 255 255 255
45.3416 3.43574 2849.61 255 255 255
285.32 124.407 33851.9 255 255 255
45.3418 3.43556 2849.54 255 255 255
