ply
format ascii 1.0
element vertex 378
property float x
property float y
property float z
property uchar red
property uchar green
property uchar blue
end_header
-0.0591075 0.0160472 -0.0994138 0 255 0
-0.0594008 0.0157121 -0.0992358 0 255 0
-0.0598048 0.014644 -0.0999714 0 255 0
-0.0597161 0.0154029 -0.10068 0 255 0
-0.0597896 0.0151206 -0.100723 0 255 0
-0.0596936 0.0151911 -0.101222 0 255 0
-0.0594565 0.0155 -0.101699 0 255 0
-0.0590511 0.0160731 -0.102168 0 255 0
-0.0585646 0.0164348 -0.10233 0 255 0
-0.0590319 0.0161624 -0.102372 0 255 0
-0.0589292 0.0165823 -0.102632 0 255 0
-0.0588185 0.0163547 -0.102984 0 255 0
-0.0588446 0.0165584 -0.103379 0 255 0
-0.0589565 0.0165272 -0.103381 0 255 0
-0.0586917 0.0169633 -0.103734 0 255 0
-0.0591885 0.0170548 -0.103657 0 255 0
-0.0585218 0.0168958 -0.103898 0 255 0
-0.0589483 0.0173015 -0.103936 0 255 0
-0.0589472 0.0168517 -0.103803 0 255 0
-0.0584885 0.0168049 -0.104063 0 255 0
-0.0583069 0.0163227 -0.104307 0 255 0
-0.0581957 0.0161993 -0.104242 0 255 0
-0.0585938 0.0164359 -0.104007 0 255 0
-0.0580902 0.0167334 -0.104343 0 255 0
-0.0580817 0.0167123 -0.104144 0 255 0
-0.0582075 0.0161661 -0.103558 0 255 0
-0.0585181 0.0164659 -0.103619 0 255 0
-0.0584379 0.0167298 -0.103397 0 255 0
-0.0580802 0.0164468 -0.103229 0 255 0
-0.0586052 0.0163807 -0.102911 0 255 0
-0.0588496 0.0162212 -0.102495 0 255 0
-0.0590043 0.0160492 -0.102329 0 255 0
-0.0595472 0.0163553 -0.10216 0 255 0
-0.0593399 0.0160343 -0.102014 0 255 0
-0.0593163 0.0155966 -0.101846 0 255 0
-0.0596723 0.0160947 -0.101671 0 255 0
-0.0593421 0.0155371 -0.101282 0 255 0
-0.059828 0.0144676 -0.101282 0 255 0
-0.0599913 0.0145241 -0.101008 0 255 0
-0.0601346 0.0145604 -0.100939 0 255 0
-0.0597461 0.0145832 -0.101016 0 255 0
-0.0597588 0.014516 -0.100745 0 255 0
-0.060211 0.0141473 -0.10032 0 255 0
-0.0597891 0.0144521 -0.100615 0 255 0
-0.0604931 0.0145097 -0.100298 0 255 0
-0.0602025 0.0141547 -0.100584 0 255 0
-0.0604613 0.0140146 -0.100334 0 255 0
-0.0601129 0.0143125 -0.100716 0 255 0
-0.0601727 0.0138537 -0.100464 0 255 0
-0.060417 0.0141675 -0.10045 0 255 0
-0.0599366 0.0136524 -0.100478 0 255 0
-0.0604211 0.0142709 -0.100454 0 255 0
-0.0602494 0.0141609 -0.100452 0 255 0
-0.0603842 0.0141635 -0.100315 0 255 0
-0.0606382 0.0138271 -0.100135 0 255 0
-0.0605897 0.0136544 -0.10003 0 255 0
-0.0604435 0.0134902 -0.0999912 0 255 0
-0.0603247 0.0140519 -0.0998866 0 255 0
-0.060019 0.0138374 -0.099821 0 255 0
-0.0605413 0.0139848 -0.0996154 0 255 0
-0.0606688 0.0139633 -0.0995243 0 255 0
-0.060687 0.0138149 -0.0995679 0 255 0
-0.0607424 0.0139458 -0.0996223 0 255 0
-0.0611282 0.0141774 -0.0994584 0 255 0
-0.060711 0.0135982 -0.0995004 0 255 0
-0.0610252 0.0141486 -0.099448 0 255 0
-0.0611827 0.0138719 -0.0991962 0 255 0
-0.0614506 0.013707 -0.0991595 0 255 0
-0.0614264 0.0137207 -0.0993354 0 255 0
-0.061428 0.0136326 -0.0993128 0 255 0
-0.0613241 0.0137257 -0.0994714 0 255 0
-0.0614927 0.013775 -0.0993188 0 255 0
-0.0612719 0.0137099 -0.0993423 0 255 0
-0.0616618 0.0130271 -0.0993489 0 255 0
-0.0614734 0.0128689 -0.0991682 0 255 0
-0.0619771 0.0123223 -0.098427 0 255 0
-0.0618716 0.0118871 -0.0985585 0 255 0
-0.0617647 0.0119455 -0.0984908 0 255 0
-0.0619341 0.0118729 -0.0979923 0 255 0
-0.0621294 0.011468 -0.0972797 0 255 0
-0.0617687 0.0117024 -0.0971117 0 255 0
-0.0619531 0.0120143 -0.0965899 0 255 0
-0.0621895 0.0117934 -0.096149 0 255 0
-0.0622513 0.0114761 -0.0961687 0 255 0
-0.0622759 0.0124379 -0.0960903 0 255 0
-0.0625528 0.0122964 -0.0958075 0 255 0
-0.0632495 0.0110473 -0.0953354 0 255 0
-0.0628651 0.011258 -0.0955923 0 255 0
-0.0630503 0.0121972 -0.0952846 0 255 0
-0.063027 0.0116391 -0.0946919 0 255 0
-0.0628612 0.0113922 -0.0947679 0 255 0
-0.0630934 0.0118992 -0.0946475 0 255 0
-0.0632045 0.011887 -0.0945517 0 255 0
-0.0632196 0.0118649 -0.0944542 0 255 0
-0.0627707 0.0113828 -0.0946074 0 255 0
-0.0631036 0.0120238 -0.0946164 0 255 0
-0.0629704 0.0109347 -0.0946161 0 255 0
-0.0633008 0.0109176 -0.0945499 0 255 0
-0.0630781 0.0109015 -0.0948361 0 255 0
-0.0634146 0.0116445 -0.0943545 0 255 0
-0.0636064 0.0113213 -0.0939937 0 255 0
-0.0638577 0.0113306 -0.0940105 0 255 0
-0.0640628 0.0113893 -0.09382 0 255 0
-0.0639745 0.0105532 -0.0933355 0 255 0
0.304669 -0.206988 0.848826 255 255 255
0.260585 -0.213726 0.845607 255 255 255
0.29922 -0.180481 0.768957 255 255 255
0.329469 0.0413719 0.605568 255 255 255
0.699631 -0.143747 0.969901 255 255 255
0.486674 -0.0991825 0.692586 255 255 255
0.371904 -0.093146 0.672512 255 255 255
0.336668 0.0499318 0.624557 255 255 255
0.353446 -0.0931148 0.657578 255 255 255
0.456267 -0.108826 0.679678 255 255 255
0.442684 -0.0966805 0.667862 255 255 255
0.396858 0.0502579 0.718926 255 255 255
0.301583 -0.179616 0.826885 255 255 255
0.317121 -0.0969047 0.652768 255 255 255
0.336511 -0.0956953 0.670745 255 255 255
0.459561 -0.113176 0.67635 255 255 255
0.281068 -0.130891 0.690193 255 255 255
0.349098 -0.0966592 0.66268 255 255 255
0.258662 -0.243894 0.851107 255 255 255
0.487076 -0.0991198 0.720212 255 255 255
-0.153221 -0.227151 0.606018 255 255 255
0.25644 -0.168252 0.742891 255 255 255
0.310645 -0.103849 0.667773 255 255 255
0.338372 -0.0942459 0.661473 255 255 255
0.310327 -0.189154 0.783689 255 255 255
0.30914 -0.098147 0.654587 255 255 255
0.204338 0.0611864 0.516179 255 255 255
-0.00303534 -0.231256 0.630989 255 255 255
0.00811058 -0.236761 0.651597 255 255 255
0.0449734 -0.26079 0.692352 255 255 255
0.318255 -0.171787 0.771023 255 255 255
0.284676 -0.10356 0.6349 255 255 255
0.41211 -0.210998 0.8146 255 255 255
0.362322 -0.100378 0.6629 255 255 255
0.0448969 0.0915446 0.469886 255 255 255
-0.0725205 -0.224314 0.631232 255 255 255
0.0324735 0.0933635 0.471243 255 255 255
0.221279 0.0603869 0.527794 255 255 255
0.304833 -0.240377 0.929054 255 255 255
0.0789211 0.0862579 0.495427 255 255 255
-0.117152 0.115375 0.41793 255 255 255
0.247286 0.0545006 0.548592 255 255 255
0.0217649 -0.233988 0.632266 255 255 255
0.0438748 -0.224553 0.596005 255 255 255
0.379173 -0.0991543 0.669071 255 255 255
-0.143707 0.122086 0.406575 255 255 255
0.00934928 -0.255667 0.686746 255 255 255
-0.00518384 -0.255365 0.687103 255 255 255
0.0187268 -0.261123 0.712557 255 255 255
0.923024 -0.245129 1.23597 255 255 255
-0.0810634 0.112802 0.43355 255 255 255
-0.130765 0.122025 0.415951 255 255 255
-0.122311 0.120572 0.422318 255 255 255
-0.122364 -0.233836 0.626116 255 255 255
0.0703164 -0.257417 0.686767 255 255 255
-0.090347 -0.23673 0.623822 255 255 255
0.103046 0.0817468 0.492101 255 255 255
0.0710745 0.0859185 0.483758 255 255 255
0.0682631 -0.259791 0.654427 255 255 255
-0.0773499 -0.213274 0.593556 255 255 255
0.197368 0.0628622 0.514338 255 255 255
-0.0571601 -0.243297 0.678753 255 255 255
0.0296373 0.0970933 0.48883 255 255 255
0.0456238 -0.256263 0.642445 255 255 255
0.0369624 0.094944 0.468825 255 255 255
0.16553 -0.291181 0.690204 255 255 255
0.10703 0.0780014 0.490911 255 255 255
-0.110587 0.117808 0.421596 255 255 255
-0.00527294 0.0990499 0.454742 255 255 255
0.322157 -0.0348153 0.553174 255 255 255
0.0155086 0.101747 0.496142 255 255 255
0.337261 -0.0604197 0.614609 255 255 255
0.0646424 -0.262764 0.690133 255 255 255
-0.146695 0.123109 0.404921 255 255 255
0.257037 -0.536196 1.8591 255 255 255
0.428659 -0.0982843 0.66072 255 255 255
-0.157672 0.127612 0.408272 255 255 255
-0.0777681 -0.226321 0.665516 255 255 255
-0.0768413 0.111998 0.434367 255 255 255
-0.116128 0.120143 0.41934 255 255 255
-0.0939742 0.115406 0.430167 255 255 255
-0.0357433 -0.247245 0.689618 255 255 255
0.166253 0.0658641 0.511697 255 255 255
-0.0783472 0.117504 0.435249 255 255 255
-0.00741828 0.10264 0.454884 255 255 255
0.0844971 0.0986723 0.573636 255 255 255
-0.136825 0.120447 0.408734 255 255 255
0.239138 0.0584798 0.544895 255 255 255
-0.106305 0.118447 0.420799 255 255 255
0.324944 -0.106286 0.664898 255 255 255
0.0300545 -0.236788 0.64623 255 255 255
-0.0821448 -0.240157 0.64325 255 255 255
-0.148708 -0.205332 0.626088 255 255 255
0.0230645 0.10068 0.51271 255 255 255
-0.0930436 -0.219899 0.611363 255 255 255
-0.127226 0.120457 0.415249 255 255 255
0.118303 -0.275326 0.711836 255 255 255
0.0508481 -0.26113 0.677873 255 255 255
-0.0277038 -0.250389 0.667543 255 255 255
-0.0193519 -0.246636 0.656654 255 255 255
0.125268 0.0754398 0.502511 255 255 255
0.18896 0.0658423 0.514614 255 255 255
-0.103361 0.11435 0.423748 255 255 255
0.0335202 -0.267696 0.710802 255 255 255
-0.1632 0.129185 0.404302 255 255 255
0.0534361 -0.309236 1.03141 255 255 255
-0.0608719 -0.24893 0.710743 255 255 255
-0.0495948 0.109248 0.444782 255 255 255
0.0292979 0.0960357 0.459697 255 255 255
-0.17275 0.129647 0.401591 255 255 255
-0.139207 0.124788 0.411005 255 255 255
-0.0650862 0.107751 0.43684 255 255 255
-0.0956781 -0.230251 0.614393 255 255 255
0.087962 0.0821387 0.488061 255 255 255
0.266342 -0.0241093 0.517986 255 255 255
0.130749 -0.267813 0.685436 255 255 255
0.0411888 0.0922954 0.475819 255 255 255
0.456452 0.190554 0.646676 255 255 255
0.176077 -0.29339 0.715124 255 255 255
-0.0462392 -0.287064 0.900052 255 255 255
0.325457 -0.191209 0.804157 255 255 255
0.0807737 0.107696 0.620104 255 255 255
-0.177164 -0.234419 0.651109 255 255 255
0.159369 -0.292493 0.692591 255 255 255
-0.0713573 0.111072 0.437986 255 255 255
0.115435 0.0792314 0.497293 255 255 255
0.013376 -0.255575 0.65141 255 255 255
-0.0764293 0.0403835 0.354684 255 255 255
-0.0842445 0.109825 0.43303 255 255 255
-0.132751 0.118533 0.413841 255 255 255
-0.107054 -0.222265 0.619669 255 255 255
-0.123988 0.114775 0.423415 255 255 255
0.181387 0.0723327 0.526846 255 255 255
0.316253 -0.181207 0.789544 255 255 255
0.444776 0.216437 0.579079 255 255 255
0.211647 0.0597715 0.519317 255 255 255
0.0709253 -0.225748 0.624725 255 255 255
-0.0985152 0.0262304 0.554636 255 255 255
-0.00242995 -0.253907 0.669038 255 255 255
0.03407 -0.216126 0.603823 255 255 255
0.094246 0.0840229 0.492616 255 255 255
-0.0250085 0.101285 0.448581 255 255 255
0.122942 -0.277322 0.686622 255 255 255
-0.179531 -0.213162 0.608986 255 255 255
-0.0311798 0.104236 0.446829 255 255 255
0.337577 -0.105561 0.67097 255 255 255
-0.0166887 0.106177 0.452436 255 255 255
0.476205 -0.105224 0.707883 255 255 255
-0.0784339 0.0282691 0.280557 255 255 255
0.0383482 -0.258929 0.653869 255 255 255
-0.0913152 -0.214337 0.640761 255 255 255
-0.150579 0.121885 0.405362 255 255 255
0.149897 0.123446 0.525326 255 255 255
0.0299149 -0.226079 0.656396 255 255 255
0.13404 -0.283443 0.697141 255 255 255
-0.0679696 -0.225625 0.62115 255 255 255
-0.153061 0.123937 0.401784 255 255 255
0.450927 0.218511 0.634013 255 255 255
0.37227 -0.248174 0.945134 255 255 255
-0.0354297 -0.245592 0.654653 255 255 255
-0.124694 0.117157 0.417226 255 255 255
0.0890704 0.102234 0.574229 255 255 255
-0.0983269 0.116327 0.430422 255 255 255
0.393636 -0.100582 0.652665 255 255 255
-0.127986 -0.0824335 0.636674 255 255 255
0.105265 -0.274902 0.686175 255 255 255
-0.135912 -0.100515 0.618286 255 255 255
0.192377 0.0617821 0.515127 255 255 255
-0.0694195 -0.216844 0.688879 255 255 255
0.194991 0.0565706 0.512102 255 255 255
0.25497 0.0512596 0.554914 255 255 255
-0.197354 -0.200494 0.619979 255 255 255
-0.0867646 0.113884 0.42885 255 255 255
0.022308 0.0958453 0.466774 255 255 255
0.0410607 -0.25188 0.703314 255 255 255
0.203547 -0.212702 0.768412 255 255 255
0.0678039 -0.245561 0.69217 255 255 255
0.134629 0.0773531 0.505742 255 255 255
0.0894251 -0.267991 0.671563 255 255 255
-0.147438 0.11877 0.404969 255 255 255
-0.00118332 -0.24158 0.614132 255 255 255
-0.0732343 -0.237736 0.621937 255 255 255
-0.0522731 -0.192608 0.54569 255 255 255
-0.210533 -0.207335 0.608743 255 255 255
-0.0417052 -0.245413 0.713802 255 255 255
-0.231305 -0.198186 0.585834 255 255 255
-0.0160271 0.101502 0.453511 255 255 255
-0.112139 0.00581887 0.591553 255 255 255
-0.0934523 0.157657 1.56451 255 255 255
-0.176503 0.129946 0.39869 255 255 255
0.0220735 -0.233947 0.67936 255 255 255
0.0243429 -0.232393 0.646852 255 255 255
-0.0625896 -0.19392 0.621253 255 255 255
-0.0928458 0.109543 0.431982 255 255 255
-0.0240627 -0.241656 0.654507 255 255 255
-0.15666 -0.233965 0.641845 255 255 255
-0.140666 0.117508 0.416347 255 255 255
0.0811103 0.0858016 0.484561 255 255 255
-0.2432 -0.22888 0.685767 255 255 255
-0.0473295 -0.227395 0.732272 255 255 255
-0.195296 -0.20765 0.590072 255 255 255
0.00957905 -0.230365 0.658339 255 255 255
-0.1837 0.131326 0.397166 255 255 255
0.0268027 -0.249564 0.630342 255 255 255
-0.0594151 0.11321 0.443968 255 255 255
-0.112422 -0.233103 0.62134 255 255 255
-0.0737247 0.0491367 0.411865 255 255 255
-0.152398 -0.219351 0.63561 255 255 255
-0.0664685 -0.207774 0.590807 255 255 255
0.0206858 -0.252408 0.639992 255 255 255
0.158914 0.123535 0.533241 255 255 255
-0.133188 0.122871 0.411235 255 255 255
-0.133465 -0.0810814 0.61719 255 255 255
-0.160058 0.124059 0.40816 255 255 255
-0.0612365 0.0834437 0.475022 255 255 255
-0.0580772 0.0879025 0.464946 255 255 255
-0.0111462 -0.284359 0.811062 255 255 255
0.116503 -0.253787 0.688018 255 255 255
-0.162979 0.12536 0.40611 255 255 255
1.09151 -3.21104 12.3803 255 255 255
-0.132498 -0.178743 0.597614 255 255 255
-0.021744 -0.250582 0.641938 255 255 255
0.183353 0.117485 0.535222 255 255 255
-0.03908 -0.236083 0.608336 255 255 255
-0.109379 0.112196 0.424898 255 255 255
-0.157352 -0.219381 0.588414 255 255 255
-0.118206 -0.21524 0.614141 255 255 255
0.150824 0.0704985 0.51424 255 255 255
0.0659848 0.170639 0.617608 255 255 255
-0.105887 -0.157278 0.583147 255 255 255
0.101453 -0.267712 0.681358 255 255 255
-0.120349 -0.236861 0.611655 255 255 255
-0.0717354 -0.177272 0.567762 255 255 255
-0.131566 -0.197192 0.588569 255 255 255
0.106636 -0.254956 0.680762 255 255 255
-0.00651165 -0.222007 0.698416 255 255 255
-0.140536 0.13003 0.417028 255 255 255
0.00614089 0.0952771 0.459995 255 255 255
0.369853 0.272394 0.526386 255 255 255
-0.143881 0.118784 0.408781 255 255 255
-0.0801867 -0.212933 0.611107 255 255 255
-0.130856 -0.219335 0.579175 255 255 255
0.078199 -0.254034 0.657363 255 255 255
-0.120385 0.113529 0.422665 255 255 255
-0.100524 -0.143074 0.658526 255 255 255
-0.0117308 -0.240976 0.615614 255 255 255
0.100533 -0.281506 0.747065 255 255 255
-0.0729777 0.116246 0.434992 255 255 255
-0.0688137 -0.302559 0.913827 255 255 255
-0.197444 0.135565 0.39629 255 255 255
-0.052414 0.0997948 0.447201 255 255 255
-0.0673803 0.0753083 0.494397 255 255 255
-0.135751 0.127747 0.413549 255 255 255
-0.0353431 -0.25678 0.771986 255 255 255
-0.143338 0.126617 0.411705 255 255 255
0.005 -0.252251 0.661653 255 255 255
-0.215085 -0.199826 0.596928 255 255 255
-0.271437 -0.19147 0.575723 255 255 255
-0.203406 0.136255 0.391301 255 255 255
-0.0314748 -0.245085 0.668854 255 255 255
-0.0569945 0.108932 0.440976 255 255 255
-0.0583412 -0.232799 0.605261 255 255 255
-0.216078 0.138254 0.387023 255 255 255
-0.210868 -0.208655 0.637288 255 255 255
0.0509854 -0.251556 0.6993 255 255 255
-0.189609 0.133095 0.395475 255 255 255
0.143663 0.0781115 0.509575 255 255 255
-0.0773615 -0.271029 0.832117 255 255 255
-0.208567 0.138208 0.387274 255 255 255
0.10166 -0.26323 0.748813 255 255 255
-0.118933 -0.122298 0.701106 255 255 255
-0.100067 0.124698 0.432081 255 255 255
-0.184875 -0.229836 0.608842 255 255 255
-0.111603 -0.145946 0.657644 255 255 255
