ply
format ascii 1.0
element vertex 164
property float x
property float y
property float z
property uchar red
property uchar green
property uchar blue
end_header
0.550392 -0.212274 -0.76539 0 255 0
0.552112 -0.213189 -0.764792 0 255 0
0.552604 -0.215861 -0.764566 0 255 0
0.553918 -0.217024 -0.764168 0 255 0
0.554601 -0.216768 -0.764049 0 255 0
0.555447 -0.216615 -0.763778 0 255 0
0.554691 -0.217981 -0.764097 0 255 0
0.553595 -0.218492 -0.764141 0 255 0
0.553856 -0.218817 -0.764139 0 255 0
0.556328 -0.217995 -0.76344 0 255 0
0.559104 -0.216589 -0.76279 0 255 0
0.55911 -0.215749 -0.762886 0 255 0
0.557538 -0.212809 -0.763472 0 255 0
0.556619 -0.213617 -0.763655 0 255 0
0.556356 -0.214583 -0.763648 0 255 0
0.555413 -0.218945 -0.763916 0 255 0
0.556859 -0.214524 -0.763572 0 255 0
0.557519 -0.214044 -0.763408 0 255 0
0.55993 -0.210507 -0.762723 0 255 0
0.564831 -0.208913 -0.761422 0 255 0
0.0256049 0.0591349 -0.797188 0 255 0
0.0255841 0.0590881 -0.797048 0 255 0
0.0255537 0.0591323 -0.796933 0 255 0
0.0336841 0.0826292 -0.886181 0 255 0
0.0338778 0.082957 -0.886308 0 255 0
-0.0445862 0.0740979 -0.19471 0 255 0
-0.0445494 0.0741144 -0.194737 0 255 0
-0.04455 0.0741141 -0.194746 0 255 0
-0.0445249 0.0742227 -0.194763 0 255 0
-0.0445068 0.0741407 -0.194626 0 255 0
-0.0445199 0.0741239 -0.194622 0 255 0
-0.0445201 0.0740964 -0.194632 0 255 0
-0.0444634 0.0740285 -0.194597 0 255 0
-0.0444719 0.0740164 -0.194578 0 255 0
-0.0444848 0.0739823 -0.194571 0 255 0
-0.0445388 0.0739491 -0.194504 0 255 0
-0.04448 0.0738648 -0.194449 0 255 0
-0.0444493 0.0738332 -0.194458 0 255 0
-0.0444049 0.073876 -0.194463 0 255 0
-0.0443921 0.0738123 -0.194429 0 255 0
-0.0443903 0.0737807 -0.194417 0 255 0
-0.0444141 0.0737324 -0.194417 0 255 0
-0.0444473 0.0737637 -0.194451 0 255 0
-0.044528 0.0737318 -0.194448 0 255 0
-0.0237586 0.075067 -0.388735 0 255 0
-0.0445869 0.073249 -0.19429 0 255 0
-0.044677 0.0729193 -0.194277 0 255 0
-0.0447517 0.0731622 -0.194323 0 255 0
-0.0447229 0.0729908 -0.194302 0 255 0
-0.0449105 0.0735776 -0.194413 0 255 0
-0.0447113 0.0730818 -0.194328 0 255 0
-0.0446166 0.0727278 -0.194261 0 255 0
-0.0448642 0.0737586 -0.194423 0 255 0
-0.0450602 0.0744469 -0.194477 0 255 0
-0.0446918 0.0734296 -0.194389 0 255 0
-0.0447604 0.0736962 -0.194404 0 255 0
-0.0443511 0.0721613 -0.194113 0 255 0
-0.0447339 0.0735307 -0.194301 0 255 0
-0.0447905 0.0736507 -0.194357 0 255 0
-0.0447681 0.0735962 -0.194374 0 255 0
-0.0447927 0.073724 -0.194361 0 255 0
-0.0444854 0.0724946 -0.194206 0 255 0
-0.0445564 0.0730737 -0.19431 0 255 0
-0.0445202 0.0726492 -0.194205 0 255 0
-0.0445961 0.0729408 -0.194234 0 255 0
-0.0449624 0.0737289 -0.194293 0 255 0
-0.0446958 0.0727213 -0.194155 0 255 0
-0.044665 0.0725282 -0.194088 0 255 0
-0.0446105 0.0723957 -0.19408 0 255 0
-0.0431255 0.0695113 -0.193801 0 255 0
-0.0655235 0.115808 -0.0438303 255 255 255
-0.0248548 0.0914532 -0.0860168 255 255 255
-0.0818661 -0.0178924 0.00707759 255 255 255
97.7532 10.5961 -598.451 255 255 255
-0.0549711 0.106246 -0.0586494 255 255 255
0.0179281 0.0743785 -0.0369305 255 255 255
67.6797 83.7353 -648.047 255 255 255
-249.172 8.63799 1198.96 255 255 255
69.8448 -4.84652 -411.634 255 255 255
-0.0528376 0.0888084 -0.120461 255 255 255
-0.0226429 0.0676155 -0.227108 255 255 255
-0.149567 0.177724 0.151792 255 255 255
-88.7704 54.3535 1685.62 255 255 255
0.00301313 0.0898614 -0.503532 255 255 255
-0.0551254 0.0810885 -0.159535 255 255 255
-0.0561612 0.0610037 -0.240272 255 255 255
91.4864 -93.1097 -760.692 255 255 255
12.7041 3.52436 -120.016 255 255 255
-85.7802 56.3375 654.198 255 255 255
-0.0231157 0.112565 -0.424195 255 255 255
-0.0496989 0.0826965 -0.137163 255 255 255
-0.0816564 0.0524283 -0.290888 255 255 255
-129.298 53.4254 1424.35 255 255 255
0.0352412 0.0640409 -0.770625 255 255 255
-0.00206351 0.0181975 -0.284719 255 255 255
-106.499 0.336536 660.269 255 255 255
-0.0354885 0.0559439 -0.475217 255 255 255
-189.728 265.41 2324.37 255 255 255
-0.0428158 0.0675811 -0.193218 255 255 255
34.0361 0.67193 -265.664 255 255 255
-0.0431273 0.0682529 -0.190757 255 255 255
-0.0149122 0.090163 -0.455443 255 255 255
-0.0439444 0.0673842 -0.226721 255 255 255
-0.0604066 0.0861915 -0.0952863 255 255 255
54.392 -1.37885 -332.904 255 255 255
-0.0426079 0.0675716 -0.193586 255 255 255
-0.0789593 0.0877468 -0.0388537 255 255 255
-0.0605192 0.0844062 -0.126036 255 255 255
217.535 -163.631 -1211.72 255 255 255
-0.0443528 0.0886592 -0.261735 255 255 255
-0.0282287 0.0950381 -0.289448 255 255 255
-0.00253235 0.0843424 -0.310189 255 255 255
-228.057 -72.3035 1197.55 255 255 255
-174.118 -11.1231 850.886 255 255 255
-0.0535195 0.0640544 -0.443184 255 255 255
-0.0404002 0.0748136 -0.218706 255 255 255
-0.0428027 0.067573 -0.193257 255 255 255
-0.0199892 0.0407484 -0.271121 255 255 255
-0.0379232 0.045389 -0.320084 255 255 255
126.731 -5.80891 -756.78 255 255 255
0.00113573 0.0919504 -0.501871 255 255 255
-0.00697158 0.0776458 -0.450048 255 255 255
-0.104616 0.0968466 0.152618 255 255 255
275.048 -19.1671 -1509.76 255 255 255
-0.200128 0.0536128 0.645066 255 255 255
-0.0277587 0.0750984 -0.328355 255 255 255
-0.031262 0.0782631 -0.428504 255 255 255
-0.0428024 0.0675732 -0.19326 255 255 255
252.231 121.865 -2982.86 255 255 255
-62.7356 -19.5311 632.058 255 255 255
-0.0428024 0.0675732 -0.19326 255 255 255
-172 -180.343 1194.24 255 255 255
-0.0428024 0.0675732 -0.19326 255 255 255
-0.0428024 0.0675732 -0.19326 255 255 255
-158.268 -11.8011 868.819 255 255 255
-0.0398649 0.0610893 -0.297238 255 255 255
-32.7721 10.8836 781.698 255 255 255
23.4759 -6.35569 -198.151 255 255 255
61.1217 20.0942 -833.916 255 255 255
113.027 42.2601 -663.244 255 255 255
191.272 -52.8223 -2164.14 255 255 255
-0.175733 0.0504276 0.451154 255 255 255
-68.4536 139.06 961.734 255 255 255
-58.0548 -21.5609 294.547 255 255 255
288.947 25.5037 -2543.43 255 255 255
-55.5972 19.563 1041.35 255 255 255
-0.0428024 0.0675732 -0.19326 255 255 255
-100.05 -72.916 770.68 255 255 255
-49.8356 4.46387 316.862 255 255 255
103.998 -106.641 -864.958 255 255 255
129.95 -32.0014 -672.403 255 255 255
0.00410833 0.0775384 -0.679346 255 255 255
-0.0428024 0.0675732 -0.19326 255 255 255
61.0862 16.0058 -356.938 255 255 255
-82.0573 12.4424 423.056 255 255 255
78.6694 -26.6882 -635.989 255 255 255
58.2095 -107.751 -857.826 255 255 255
65.0035 -10.6687 -585.005 255 255 255
-163.225 -75.7867 1083.15 255 255 255
-0.042822 0.0676846 -0.193685 255 255 255
0.00182243 0.0617543 -0.60933 255 255 255
0.03466 0.0630863 -0.813153 255 255 255
-183.112 102.126 948.739 255 255 255
-0.050126 -0.0135791 0.506861 255 255 255
