ply
format ascii 1.0
element vertex 377
property float x
property float y
property float z
property uchar red
property uchar green
property uchar blue
end_header
-20.1849 43.8953 -178.464 0 255 0
-30.6509 46.577 -174.092 0 255 0
-27.1183 40.1878 -170.655 0 255 0
-28.007 42.4768 -172.028 0 255 0
-16.2041 34.7703 -172.514 0 255 0
-27.0803 40.2393 -170.335 0 255 0
-27.7907 40.2466 -173.039 0 255 0
-24.7304 39.5047 -173.475 0 255 0
-29.1874 42.4579 -170.937 0 255 0
-14.5408 41.7559 -168.107 0 255 0
-27.6862 40.3586 -167.857 0 255 0
-16.5909 39.3403 -169.784 0 255 0
-23.4174 44.3614 -176.165 0 255 0
-16.3579 41.0394 -174.652 0 255 0
-27.4971 40.1059 -166.458 0 255 0
-16.3194 40.1698 -170.439 0 255 0
-25.1685 39.2293 -173.454 0 255 0
-28.8426 48.4429 -174.397 0 255 0
-21.2568 41.7297 -177.127 0 255 0
-18.4756 43.9654 -181.447 0 255 0
-16.9393 42.3445 -177.328 0 255 0
-20.8711 42.5889 -177.597 0 255 0
-13.3741 39.4365 -182.785 0 255 0
-27.0574 40.5854 -166.621 0 255 0
-15.6761 41.6819 -170.423 0 255 0
-16.103 35.2928 -172.022 0 255 0
-27.922 41.8926 -169.511 0 255 0
-21.8641 42.5067 -177.72 0 255 0
-25.8754 39.8573 -173.153 0 255 0
-17.4032 43.1885 -182.252 0 255 0
-22.6092 42.8872 -174.799 0 255 0
-16.2854 42.1689 -170.078 0 255 0
-13.5249 40.3302 -183.713 0 255 0
-29.0601 41.5233 -168.556 0 255 0
-27.6823 40.9016 -166.755 0 255 0
-25.3779 39.1004 -173.13 0 255 0
-27.9664 42.4382 -171.289 0 255 0
-21.328 42.7121 -177.74 0 255 0
-21.7728 44.4488 -176.546 0 255 0
-16.8378 41.94 -176.177 0 255 0
-22.6995 43.887 -177.807 0 255 0
-12.684 38.3147 -181.352 0 255 0
-17.721 42.6684 -178.091 0 255 0
-30.4767 47.8077 -174.676 0 255 0
-14.0792 35.3766 -176.551 0 255 0
-29.8497 45.4367 -173.461 0 255 0
-18.0822 43.569 -182.511 0 255 0
-27.9571 41.3065 -167.356 0 255 0
-12.531 41.6578 -185.207 0 255 0
-27.7817 41.4739 -167.688 0 255 0
-23.9381 39.8642 -173.143 0 255 0
-23.5769 42.7254 -173.517 0 255 0
-16.1792 42.3726 -169.762 0 255 0
-22.0647 44.2586 -177.032 0 255 0
-11.1567 43.2465 -188.211 0 255 0
-16.9 36.1738 -169.837 0 255 0
-18.1468 42.5838 -181.616 0 255 0
-12.7053 41.7012 -185.697 0 255 0
-27.8056 41.2405 -167.831 0 255 0
-16.567 41.3179 -176.461 0 255 0
-28.7159 51.2353 -174.954 0 255 0
-20.6449 44.7691 -180.219 0 255 0
-21.0221 44.9389 -179.892 0 255 0
-25.3454 39.1006 -172.96 0 255 0
-15.5398 35.3539 -177.612 0 255 0
-29.8735 50.1865 -174.805 0 255 0
-16.6957 41.798 -181.56 0 255 0
-16.4305 34.5724 -170.825 0 255 0
-25.7361 39.2708 -173.253 0 255 0
-13.3074 39.1715 -182.622 0 255 0
-26.7083 40.1915 -166.824 0 255 0
-26.9014 39.7322 -166.321 0 255 0
-28.0279 41.5937 -170.151 0 255 0
-29.5125 43.1368 -172.056 0 255 0
-22.3456 42.4207 -174.217 0 255 0
-22.1921 42.9179 -177.583 0 255 0
-24.352 38.7476 -173.367 0 255 0
-25.4065 39.3899 -173.409 0 255 0
-15.7614 40.474 -174.014 0 255 0
-30.2637 44.0426 -173.277 0 255 0
-16.821 42.3264 -180.326 0 255 0
-26.9078 39.7728 -169.031 0 255 0
-14.0289 34.3715 -173.326 0 255 0
-21.8854 42.3041 -177.661 0 255 0
-22.4678 43.3785 -174.672 0 255 0
-20.7107 42.7632 -178.068 0 255 0
-26.4903 39.4584 -168.467 0 255 0
-21.4302 42.925 -178.014 0 255 0
-26.3972 41.4221 -171.384 0 255 0
-23.3014 40.4677 -173.607 0 255 0
-21.4204 41.7541 -176.796 0 255 0
-27.1001 39.9158 -171.697 0 255 0
-29.8247 43.8647 -172.823 0 255 0
-10.9381 42.0374 -186.372 0 255 0
-20.7788 42.347 -177.344 0 255 0
-24.0603 38.8518 -172.835 0 255 0
-14.9684 42.1383 -168.847 0 255 0
-14.0588 41.0762 -169.563 0 255 0
-17.0143 42.3852 -178.03 0 255 0
-20.6889 40.9361 -176.488 0 255 0
166.468 167.442 865.592 255 255 255
195.224 271.232 942.395 255 255 255
-147.178 70.5538 874.621 255 255 255
-136.482 72.171 855.783 255 255 255
143.259 296.62 941.225 255 255 255
164.568 175.167 859.005 255 255 255
67.4706 199.984 971.967 255 255 255
147.622 382.934 1110.4 255 255 255
203.685 285.946 942.719 255 255 255
196.247 231.644 936.043 255 255 255
-201.753 72.2215 897.94 255 255 255
-119.779 150.595 779.394 255 255 255
126.375 250.968 972.59 255 255 255
-137.173 166.946 784.853 255 255 255
208.744 271.39 957.413 255 255 255
80.2647 228.612 942.737 255 255 255
158.035 384.984 1104.27 255 255 255
151.154 249.95 893.225 255 255 255
33.8797 257.961 937.45 255 255 255
-242.938 80.422 917.463 255 255 255
90.2211 222.644 938.426 255 255 255
92.9695 205.495 984.649 255 255 255
-161.849 68.7677 878.552 255 255 255
56.6398 221.116 945.864 255 255 255
-188.792 80.0013 886.007 255 255 255
83.9115 213.862 950.093 255 255 255
-266.838 85.365 932.63 255 255 255
-139.398 174.583 782.915 255 255 255
-223.316 78.6456 904.064 255 255 255
-161.751 80.1043 875.804 255 255 255
-107.387 60.3898 830.543 255 255 255
191.941 221.953 934.481 255 255 255
-278.714 96.643 948.905 255 255 255
150.914 203.151 873.093 255 255 255
-174.902 93.9189 903.691 255 255 255
241.197 399.551 1134.71 255 255 255
-180.203 67.3388 888.676 255 255 255
87.1727 253.516 961.109 255 255 255
56.3691 265.695 1003.79 255 255 255
122.976 313.948 945.219 255 255 255
-143.475 132.223 814.026 255 255 255
-171.557 65.3844 889.962 255 255 255
198.487 256.102 960.118 255 255 255
43.9979 191.842 944.256 255 255 255
225.01 285.319 934.079 255 255 255
237.614 295.908 920.705 255 255 255
178.198 298.273 905.617 255 255 255
9.77269 304.172 954.072 255 255 255
245.444 387.722 1099.56 255 255 255
-132.686 160.715 789.469 255 255 255
202.507 298.432 948.207 255 255 255
-59.1276 264.491 945.247 255 255 255
173.302 273.759 880.988 255 255 255
146.889 258.182 868.946 255 255 255
56.5972 206.723 951.341 255 255 255
23.8187 187.656 931.889 255 255 255
-357.535 229.024 1051.3 255 255 255
-57.3245 129.248 843.167 255 255 255
180.552 251.816 906.159 255 255 255
64.8302 255.643 979.089 255 255 255
206.91 265.369 968.9 255 255 255
-158.728 258.225 990.822 255 255 255
-272.346 126.156 975.83 255 255 255
21.5245 305.72 963.262 255 255 255
198.651 216.139 968.097 255 255 255
-23.5872 335.915 1065.92 255 255 255
67.3719 316.175 936.896 255 255 255
246.677 391.111 1081.82 255 255 255
-145.983 281.21 1029.51 255 255 255
121.799 223.475 951.971 255 255 255
-195.854 65.9242 905.589 255 255 255
332.036 402.245 1072.63 255 255 255
105.016 305.638 941.05 255 255 255
165.736 237.211 851.302 255 255 255
-284.477 108.343 965.243 255 255 255
221.758 391.863 1106.38 255 255 255
-107.156 38.0503 860.758 255 255 255
234.617 312.254 949.877 255 255 255
329.433 389.217 1087.17 255 255 255
-121.381 291.026 1063.21 255 255 255
-196.25 255.706 999.032 255 255 255
-41.1567 147.01 868.982 255 255 255
37.8065 297.649 940.827 255 255 255
203.29 245.999 945.318 255 255 255
269.613 398.679 1078.47 255 255 255
295.352 393.361 1056.47 255 255 255
217.897 280.546 947.116 255 255 255
-179.059 85.8817 869.722 255 255 255
149.757 302.591 890.832 255 255 255
-32.1834 156.385 876.177 255 255 255
-165.389 191.432 812.028 255 255 255
192.037 301.557 946.34 255 255 255
-208.888 148.601 975.39 255 255 255
-253.957 134.228 972.308 255 255 255
-258.621 86.4198 939.003 255 255 255
-124.325 173.361 791.921 255 255 255
-110.374 173.795 836.412 255 255 255
320.843 400.547 1069.72 255 255 255
264.642 396.592 1093.25 255 255 255
32.1724 278.9 954.618 255 255 255
231.043 290.103 925.031 255 255 255
108.771 381.78 1120.82 255 255 255
-231.406 145.072 980.424 255 255 255
369.919 393.474 1085.77 255 255 255
380.922 420.866 1126.45 255 255 255
-161.715 244.579 977.021 255 255 255
176.928 382.692 1121.67 255 255 255
-178.825 138.47 862.147 255 255 255
257.626 387.724 1091.9 255 255 255
301.747 386.884 1087 255 255 255
-126.554 192.797 799.784 255 255 255
325.413 389.622 1090.4 255 255 255
-112.928 68.5455 829.545 255 255 255
153.278 269.553 1067.1 255 255 255
-261.456 131.456 977.183 255 255 255
-48.3837 142.629 869.443 255 255 255
-386.937 172.319 1093.3 255 255 255
314.928 389.158 1092.05 255 255 255
149.209 278.163 937.449 255 255 255
-74.9243 260.015 952.557 255 255 255
-151.807 175.281 807.054 255 255 255
162.278 150.652 871.413 255 255 255
58.312 391.357 1149.76 255 255 255
-171.864 130.097 863.597 255 255 255
204.315 212.416 999.696 255 255 255
135.142 281.714 933.668 255 255 255
99.256 202.38 938.342 255 255 255
-119.199 186.035 806.507 255 255 255
122.111 381.514 1124.07 255 255 255
-398.858 197.626 1089.89 255 255 255
6.80366 327.051 993.095 255 255 255
131.768 216.956 987.698 255 255 255
-137.161 130.29 823.343 255 255 255
-5.84217 433.24 1114.53 255 255 255
-83.2724 328.667 1049.61 255 255 255
60.5465 304.137 940.052 255 255 255
313.124 399.752 1077.2 255 255 255
-112.441 178.919 820.758 255 255 255
-84.433 259.279 954.214 255 255 255
176.55 231.36 897.457 255 255 255
-188.478 156.253 964.688 255 255 255
177.797 261.647 897.265 255 255 255
-112.662 310.249 1095.76 255 255 255
35.2669 269.095 947.528 255 255 255
154.555 183.319 850.1 255 255 255
147.67 289.274 879.614 255 255 255
47.2818 217.22 945.33 255 255 255
197.694 143.32 951.802 255 255 255
88.6598 287.017 932.238 255 255 255
-106.838 157.053 826.777 255 255 255
-163.526 181.516 807.1 255 255 255
101.877 285.18 932.675 255 255 255
-111.044 291.233 1052.23 255 255 255
-128.779 133.22 815.334 255 255 255
-44.8745 104.317 853.173 255 255 255
-67.1169 89.0693 843.528 255 255 255
218.439 299.332 957.701 255 255 255
-92.5485 192.748 906.69 255 255 255
-52.7564 488.542 1071.96 255 255 255
-278.602 116.685 978.917 255 255 255
-123.81 84.1749 832.719 255 255 255
-131.136 118.409 822.074 255 255 255
-355.427 180.852 1053.49 255 255 255
110.45 298.179 933.457 255 255 255
-147.325 138.718 815.185 255 255 255
-216.7 76.0117 915.51 255 255 255
178.413 223.824 903.259 255 255 255
276.235 405.142 1075.63 255 255 255
52.9744 173.139 986.411 255 255 255
-158.012 136.189 825.714 255 255 255
-152.874 159.753 816.167 255 255 255
-237.576 86.2252 933.879 255 255 255
-160.985 196.951 813.897 255 255 255
-313.755 174.244 1027.69 255 255 255
115.093 256.229 970.3 255 255 255
87.8743 297.555 934.838 255 255 255
-121.415 76.1258 843.86 255 255 255
-97.6589 307.278 975.075 255 255 255
-157.49 222.053 911.883 255 255 255
171.709 151.168 877.779 255 255 255
-227.412 139.915 993.689 255 255 255
-24.0377 163.269 881.153 255 255 255
96.4979 295.198 932.932 255 255 255
30.1235 246.734 919.675 255 255 255
-189.773 263.705 989.814 255 255 255
-260.703 93.6701 920.457 255 255 255
164.25 250.006 857.633 255 255 255
-213.625 140.544 968.113 255 255 255
-112.362 136.719 817.173 255 255 255
-347.155 198.365 1029.18 255 255 255
21.2767 316.198 961.703 255 255 255
-131.312 178.143 790.696 255 255 255
18.1784 371.365 1067.06 255 255 255
-358.117 171.254 1065.14 255 255 255
225.227 306.419 960.649 255 255 255
-221.764 253.956 1011.48 255 255 255
127.478 291.376 934.664 255 255 255
140.921 219.405 948.695 255 255 255
-50.8816 121.979 846.799 255 255 255
22.7689 158.29 963.147 255 255 255
152.211 210.77 847.727 255 255 255
-156.427 281.211 1014.28 255 255 255
-32.5505 147.048 869.684 255 255 255
171.264 203.19 872.363 255 255 255
-59.4636 93.4018 847.779 255 255 255
-183.866 268.448 990.509 255 255 255
81.2111 247.346 960.132 255 255 255
420.563 388.853 1072.6 255 255 255
-76.1941 81.7891 842.92 255 255 255
-88.5248 73.4292 835.499 255 255 255
-322.326 168.525 1036.07 255 255 255
132.939 374.437 1115.08 255 255 255
-137.454 99.3352 835.857 255 255 255
-145.719 110.283 823.103 255 255 255
118.168 291.709 929.105 255 255 255
-125.29 126.424 825.76 255 255 255
-148.927 149.971 828.267 255 255 255
-317.161 194.079 1023.25 255 255 255
76.2702 298.234 927.222 255 255 255
-276.159 123.015 950.531 255 255 255
-177.162 275.152 992.686 255 255 255
-1.80607 424.636 1112.67 255 255 255
90.9952 369.485 1096.85 255 255 255
-103.953 107.061 837.218 255 255 255
-70.0097 138.529 862.82 255 255 255
115.922 232.149 947.674 255 255 255
-53.1485 98.038 848.435 255 255 255
170.684 188.317 875.716 255 255 255
-316.121 265.95 1082.01 255 255 255
-122.292 100.343 842.223 255 255 255
46.137 241.3 947.866 255 255 255
77.4703 254.007 966.328 255 255 255
-71.2281 481.32 1071.36 255 255 255
130.621 313.386 936.796 255 255 255
-101.853 214.18 941.526 255 255 255
-370.38 169.06 1079.11 255 255 255
-172.495 272.562 1009.44 255 255 255
83.9655 321.648 958.489 255 255 255
-116.353 130.17 820.784 255 255 255
23.1049 170.288 947.546 255 255 255
-73.7218 271.478 956.586 255 255 255
-33.2316 167.062 879.021 255 255 255
-350.578 191.758 1044.27 255 255 255
43.6976 250.356 949.241 255 255 255
108.757 312.283 932.794 255 255 255
155.476 200.416 850.566 255 255 255
-112.776 102.957 854.465 255 255 255
99.8582 209.553 929.743 255 255 255
-315.742 215.069 1013.54 255 255 255
-36.7416 355.826 1058.59 255 255 255
-42.5025 96.0223 854.712 255 255 255
54.6651 240.283 943.985 255 255 255
331.215 380.123 1094.81 255 255 255
35.3256 318.987 1072.37 255 255 255
162.422 210.478 857.875 255 255 255
34.3237 188.738 928.229 255 255 255
53.44 181.69 984.838 255 255 255
-76.9288 477.491 1119.51 255 255 255
246.245 323.191 960.619 255 255 255
44.0448 204.04 955.38 255 255 255
-351.173 167.028 1081.82 255 255 255
-77.5138 116.583 861.958 255 255 255
93.9719 314.823 941.194 255 255 255
233.921 289.483 923.896 255 255 255
219.366 284.155 950.145 255 255 255
-331.722 152.881 1060.17 255 255 255
33.9399 161.268 957.52 255 255 255
-39.6763 127.866 905.757 255 255 255
2.6259 436.351 1106.89 255 255 255
-97.9523 62.3665 832.335 255 255 255
229.856 291.046 928.946 255 255 255
-153.122 90.3937 868.254 255 255 255
72.5384 229.834 948.984 255 255 255
-97.3846 182.717 929.645 255 255 255
-40.75 409.757 1113.57 255 255 255
-322.816 205.301 1033.02 255 255 255
148.082 307.309 942.903 255 255 255
