ply
format ascii 1.0
element vertex 839
property float x
property float y
property float z
property uchar red
property uchar green
property uchar blue
end_header
34.4674 51.3955 -148.627 0 255 0
30.721 52.1411 -143.154 0 255 0
32.6816 51.6476 -144.824 0 255 0
30.9098 52.1666 -145.316 0 255 0
34.5151 51.8271 -149.543 0 255 0
34.2024 52.2748 -147.373 0 255 0
29.6437 52.2721 -143.117 0 255 0
30.5292 51.629 -144.399 0 255 0
34.0643 52.1133 -149.816 0 255 0
35.6466 51.7264 -149.643 0 255 0
34.308 51.7204 -150.303 0 255 0
34.5729 51.8459 -148.862 0 255 0
29.6131 52.5481 -142.95 0 255 0
34.7898 50.7197 -149.923 0 255 0
35.2019 51.7034 -150.022 0 255 0
36.009 51.9843 -147.173 0 255 0
29.2495 52.3648 -143.898 0 255 0
30.3347 51.7913 -144.362 0 255 0
29.9603 51.4176 -144.264 0 255 0
34.916 53.4138 -152.506 0 255 0
34.4295 51.8952 -149.359 0 255 0
35.5318 52.2372 -148.975 0 255 0
33.9288 52.723 -149.792 0 255 0
33.1923 52.0793 -150.566 0 255 0
32.5612 51.715 -145.931 0 255 0
35.3497 52.1015 -153.105 0 255 0
35.1524 51.2057 -149.873 0 255 0
34.9689 52.3265 -149.269 0 255 0
30.2235 51.7317 -144.832 0 255 0
29.8412 52.5065 -145.56 0 255 0
30.8656 52.2767 -145.112 0 255 0
33.9199 52.0886 -150.67 0 255 0
34.6511 51.8263 -148.861 0 255 0
29.7838 51.6711 -144.373 0 255 0
32.2048 51.9683 -144.553 0 255 0
33.6814 51.5628 -146.577 0 255 0
26.9718 51.6126 -141.157 0 255 0
29.3837 52.0091 -144.225 0 255 0
29.939 52.1013 -144.311 0 255 0
29.5332 52.8403 -143.109 0 255 0
33.7322 51.4391 -151.893 0 255 0
33.7415 52.2524 -150.352 0 255 0
30.0885 52.2893 -142.418 0 255 0
36.2172 51.3134 -152.685 0 255 0
35.6873 50.4637 -150.82 0 255 0
31.2748 52.3562 -144.642 0 255 0
30.852 51.974 -146.383 0 255 0
30.6187 51.8092 -144.582 0 255 0
33.2854 52.673 -148.836 0 255 0
29.2539 52.295 -142.993 0 255 0
31.2365 52.5308 -144.667 0 255 0
34.0209 51.1175 -146.635 0 255 0
29.8883 52.6811 -145.75 0 255 0
34.4253 52.581 -149.359 0 255 0
27.8591 52.2253 -142.435 0 255 0
35.5642 51.9128 -152.796 0 255 0
27.8607 52.4126 -143.542 0 255 0
31.9797 51.702 -146.502 0 255 0
36.2729 51.6644 -148.538 0 255 0
33.6989 52.4585 -147.437 0 255 0
36.4489 51.6639 -149.054 0 255 0
36.069 52.3519 -152.059 0 255 0
35.3329 51.4746 -150.67 0 255 0
29.0907 52.5949 -143.583 0 255 0
33.0587 51.5059 -146.738 0 255 0
34.593 51.9806 -149.434 0 255 0
34.7726 52.1751 -147.515 0 255 0
34.9969 51.9599 -149.937 0 255 0
34.2279 52.2684 -149.842 0 255 0
34.9968 51.9957 -146.412 0 255 0
34.1899 51.738 -147.149 0 255 0
35.1811 51.9153 -148.248 0 255 0
34.5379 51.9523 -150.807 0 255 0
34.2213 51.3072 -147.702 0 255 0
35.1099 52.0257 -146.769 0 255 0
32.8947 52.6621 -150.297 0 255 0
34.268 51.903 -149.503 0 255 0
29.3383 52.4483 -143.646 0 255 0
29.7428 52.4002 -144.132 0 255 0
33.086 52.5829 -150.059 0 255 0
35.577 52.2808 -152.921 0 255 0
-87.7271 -156.157 1341.67 255 255 255
126.787 46.1052 877.456 255 255 255
132.224 51.338 859.097 255 255 255
-46.7971 -281.061 1512.43 255 255 255
-86.4128 -179.483 1382.7 255 255 255
-17.3988 -272.496 1506.34 255 255 255
-32.4163 -278.264 1510.43 255 255 255
-415.351 16.0896 905.98 255 255 255
-133.745 -200.92 1452.8 255 255 255
-54.0082 -181.432 1381.96 255 255 255
-304.753 315.271 827.849 255 255 255
-11.6019 61.4141 863.256 255 255 255
-467.572 -20.5606 1004.88 255 255 255
122.432 -3.56029 1019.46 255 255 255
186.956 51.0249 857.281 255 255 255
-243.324 348.139 763.036 255 255 255
-343.97 207.033 789.278 255 255 255
144.156 17.1563 962.337 255 255 255
-154.487 -230.738 1495.88 255 255 255
-155.282 -284.003 1563.32 255 255 255
197.58 53.3657 846.645 255 255 255
-3.31062 -265.903 1499.1 255 255 255
-240.781 304.189 831.017 255 255 255
346.149 -44.9823 1028.14 255 255 255
-276.186 311.359 848.006 255 255 255
7.17835 93.8374 752.199 255 255 255
34.1671 -154.374 1340.41 255 255 255
-9.75545 46.4282 881.258 255 255 255
144.693 104.748 739.194 255 255 255
113.872 11.2408 1002.93 255 255 255
-165.685 -151.698 1339.86 255 255 255
94.5675 50.4892 869.754 255 255 255
-846.665 -312.398 1294.13 255 255 255
173.667 -128.092 1226.68 255 255 255
339.581 58.8271 844.94 255 255 255
120.115 -66.8583 1183.89 255 255 255
106.555 51.9511 890.146 255 255 255
-141.831 208.841 933.43 255 255 255
-365.026 190.297 834.657 255 255 255
-260.856 337.372 660.206 255 255 255
-119.475 -192.348 1427.97 255 255 255
-355.022 298.8 506.17 255 255 255
217.794 -103.97 1152.7 255 255 255
-413.553 -512.674 1754.72 255 255 255
352.322 148.197 531.003 255 255 255
-35.9977 -174.93 1373.18 255 255 255
-1135.38 -521.227 1741.89 255 255 255
-46.8808 -247.496 1475.71 255 255 255
-409.734 -512.517 1711.25 255 255 255
203.974 -83.9031 1139.54 255 255 255
87.4474 42.8504 882.195 255 255 255
22.5688 113.923 724.704 255 255 255
140.865 26.6782 953.583 255 255 255
313.335 -125.516 1167.9 255 255 255
-306.526 304.443 824.675 255 255 255
-155.169 -246.326 1508.27 255 255 255
9.88022 -267.066 1517.22 255 255 255
-71.2252 -282.539 1536.56 255 255 255
-562.596 -424.981 1657.71 255 255 255
-311.235 311.302 779.073 255 255 255
-0.0307725 -151.246 1333.69 255 255 255
45.9727 65.5906 822.895 255 255 255
-187.078 -140.358 1359.59 255 255 255
79.1802 -213.007 1504.21 255 255 255
-305.664 333.665 745.668 255 255 255
349.775 50.0783 865.594 255 255 255
-22.6986 -161.627 1355.78 255 255 255
343.297 202.006 587.344 255 255 255
-233.081 299.607 840.975 255 255 255
-177.362 -147.594 1354.76 255 255 255
-274.061 338.287 692.6 255 255 255
-270.573 296.374 883.078 255 255 255
59.2317 -212.687 1539.99 255 255 255
-75.5184 276.975 787.323 255 255 255
124.117 -45.5159 1167.09 255 255 255
-4.34445 -300.096 1574.41 255 255 255
-346.13 217.003 796.65 255 255 255
-250.277 313.022 843.404 255 255 255
178.15 -27.221 993.942 255 255 255
-288.026 309.081 864.356 255 255 255
167.566 -32.1052 1045.33 255 255 255
152.699 24.3374 917.964 255 255 255
-101.238 -187.909 1422.11 255 255 255
273.443 24.807 907.141 255 255 255
-311.045 328.484 726.376 255 255 255
175.29 -10.1826 968.955 255 255 255
47.7817 -76.0622 1221.68 255 255 255
-346.6 299.701 850.631 255 255 255
-437.406 -582.296 1684.07 255 255 255
-558.139 -17.2058 965.443 255 255 255
199.535 86.9034 789.724 255 255 255
-294.868 301.148 839.891 255 255 255
118.93 -78.569 1193.31 255 255 255
-428.501 -615.386 1712.19 255 255 255
31.1345 113.696 726 255 255 255
166.607 -9.37907 967.385 255 255 255
-83.8445 273.599 821.57 255 255 255
158.666 -60.6391 1141.41 255 255 255
-477.447 -557.044 1833.39 255 255 255
326.239 -138.426 1175.76 255 255 255
-76.5351 -244.598 1478.37 255 255 255
235.592 -109.244 1138.92 255 255 255
-347.783 220.726 852.732 255 255 255
-65.1885 289.649 768.178 255 255 255
-855.267 -392.645 1590.23 255 255 255
135.896 12.3149 969.618 255 255 255
-23.0243 -179.448 1381.41 255 255 255
131.594 -89.5212 1206.53 255 255 255
209.039 -93.6025 1142.58 255 255 255
191.015 -24.2983 976.056 255 255 255
-252.107 278.597 896.687 255 255 255
-361.203 208.348 872.178 255 255 255
-17.4283 -303.934 1570.65 255 255 255
0.834379 -174.118 1394.04 255 255 255
317.839 -38.7946 1019.83 255 255 255
343.492 -118.28 1115.32 255 255 255
-279.836 300.682 871.7 255 255 255
-809.316 -482.725 1640.28 255 255 255
-444.518 -620.343 1718.46 255 255 255
-328.075 314.769 848.772 255 255 255
362.211 66.7001 801.627 255 255 255
157.006 3.23854 958.883 255 255 255
-297.983 329.064 759.924 255 255 255
-74.9824 -343.039 1573.13 255 255 255
-343.654 297.929 814.546 255 255 255
-370.292 200.697 851.466 255 255 255
388.151 88.2839 753.634 255 255 255
89.0606 -56.9147 1181.59 255 255 255
-283.141 324.821 782.699 255 255 255
-67.6224 294.295 761.061 255 255 255
21.7864 -119.126 1295.08 255 255 255
452.111 3.6392 822.865 255 255 255
152.908 -51.0504 1139.83 255 255 255
178.319 7.05705 954.446 255 255 255
-659.843 -490.896 1751.13 255 255 255
-14.4397 -250.495 1480.19 255 255 255
85.0119 -75.5603 1201.06 255 255 255
-309.472 302.547 854.677 255 255 255
42.7183 -143.355 1308.67 255 255 255
-36.2783 -148.434 1336.11 255 255 255
-159.758 338.104 750.934 255 255 255
142.783 -72.6978 1171.79 255 255 255
-330.288 318.163 780.124 255 255 255
271.981 41.2418 875.61 255 255 255
182.932 -133.76 1223.68 255 255 255
-251.478 326.504 808.528 255 255 255
-479.555 -419.062 1696.64 255 255 255
-718.934 -142.188 1265.63 255 255 255
-205.618 340.595 844.946 255 255 255
375.717 33.4697 903.519 255 255 255
-243.189 339.017 753.399 255 255 255
131.766 -50.9793 1159 255 255 255
-282.493 318.043 809.167 255 255 255
-150.827 345.295 778.513 255 255 255
-343.862 303.799 837.92 255 255 255
123.007 12.4957 998.389 255 255 255
-308.42 345.52 714.47 255 255 255
-292.292 314.462 806.973 255 255 255
-815.45 -470.965 1661.47 255 255 255
217.354 16.162 923.233 255 255 255
-1086.74 -512.43 1759.78 255 255 255
358.979 -68.4093 1057.62 255 255 255
32.9187 64.94 824.367 255 255 255
411.816 12.6909 886.651 255 255 255
405.25 16.3523 924.059 255 255 255
167.672 13.2346 943.103 255 255 255
286.872 -44.3347 1019.01 255 255 255
214.4 -41.6375 975.288 255 255 255
209.442 -64.1152 1111.28 255 255 255
164.821 -111.072 1198.89 255 255 255
386.514 80.2644 766.909 255 255 255
378.381 72.7886 788.158 255 255 255
103.758 88.2936 748.981 255 255 255
-494.961 -554.21 1867.38 255 255 255
-133.543 -265.689 1538.54 255 255 255
41.9375 -88.4266 1249.57 255 255 255
180.977 -111.085 1192.49 255 255 255
-141.189 343.123 746.627 255 255 255
259.29 46.6486 870.819 255 255 255
-277.867 327.203 798.915 255 255 255
-458.564 -649.89 1733.9 255 255 255
9.28144 -145.577 1341.57 255 255 255
177.085 -1.36791 938.941 255 255 255
184.537 -32.5796 993.041 255 255 255
-471.612 -635.95 1723.02 255 255 255
205.157 -160.207 1244.28 255 255 255
150.756 10.1166 971.239 255 255 255
-311.601 338.777 732.542 255 255 255
-10.8928 -94.9848 1251.75 255 255 255
-320.138 324.593 775.894 255 255 255
352.987 207.932 598.371 255 255 255
-229.18 320.224 871.602 255 255 255
18.6195 -162.12 1366.79 255 255 255
250.218 31.2647 893.729 255 255 255
137.681 -42.8349 1156.58 255 255 255
-61.8895 -304.955 1549.09 255 255 255
-311.09 331.742 765.154 255 255 255
18.8004 64.0214 832.462 255 255 255
22.8616 -263.632 1525.55 255 255 255
132.924 -71.7819 1182.77 255 255 255
157.521 -39.4135 1133.44 255 255 255
65.7339 -64.3618 1188.22 255 255 255
-86.8241 -258.585 1505.38 255 255 255
-490.146 -42.7235 1056.09 255 255 255
-835.055 -534.003 1615.85 255 255 255
201.352 -48.5762 999.136 255 255 255
-57.6474 -353.803 1594.36 255 255 255
-429.083 -598.541 1712.05 255 255 255
279.683 -50.3777 1049.77 255 255 255
2.8732 -251.772 1496.38 255 255 255
288.993 -63.2183 1058.42 255 255 255
-602.683 -464.299 1729.67 255 255 255
204.597 -176.793 1243.36 255 255 255
-360.462 278.002 860.035 255 255 255
381.049 222.963 650.623 255 255 255
209.233 -48.8244 993.793 255 255 255
271.016 5.03297 919.644 255 255 255
-833.626 -211.252 1454.45 255 255 255
-150.074 355.834 679.597 255 255 255
-419.92 -539.874 1732.06 255 255 255
146.54 -45.9683 1151.65 255 255 255
242.28 29.2219 900.633 255 255 255
31.1979 -129.907 1291.75 255 255 255
-305.438 339.349 734.687 255 255 255
-926.796 -506.773 1708.89 255 255 255
-221.731 326.462 807.519 255 255 255
-6.45972 71.4344 820.275 255 255 255
392.552 93.3881 751.062 255 255 255
-691.057 -466.356 1710.39 255 255 255
-736.649 -149.724 1270.63 255 255 255
329.466 -107.991 1121.48 255 255 255
-833.734 -284.691 1522.66 255 255 255
161.962 -127.44 1237.45 255 255 255
-295.76 335.617 650.236 255 255 255
429.911 6.54511 844.622 255 255 255
-302.473 338.755 684.36 255 255 255
-480.649 -518.265 1704.03 255 255 255
146.44 -173.995 1280.69 255 255 255
24.8371 107.244 729.119 255 255 255
219.467 -19.4262 958.948 255 255 255
127.385 4.70916 995.792 255 255 255
-163.536 260.472 923.987 255 255 255
-314.198 323.129 780.666 255 255 255
271.412 -73.837 1083.89 255 255 255
385.535 25.0488 925.681 255 255 255
460.317 12.4529 814.154 255 255 255
-284.568 341.983 756.124 255 255 255
195.712 -172.875 1266.44 255 255 255
-490.019 -555.86 1777.43 255 255 255
103.68 -63.1667 1173.89 255 255 255
189.462 -149.36 1232.56 255 255 255
401.991 103.009 739.219 255 255 255
-315.481 304.864 788.57 255 255 255
-277.703 330.199 779.383 255 255 255
-70.783 -259.448 1499.16 255 255 255
-210.691 351.726 812.289 255 255 255
-107.647 -114.851 1272.38 255 255 255
-200.677 346.48 839.653 255 255 255
462.814 2.61329 813.674 255 255 255
-258.824 317.868 842.944 255 255 255
22.1776 -105.375 1266.96 255 255 255
86.8619 -186.005 1334.87 255 255 255
4.63964 87.2232 769.662 255 255 255
256.205 -64.0837 1067.1 255 255 255
-11.126 -173.881 1358.56 255 255 255
104.336 100.11 740.112 255 255 255
-491.162 -521.635 1761.23 255 255 255
-699.755 -491.185 1721.14 255 255 255
-119.744 367.123 849.27 255 255 255
150.396 -9.37453 983.948 255 255 255
-292.624 325.327 814.392 255 255 255
55.8896 -87.1649 1237.74 255 255 255
218.259 -52.6336 994.003 255 255 255
353.585 -44.1746 1014.58 255 255 255
41.3824 46.1169 883.987 255 255 255
157.406 -17.9601 999.282 255 255 255
358.392 -82.425 1059.93 255 255 255
-335.822 312.814 792.975 255 255 255
402.572 16.5954 954.394 255 255 255
360.489 40.335 882.157 255 255 255
-892.515 -486.231 1698.28 255 255 255
271.182 -143.208 1185.32 255 255 255
186.949 -3.99477 940.949 255 255 255
156.379 -165.587 1280.68 255 255 255
103.316 -51.3775 1167.99 255 255 255
-107.199 -268.189 1535.25 255 255 255
-288.657 342.575 710.317 255 255 255
350.044 -59.9082 1049.15 255 255 255
-266.472 -263.035 1662.9 255 255 255
226.15 18.822 919.053 255 255 255
-241.905 321.305 799.993 255 255 255
-93.6292 -132.358 1278.71 255 255 255
52.7527 -263.105 1585.91 255 255 255
-506.826 -28.0087 1070.97 255 255 255
-212.782 337.265 850.377 255 255 255
76.7158 -63.8552 1205.34 255 255 255
-39.9296 -366.691 1605.58 255 255 255
65.0016 -102.171 1238.1 255 255 255
-969.076 -328.991 1521.29 255 255 255
-334.321 307.139 833.497 255 255 255
317.66 -7.05299 937.286 255 255 255
341.65 -137.057 1150.99 255 255 255
254.808 -80.9678 1085.8 255 255 255
-608.928 -471.58 1711.87 255 255 255
-150.139 353.399 702.492 255 255 255
95.9556 -73.5613 1201.87 255 255 255
338.603 -118.895 1137.12 255 255 255
187.425 -101.38 1172.74 255 255 255
-751.115 -163.165 1316.63 255 255 255
-84.9398 329.453 754.551 255 255 255
147.071 -91.4428 1192.48 255 255 255
-142.714 -305.03 1569.42 255 255 255
-303.646 318.218 807.021 255 255 255
382.738 69.125 784.378 255 255 255
208.808 88.5887 798.83 255 255 255
-171.571 -125.796 1329.65 255 255 255
-355.418 227.502 839.828 255 255 255
-120.825 346.061 706.466 255 255 255
-554.23 -460.23 1697.8 255 255 255
-865.074 -270.396 1517.62 255 255 255
-339.057 243.711 785.712 255 255 255
337.041 -53.2242 1042.51 255 255 255
289.52 24.9225 902.367 255 255 255
-26.0982 -141.916 1327.31 255 255 255
-152.718 -150.577 1332.64 255 255 255
-233.95 323.722 855.699 255 255 255
238.437 -58.5433 1042.72 255 255 255
246.121 42.8685 872.785 255 255 255
-89.3944 -342.123 1585.99 255 255 255
-780.769 -163.388 1300.86 255 255 255
-274.467 339.73 709.569 255 255 255
-531.64 -449.761 1693.49 255 255 255
-24.2285 -365.927 1595.42 255 255 255
-114.623 -243.798 1485.27 255 255 255
-523.166 -214.344 1441.83 255 255 255
364.724 -65.7835 1045.65 255 255 255
347.234 65.1336 813.163 255 255 255
2.39883 -84.6572 1237.8 255 255 255
193.042 -32.2279 968.174 255 255 255
-342.526 238.448 828.956 255 255 255
-858.869 -510.824 1643.01 255 255 255
-62.2984 -243.923 1494.21 255 255 255
240.402 -83.397 1095.83 255 255 255
223.522 -41.3523 975.837 255 255 255
-514.22 -741.744 1834.39 255 255 255
310.252 -72.5185 1080.48 255 255 255
-338.873 306.983 801.43 255 255 255
193.887 1.85941 937.358 255 255 255
164.94 -193.349 1288.29 255 255 255
-109.915 308.637 806.281 255 255 255
294.459 -109.167 1146.55 255 255 255
-141.802 337.886 719.664 255 255 255
-286.743 334.911 649.591 255 255 255
-943.537 -284.542 1447.35 255 255 255
318.765 233.317 576.015 255 255 255
-276.225 -286.317 1688.12 255 255 255
296.761 -43.3866 1024.94 255 255 255
210.595 11.1435 931.319 255 255 255
253.586 36.7709 881.423 255 255 255
56.8814 -231.573 1566.99 255 255 255
-234.949 329.455 809.855 255 255 255
176.366 -184.149 1276.7 255 255 255
154.841 -97.5121 1186.44 255 255 255
134.257 -107.893 1214.03 255 255 255
14.8291 -239.15 1466.36 255 255 255
-801.459 -402.792 1624.58 255 255 255
288.117 -4.16371 928.353 255 255 255
-953.703 -508.193 1710.29 255 255 255
-87.6817 334.124 749.463 255 255 255
-285.709 340.266 783.357 255 255 255
432.144 36.3084 793.994 255 255 255
354.574 64.3933 814.151 255 255 255
134.863 -176.103 1283.99 255 255 255
-466.676 -553.063 1866.34 255 255 255
304.257 -13.7177 941.807 255 255 255
-211.228 357.974 807.396 255 255 255
72.8881 -121.284 1244.2 255 255 255
-98.2547 380.683 803.349 255 255 255
-88.2263 386.961 773.607 255 255 255
-482.618 -600.632 1755.4 255 255 255
344.165 -80.2724 1072.71 255 255 255
-641.497 -408.022 1642.44 255 255 255
386.666 40.3142 837.663 255 255 255
220.34 228.269 592.231 255 255 255
-107.501 -334.665 1591.09 255 255 255
261.418 -45.629 1016.81 255 255 255
-926.934 -285.061 1449.6 255 255 255
-235.581 325.809 825.068 255 255 255
379.036 -59.0641 1037.08 255 255 255
-835.881 -301.892 1514.48 255 255 255
-360.013 -400.536 1642.63 255 255 255
-148.609 264.033 907.215 255 255 255
232.677 29.5412 905.331 255 255 255
-81.4689 -273.919 1513.11 255 255 255
-122.12 300.36 849.616 255 255 255
-128.381 -325.362 1602.23 255 255 255
140.774 3.69442 929.337 255 255 255
231.296 -13.3548 950.685 255 255 255
-83.8892 386.809 783.93 255 255 255
306.138 -135.727 1189.9 255 255 255
341.792 -20.1153 987.144 255 255 255
231.46 81.0902 804.386 255 255 255
-201.162 337.286 855.354 255 255 255
199.627 -47.0251 1066.14 255 255 255
177.073 -84.8202 1153.55 255 255 255
278.222 -66.7879 1072.9 255 255 255
300.353 13.1284 931.354 255 255 255
282.823 34.6782 867.445 255 255 255
299.116 -90.7699 1102.19 255 255 255
-204.105 346.9 815.603 255 255 255
-923.762 -293.088 1470.67 255 255 255
-343.798 227.096 839.129 255 255 255
331.048 -132.37 1145.66 255 255 255
-128.279 218.225 945.363 255 255 255
147.128 -186.241 1281.39 255 255 255
59.4522 65.9781 821.87 255 255 255
231.761 -98.0138 1123.42 255 255 255
49.8132 -241.07 1554.11 255 255 255
-826.165 -397.641 1603.16 255 255 255
225.006 -136.56 1189.3 255 255 255
76.0944 106.934 754.577 255 255 255
431.852 41.2054 779.764 255 255 255
396.144 88.2198 744.717 255 255 255
-464.833 -204.024 1403.45 255 255 255
-951.833 -303.58 1455.34 255 255 255
-438.782 -428.433 1731.89 255 255 255
155.937 -178.207 1274.49 255 255 255
108.451 -94.1163 1221.49 255 255 255
41.7524 109.227 727.117 255 255 255
-144.696 271.458 909.85 255 255 255
229.096 253.749 584.651 255 255 255
238.072 -9.06053 938.636 255 255 255
-967.933 -545.964 1758.95 255 255 255
21.8553 -80.7864 1230.77 255 255 255
120.165 40.477 884.652 255 255 255
-809.007 -484.361 1675.9 255 255 255
-87.5357 262.785 841.359 255 255 255
415.719 117.185 716.991 255 255 255
78.7283 64.069 821.372 255 255 255
-358.481 205.538 824.177 255 255 255
223.536 84.4731 801.612 255 255 255
266.378 15.1122 917.705 255 255 255
-4.99756 -363.238 1616.66 255 255 255
162.786 -154.775 1255.04 255 255 255
-491.842 -413.908 1680.94 255 255 255
-752.705 -406.649 1622.42 255 255 255
410.099 46.9178 779.407 255 255 255
364.297 -49.9202 1015.5 255 255 255
-780.337 -483.169 1661.84 255 255 255
323.205 -73.8546 1085.84 255 255 255
-260.442 279.528 892.964 255 255 255
-250.733 321.562 835.208 255 255 255
359.392 61.5608 808.996 255 255 255
-553.948 -439.881 1711.99 255 255 255
59.1058 89.3385 760.296 255 255 255
359.364 193.061 651.804 255 255 255
-259.503 321.345 817.085 255 255 255
4.14529 -118.067 1294.67 255 255 255
-247.491 336.633 800.631 255 255 255
368.766 59.6601 802.696 255 255 255
190.434 -67.8089 1126.04 255 255 255
-597.928 -484.05 1755.54 255 255 255
317.167 -104.048 1121.33 255 255 255
431.357 34.2698 811.904 255 255 255
335.747 -77.0518 1073.2 255 255 255
-496.174 -472.803 1687.19 255 255 255
381.883 78.1087 774.088 255 255 255
74.8091 -140.996 1264.17 255 255 255
-820.308 -503.464 1567.76 255 255 255
-340.474 232.002 786.335 255 255 255
276.148 -2.05442 915.979 255 255 255
-301.698 342.181 822.922 255 255 255
73.8102 -79.193 1207.86 255 255 255
-614.987 -453.662 1759.34 255 255 255
235.938 20.6542 921.489 255 255 255
-625.643 -482.479 1710.11 255 255 255
339.734 -30.8601 1010.59 255 255 255
161.082 -81.3262 1165.61 255 255 255
-65.5321 -327.502 1576.52 255 255 255
-767.639 -169.249 1321.57 255 255 255
-337.988 308.401 821.561 255 255 255
155.35 -110.652 1212.3 255 255 255
38.2371 -108.649 1277.72 255 255 255
-349.523 245.842 832.472 255 255 255
-298.024 305.642 769.099 255 255 255
331.514 -82.6546 1091.33 255 255 255
-271.279 348.338 788.671 255 255 255
184.85 3.95984 948.332 255 255 255
-73.3441 311.875 762.311 255 255 255
109.415 92.6854 744.79 255 255 255
-512.964 -476.915 1695.95 255 255 255
438.345 9.99601 831.094 255 255 255
-266.619 316.393 837.155 255 255 255
18.6061 -338.281 1585.02 255 255 255
182.784 -45.7963 1125.92 255 255 255
191.218 -52.2593 1124.32 255 255 255
278.674 -108.189 1145.6 255 255 255
221.585 -92.7618 1130.25 255 255 255
184.316 -175.836 1279.05 255 255 255
-747.964 -442.278 1664.04 255 255 255
250.983 2.35613 915.362 255 255 255
-213.488 341.914 812.73 255 255 255
156.265 11.9683 947.617 255 255 255
-236.089 339.855 777.907 255 255 255
-996.03 -471.333 1706.41 255 255 255
-446.213 90.4104 1153.42 255 255 255
-275.616 347.1 743.132 255 255 255
-93.0237 314.694 778.475 255 255 255
-539.256 -611.356 1912.3 255 255 255
-465.157 -425.331 1687.73 255 255 255
26.1793 -319.01 1568.97 255 255 255
-573.22 -420.649 1697.05 255 255 255
401.921 53.5044 784.701 255 255 255
245.018 -5.47658 932.468 255 255 255
-108.868 324.055 796.634 255 255 255
36.4318 223.035 637.754 255 255 255
-220.929 332.241 835.053 255 255 255
-949.825 -491.59 1712.24 255 255 255
236.75 -139.51 1173.51 255 255 255
-1028.96 -792.157 1873.58 255 255 255
-216.943 279.003 977.74 255 255 255
-349.125 337.26 687.074 255 255 255
250.706 -123.898 1141.37 255 255 255
-314.172 320.117 690.682 255 255 255
41.6053 -131.063 1297.3 255 255 255
222.461 -158.44 1259.96 255 255 255
8.95654 -357.051 1613.8 255 255 255
-856.138 -238.731 1406.23 255 255 255
-182.517 339.04 739.436 255 255 255
-119.534 -161.281 1365.24 255 255 255
-318.05 337.349 726.562 255 255 255
430.81 47.1776 784.977 255 255 255
250.159 -70.3065 1079.97 255 255 255
247.205 -97.964 1108.17 255 255 255
37.5087 105.41 740.796 255 255 255
39.8005 -267.73 1567.77 255 255 255
417.848 109.608 729.995 255 255 255
217.651 252.545 582.489 255 255 255
-370.917 335.582 667.672 255 255 255
-70.2312 301.616 756.076 255 255 255
-304.107 320.694 774.051 255 255 255
230.281 -0.0922301 929.318 255 255 255
203.533 307.957 563.646 255 255 255
404.583 2.37178 979.886 255 255 255
150.801 -134.445 1238.04 255 255 255
371.175 64.3663 793.032 255 255 255
-73.6563 285.497 789.018 255 255 255
-166.048 252.998 941.507 255 255 255
237.517 4.40601 933.576 255 255 255
-207.431 -248.313 1503.72 255 255 255
385.328 61.6278 788.401 255 255 255
447.003 6.844 831.162 255 255 255
-529.797 -680.397 1839.42 255 255 255
384.989 132.229 705.912 255 255 255
102.342 -120.745 1239.46 255 255 255
-215.013 333.613 809.547 255 255 255
366.04 -78.3395 1054.08 255 255 255
374.542 19.2418 919.404 255 255 255
120.729 98.8501 743.995 255 255 255
168.795 0.407664 953.302 255 255 255
433.662 21.0354 818.739 255 255 255
147.164 -151.609 1246.91 255 255 255
-279.223 316.202 817.739 255 255 255
214.413 226.667 593.155 255 255 255
-247.423 285.632 895.19 255 255 255
378.71 229.101 664.951 255 255 255
-318.359 340.03 674.759 255 255 255
-352.262 336.034 705.821 255 255 255
417.154 46.8199 780.181 255 255 255
-518.978 -407.861 1639.92 255 255 255
233.005 -73.6977 1090.17 255 255 255
-481.424 -519.859 1859.42 255 255 255
-519.471 -25.4749 983.297 255 255 255
-307.424 331.641 635.621 255 255 255
224.788 -107.661 1132.64 255 255 255
-502.099 -17.9927 996.715 255 255 255
148.565 -122.255 1240.01 255 255 255
-114.692 306.527 824.634 255 255 255
-0.185752 -99.636 1273 255 255 255
-755.055 -155.993 1280.49 255 255 255
-779.791 -478.849 1690.13 255 255 255
221.793 -81.3172 1107.13 255 255 255
260.596 1.19084 920.938 255 255 255
-973.735 -469.595 1701.27 255 255 255
-490.489 -440.399 1650.7 255 255 255
353.623 -85.5665 1076.19 255 255 255
192.023 -119.296 1192.15 255 255 255
-296.259 342.747 705.771 255 255 255
272.838 -86.2738 1100.27 255 255 255
-13.6779 -145.503 1343.63 255 255 255
-908.697 -479.23 1702.54 255 255 255
311.727 -108.732 1149.15 255 255 255
-336.754 314.801 813.558 255 255 255
35.3386 248.069 644.69 255 255 255
-799.706 -419.033 1650.71 255 255 255
47.5584 104.721 736.658 255 255 255
389.285 121.916 709.091 255 255 255
145.642 -106.963 1235.78 255 255 255
-362.032 326.735 667.877 255 255 255
-36.1731 -304.431 1555.99 255 255 255
265.106 53.0491 864.59 255 255 255
-104.809 -84.4443 1254.52 255 255 255
-977.941 -395.714 1580.5 255 255 255
-298.541 343.544 648.46 255 255 255
-435.56 84.4718 1188.98 255 255 255
-285.231 230.368 1109.85 255 255 255
-345.753 231.509 826.483 255 255 255
-117.055 325.691 798.534 255 255 255
435.359 38.9869 773.69 255 255 255
-295.628 363.221 835.537 255 255 255
477.501 -11.0789 827.771 255 255 255
-373.506 324.128 661.862 255 255 255
366.01 85.6984 587.08 255 255 255
-305.287 343.138 815.211 255 255 255
-208.096 333.076 883.475 255 255 255
-140.554 280.151 909.188 255 255 255
431.999 46.5569 768.581 255 255 255
-641.999 -430.36 1680.29 255 255 255
-295.77 305.268 873.653 255 255 255
357.341 -56.1619 1036.28 255 255 255
-16.2949 -83.1924 1247.88 255 255 255
54.0972 103.773 731.509 255 255 255
346.106 202.473 639.027 255 255 255
-89.3348 278.836 822.931 255 255 255
-166.89 338.361 742.641 255 255 255
-289.073 345.239 643.126 255 255 255
-256.654 343.204 791.583 255 255 255
175.508 -145.217 1223.09 255 255 255
-146.078 330.188 711.86 255 255 255
82.2338 -131.616 1244.65 255 255 255
-53.4325 288.105 770.439 255 255 255
199.574 -112.524 1174.93 255 255 255
-335.437 162.472 1280.35 255 255 255
46.5868 -98.166 1240.57 255 255 255
-379.99 342.328 654.143 255 255 255
308.939 -93.5425 1103.19 255 255 255
-400.159 131.321 935.442 255 255 255
174.021 -166.212 1264.14 255 255 255
258.48 26.6742 898.61 255 255 255
-732.068 -422.854 1694.66 255 255 255
-969.044 -484.916 1730.79 255 255 255
-76.1692 296.098 766.688 255 255 255
198.96 -71.9064 1125.87 255 255 255
302.594 -56.2592 1054.71 255 255 255
230.84 -126.076 1167.01 255 255 255
20.3556 46.554 873.222 255 255 255
319.538 -117.365 1115.77 255 255 255
462.54 -2.2624 831.953 255 255 255
354.893 -114.336 1112.7 255 255 255
-77.5126 318.904 761.281 255 255 255
106.341 -155.799 1282.12 255 255 255
-629.134 -451.298 1702.34 255 255 255
-173.418 307.294 933.525 255 255 255
32.0544 251.778 686.172 255 255 255
132.379 -146.651 1244.64 255 255 255
284.456 -100.824 1130.79 255 255 255
-887.502 -284.438 1474.2 255 255 255
378.656 140.591 696.851 255 255 255
154.468 -201.707 1311.69 255 255 255
-146.87 360.007 706.458 255 255 255
444.473 35.0841 781.066 255 255 255
-235.818 312.04 870.367 255 255 255
251.592 14.0602 908.888 255 255 255
106.929 80.257 801.204 255 255 255
-1.5705 -137.582 1325.15 255 255 255
200.946 -144.019 1213.54 255 255 255
-841.466 -421.364 1631.9 255 255 255
377.626 -74.4235 1063.77 255 255 255
-337.022 338.971 695.662 255 255 255
-459.205 -598.569 1702.56 255 255 255
-250.968 337.141 741.339 255 255 255
-335.765 345.736 691.42 255 255 255
367.3 226.32 663.893 255 255 255
-513 -687.38 1807.63 255 255 255
-434.602 104.882 1188.87 255 255 255
443.744 -12.8259 863.378 255 255 255
-949.824 -432.277 1702.69 255 255 255
149.274 -79.6396 1164.05 255 255 255
-130.198 347.476 733.518 255 255 255
317.392 -51.039 1061.86 255 255 255
-254.489 339.638 630.417 255 255 255
68.4561 103.298 746.735 255 255 255
227.961 -28.4377 963.851 255 255 255
407.551 87.5858 731.537 255 255 255
-888.958 -452.633 1667.51 255 255 255
-344 335.642 667.347 255 255 255
213.874 231.18 636.397 255 255 255
341.992 -105.069 1090.25 255 255 255
-396.19 112.038 1379.54 255 255 255
-108.876 -238.212 1512.05 255 255 255
-216.148 330.263 893.904 255 255 255
268.388 59.3744 850.731 255 255 255
-115.385 -140.649 1329.17 255 255 255
70.013 63.1879 828.632 255 255 255
19.7969 232.027 667.471 255 255 255
-451.773 -710.72 1652.27 255 255 255
419.189 6.36658 889.091 255 255 255
-304.134 344.274 761.78 255 255 255
131.565 -124.894 1240.12 255 255 255
-73.11 -229.318 1476.77 255 255 255
417.566 65.1609 778.172 255 255 255
-536.71 -471.373 1714.41 255 255 255
-939.878 -515.732 1681.24 255 255 255
138.759 43.6008 912.469 255 255 255
244.625 -19.2527 959.464 255 255 255
346.63 38.9176 885.59 255 255 255
184.854 38.8722 882.531 255 255 255
-68.1411 -162.19 1342.18 255 255 255
-562.34 -387.755 1564.82 255 255 255
104.736 -80.7262 1206.01 255 255 255
321.715 222.353 574.644 255 255 255
421.766 6.58894 946.963 255 255 255
-227.463 341.849 765.95 255 255 255
374.113 45.1259 824.434 255 255 255
401.246 56.6897 768.402 255 255 255
124.415 -195.37 1313.13 255 255 255
-377.452 225.396 913.058 255 255 255
-97.9863 327.083 771.482 255 255 255
-97.8007 290.868 799.115 255 255 255
15.486 235.814 707.662 255 255 255
-109.095 243.722 911.164 255 255 255
115.044 61.5657 825.059 255 255 255
281.32 320.784 622.564 255 255 255
323.045 -88.0508 1089.87 255 255 255
-503.562 93.1691 1233.29 255 255 255
-284.667 336.903 640.014 255 255 255
-743.814 -512.741 1742.43 255 255 255
138.007 -6.12666 992.545 255 255 255
437.137 52.3644 767.422 255 255 255
208.902 -18.5601 969.952 255 255 255
448.06 23.8684 792.55 255 255 255
259.662 -164.212 1224.35 255 255 255
411.347 56.5191 773.495 255 255 255
-151.83 205.926 949.351 255 255 255
317.16 244.412 578.787 255 255 255
413.077 33.0573 837.099 255 255 255
-840.618 -541.357 1682.14 255 255 255
-364.617 331.173 725.297 255 255 255
-1008.95 -466.211 1690.32 255 255 255
315.709 -86.992 1104.14 255 255 255
-407.86 136.469 824.248 255 255 255
403.869 90.5755 741.68 255 255 255
-806.314 -219.375 1406.3 255 255 255
-497.124 -499.961 1735.92 255 255 255
367.798 -90.2592 1071.85 255 255 255
62.9993 -142.522 1269.55 255 255 255
31.2266 -97.525 1266.11 255 255 255
-229.481 -136.365 1385.01 255 255 255
7.38742 230.157 727.925 255 255 255
-135.179 284.834 881.233 255 255 255
232.566 -154.772 1232.69 255 255 255
420.992 6.02898 872.462 255 255 255
-2.56867 81.2873 793.05 255 255 255
-77.811 -140.214 1310.59 255 255 255
255.204 -99.9884 1096.79 255 255 255
418.501 106.486 744.998 255 255 255
162.168 -48.3413 1129.7 255 255 255
-443.935 106.804 1151.91 255 255 255
